$ 1 0.000005 9.001713130052181 63 5 43
409 704 192 816 192 1 0.6 -4.487332133889195 0.023100000000000002 1
R 752 160 752 48 0 0 40 13 0 0 0.5
r 816 144 768 144 0 2000
w 816 144 816 192 0
r 704 144 656 144 0 1000
w 704 176 704 144 0
w 704 144 768 144 0
g 656 144 656 160 0
r 624 208 576 208 0 200000
w 624 80 624 208 0
w 624 208 704 208 0
R 288 224 256 224 0 1 40 1.5 1.5 0 0.5
O 816 192 848 192 0 0
S 512 80 480 80 0 0 false 0 2
g 480 96 480 112 0
R 480 64 448 64 0 0 40 3 0 0 0.5
r 576 80 624 80 0 100000
R 752 224 752 256 0 0 40 -1 0 0 0.5
r 560 80 560 128 0 1000
r 560 80 560 32 0 1000
g 560 128 560 144 0
R 560 32 560 0 0 0 40 3 0 0 0.5
s 512 80 560 80 0 1 false
403 608 -80 720 48 0 12_32_0_4882_12_0.0001_0_1
w 576 80 560 80 0
409 288 208 384 208 1 0.6 -1.3067464380304696 0.023100000000000002 1
R 336 240 336 272 0 0 40 -1 0 0 0.5
R 336 176 336 64 0 0 40 13 0 0 0.5
r 400 160 352 160 0 2000
r 288 160 240 160 0 1000
r 288 80 240 80 0 2000
w 288 80 288 160 0
w 288 160 352 160 0
w 288 160 288 192 0
w 400 160 400 208 0
w 384 208 400 208 0
w 400 208 576 208 0
s 192 80 240 80 0 1 false
R 160 64 128 64 0 0 40 3 0 0 0.5
g 160 96 160 112 0
S 192 80 160 80 0 0 false 0 2
s 192 160 240 160 0 1 false
R 160 144 128 144 0 0 40 3 0 0 0.5
g 160 176 160 192 0
S 192 160 160 160 0 0 false 0 2
