G0 Z0.5
G0 X101.5 Y74.4
G1 Z-0.5 F50
G1 X136.4 F400

G0 Z0.5
G0 Y73.6 X136.4
G1 Z0 F50
G1 Y75.2 Z-1.0

G0 Z0.5
G0 Y73.6 X136.0
G1 Z0 F50
G1 Y75.2 Z-1.0

G0 Z0.5
G0 Y73.6 X135.6
G1 Z0 F50
G1 Y75.2 Z-1.0

G0 Z0.5
G0 Y73.6 X135.2
G1 Z0 F50
G1 Y75.2 Z-1.0

G0 Z0.5
G0 Y73.6 X134.8
G1 Z0 F50
G1 Y75.2 Z-1.0

G0 Z0.5
G0 Y73.6 X134.4
G1 Z0 F50
G1 Y75.2 Z-1.0

G0 Z0.5
G0 Y73.6 X134.0
G1 Z0 F50
G1 Y75.2 Z-1.0

G0 Z0.5
G0 Y73.6 X133.6
G1 Z0 F50
G1 Y75.2 Z-1.0

G0 Z0.5
G0 Y73.6 X133.2
G1 Z0 F50
G1 Y75.2 Z-1.0

G0 Z0.5
G0 Y73.6 X132.8
G1 Z0 F50
G1 Y75.2 Z-1.0

G0 Z0.5
G0 Y73.6 X132.4
G1 Z0 F50
G1 Y75.2 Z-1.0

G0 Z0.5
G0 Y73.6 X132.0
G1 Z0 F50
G1 Y75.2 Z-1.0

G0 Z0.5
G0 Y73.6 X131.6
G1 Z0 F50
G1 Y75.2 Z-1.0

G0 Z0.5
G0 Y73.6 X131.2
G1 Z0 F50
G1 Y75.2 Z-1.0

G0 Z0.5
G0 Y73.6 X130.8
G1 Z0 F50
G1 Y75.2 Z-1.0

G0 Z0.5
G0 Y73.6 X130.4
G1 Z0 F50
G1 Y75.2 Z-1.0

G0 Z0.5
G0 Y73.6 X130.0
G1 Z0 F50
G1 Y75.2 Z-1.0

G0 Z0.5
G0 Y73.6 X129.6
G1 Z0 F50
G1 Y75.2 Z-1.0

G0 Z0.5
G0 Y73.6 X129.2
G1 Z0 F50
G1 Y75.2 Z-1.0

G0 Z0.5
G0 Y73.6 X128.8
G1 Z0 F50
G1 Y75.2 Z-1.0

G0 Z0.5
G0 Y73.6 X128.4
G1 Z0 F50
G1 Y75.2 Z-1.0

G0 Z0.5
G0 Y73.6 X128.0
G1 Z0 F50
G1 Y75.2 Z-1.0

G0 Z0.5
G0 Y73.6 X127.6
G1 Z0 F50
G1 Y75.2 Z-1.0

G0 Z0.5
G0 Y73.6 X127.2
G1 Z0 F50
G1 Y75.2 Z-1.0

G0 Z0.5
G0 Y73.6 X126.8
G1 Z0 F50
G1 Y75.2 Z-1.0

G0 Z0.5
G0 Y73.6 X126.4
G1 Z0 F50
G1 Y75.2 Z-1.0

G0 Z0.5
G0 Y73.6 X126.0
G1 Z0 F50
G1 Y75.2 Z-1.0

G0 Z0.5
G0 Y73.6 X125.6
G1 Z0 F50
G1 Y75.2 Z-1.0

G0 Z0.5
G0 Y73.6 X125.2
G1 Z0 F50
G1 Y75.2 Z-1.0

G0 Z0.5
G0 Y73.6 X124.8
G1 Z0 F50
G1 Y75.2 Z-1.0

G0 Z0.5
G0 Y73.6 X124.4
G1 Z0 F50
G1 Y75.2 Z-1.0

G0 Z0.5
G0 Y73.6 X124.0
G1 Z0 F50
G1 Y75.2 Z-1.0

G0 Z0.5
G0 Y73.6 X123.6
G1 Z0 F50
G1 Y75.2 Z-1.0

G0 Z0.5
G0 Y73.6 X123.2
G1 Z0 F50
G1 Y75.2 Z-1.0

G0 Z0.5
G0 Y73.6 X122.8
G1 Z0 F50
G1 Y75.2 Z-1.0

G0 Z0.5
G0 Y73.6 X122.4
G1 Z0 F50
G1 Y75.2 Z-1.0

G0 Z0.5
G0 Y73.6 X122.0
G1 Z0 F50
G1 Y75.2 Z-1.0

G0 Z0.5
G0 Y73.6 X121.6
G1 Z0 F50
G1 Y75.2 Z-1.0

G0 Z0.5
G0 Y73.6 X121.2
G1 Z0 F50
G1 Y75.2 Z-1.0

G0 Z0.5
G0 Y73.6 X120.8
G1 Z0 F50
G1 Y75.2 Z-1.0

G0 Z0.5
G0 Y73.6 X120.4
G1 Z0 F50
G1 Y75.2 Z-1.0

G0 Z0.5
G0 Y73.6 X120.0
G1 Z0 F50
G1 Y75.2 Z-1.0

G0 Z0.5
G0 Y73.6 X119.6
G1 Z0 F50
G1 Y75.2 Z-1.0

G0 Z0.5
G0 Y73.6 X119.2
G1 Z0 F50
G1 Y75.2 Z-1.0

G0 Z0.5
G0 Y73.6 X118.8
G1 Z0 F50
G1 Y75.2 Z-1.0

G0 Z0.5
G0 Y73.6 X118.4
G1 Z0 F50
G1 Y75.2 Z-1.0

G0 Z0.5
G0 Y73.6 X118.0
G1 Z0 F50
G1 Y75.2 Z-1.0

G0 Z0.5
G0 Y73.6 X117.6
G1 Z0 F50
G1 Y75.2 Z-1.0

G0 Z0.5
G0 Y73.6 X117.2
G1 Z0 F50
G1 Y75.2 Z-1.0

G0 Z0.5
G0 Y73.6 X116.8
G1 Z0 F50
G1 Y75.2 Z-1.0

G0 Z0.5
G0 Y73.6 X116.4
G1 Z0 F50
G1 Y75.2 Z-1.0

G0 Z0.5
G0 Y73.6 X116.0
G1 Z0 F50
G1 Y75.2 Z-1.0

G0 Z0.5
G0 Y73.6 X115.6
G1 Z0 F50
G1 Y75.2 Z-1.0

G0 Z0.5
G0 Y73.6 X115.2
G1 Z0 F50
G1 Y75.2 Z-1.0

G0 Z0.5
G0 Y73.6 X114.8
G1 Z0 F50
G1 Y75.2 Z-1.0

G0 Z0.5
G0 Y73.6 X114.4
G1 Z0 F50
G1 Y75.2 Z-1.0

G0 Z0.5
G0 Y73.6 X114.0
G1 Z0 F50
G1 Y75.2 Z-1.0

G0 Z0.5
G0 Y73.6 X113.6
G1 Z0 F50
G1 Y75.2 Z-1.0

G0 Z0.5
G0 Y73.6 X113.2
G1 Z0 F50
G1 Y75.2 Z-1.0

G0 Z0.5
G0 Y73.6 X112.8
G1 Z0 F50
G1 Y75.2 Z-1.0

G0 Z0.5
G0 Y73.6 X112.4
G1 Z0 F50
G1 Y75.2 Z-1.0

G0 Z0.5
G0 Y73.6 X112.0
G1 Z0 F50
G1 Y75.2 Z-1.0

G0 Z0.5
G0 Y73.6 X111.6
G1 Z0 F50
G1 Y75.2 Z-1.0

G0 Z0.5
G0 Y73.6 X111.2
G1 Z0 F50
G1 Y75.2 Z-1.0

G0 Z0.5
G0 Y73.6 X110.8
G1 Z0 F50
G1 Y75.2 Z-1.0

G0 Z0.5
G0 Y73.6 X110.4
G1 Z0 F50
G1 Y75.2 Z-1.0

G0 Z0.5
G0 Y73.6 X110.0
G1 Z0 F50
G1 Y75.2 Z-1.0

G0 Z0.5
G0 Y73.6 X109.6
G1 Z0 F50
G1 Y75.2 Z-1.0

G0 Z0.5
G0 Y73.6 X109.2
G1 Z0 F50
G1 Y75.2 Z-1.0

G0 Z0.5
G0 Y73.6 X108.8
G1 Z0 F50
G1 Y75.2 Z-1.0

G0 Z0.5
G0 Y73.6 X108.4
G1 Z0 F50
G1 Y75.2 Z-1.0

G0 Z0.5
G0 Y73.6 X108.0
G1 Z0 F50
G1 Y75.2 Z-1.0

G0 Z0.5
G0 Y73.6 X107.6
G1 Z0 F50
G1 Y75.2 Z-1.0

G0 Z0.5
G0 Y73.6 X107.2
G1 Z0 F50
G1 Y75.2 Z-1.0

G0 Z0.5
G0 Y73.6 X106.8
G1 Z0 F50
G1 Y75.2 Z-1.0

G0 Z0.5
G0 Y73.6 X106.4
G1 Z0 F50
G1 Y75.2 Z-1.0

G0 Z0.5
G0 Y73.6 X106.0
G1 Z0 F50
G1 Y75.2 Z-1.0

G0 Z0.5
G0 Y73.6 X105.6
G1 Z0 F50
G1 Y75.2 Z-1.0

G0 Z0.5
G0 Y73.6 X105.2
G1 Z0 F50
G1 Y75.2 Z-1.0

G0 Z0.5
G0 Y73.6 X104.8
G1 Z0 F50
G1 Y75.2 Z-1.0

G0 Z0.5
G0 Y73.6 X104.4
G1 Z0 F50
G1 Y75.2 Z-1.0

G0 Z0.5
G0 Y73.6 X104.0
G1 Z0 F50
G1 Y75.2 Z-1.0

G0 Z0.5
G0 Y73.6 X103.6
G1 Z0 F50
G1 Y75.2 Z-1.0

G0 Z0.5
G0 Y73.6 X103.2
G1 Z0 F50
G1 Y75.2 Z-1.0

G0 Z0.5
G0 Y73.6 X102.8
G1 Z0 F50
G1 Y75.2 Z-1.0

G0 Z0.5
G0 Y73.6 X102.4
G1 Z0 F50
G1 Y75.2 Z-1.0

G0 Z0.5
G0 Y73.6 X102.0
G1 Z0 F50
G1 Y75.2 Z-1.0

G0 Z0.5
G0 Y73.6 X101.6
G1 Z0 F50
G1 Y75.2 Z-1.0

G0 Z0.5
G0 Y73.6 X101.5
G1 Z0 F50
G1 Y75.2 Z-1.0
