EESchema Schematic File Version 4
EELAYER 30 0
EELAYER END
$Descr A4 11693 8268
encoding utf-8
Sheet 1 1
Title ""
Date ""
Rev ""
Comp ""
Comment1 ""
Comment2 ""
Comment3 ""
Comment4 ""
$EndDescr
$Comp
L Device:R R13
U 1 1 5F546595
P 2500 4500
F 0 "R13" V 2450 4650 50  0000 C CNN
F 1 "2k" V 2500 4500 50  0000 C CNN
F 2 "Resistor_SMD:R_0603_1608Metric" V 2430 4500 50  0001 C CNN
F 3 "~" H 2500 4500 50  0001 C CNN
	1    2500 4500
	0    1    1    0   
$EndComp
$Comp
L Device:R R17
U 1 1 5F546152
P 3050 4650
F 0 "R17" V 3000 4750 50  0000 L CNN
F 1 "2k" V 3050 4600 50  0000 L CNN
F 2 "Resistor_SMD:R_0603_1608Metric" V 2980 4650 50  0001 C CNN
F 3 "~" H 3050 4650 50  0001 C CNN
	1    3050 4650
	0    1    1    0   
$EndComp
Text Label 1950 4500 0    50   ~ 0
CH1_DIV1
Text Label 1950 4600 0    50   ~ 0
CH1_DIV2
$Comp
L Amplifier_Operational:NE5532 U2
U 1 1 5F549106
P 3050 4400
F 0 "U2" H 3200 4300 50  0000 C CNN
F 1 "NE5532" H 3250 4500 50  0000 C CNN
F 2 "Package_SO:SOIC-8_3.9x4.9mm_P1.27mm" H 3050 4400 50  0001 C CNN
F 3 "http://www.ti.com/lit/ds/symlink/ne5532.pdf" H 3050 4400 50  0001 C CNN
	1    3050 4400
	1    0    0    -1  
$EndComp
$Comp
L Amplifier_Operational:NE5532 U2
U 2 1 5F54B2A3
P 3050 5000
F 0 "U2" H 3200 4900 50  0000 C CNN
F 1 "NE5532" H 3250 5100 50  0000 C CNN
F 2 "Package_SO:SOIC-8_3.9x4.9mm_P1.27mm" H 3050 5000 50  0001 C CNN
F 3 "http://www.ti.com/lit/ds/symlink/ne5532.pdf" H 3050 5000 50  0001 C CNN
	2    3050 5000
	1    0    0    -1  
$EndComp
$Comp
L Amplifier_Operational:NE5532 U2
U 3 1 5F54C1D1
P 1650 4700
F 0 "U2" H 1608 4746 50  0000 L CNN
F 1 "NE5532" H 1608 4655 50  0000 L CNN
F 2 "Package_SO:SOIC-8_3.9x4.9mm_P1.27mm" H 1650 4700 50  0001 C CNN
F 3 "http://www.ti.com/lit/ds/symlink/ne5532.pdf" H 1650 4700 50  0001 C CNN
	3    1650 4700
	1    0    0    -1  
$EndComp
Text Label 1950 4300 0    50   ~ 0
CH1_IN
Wire Wire Line
	2750 4300 1950 4300
Wire Wire Line
	2350 4600 1950 4600
Wire Wire Line
	1950 4500 2350 4500
Wire Wire Line
	2750 4500 2700 4500
Wire Wire Line
	2700 4500 2700 4600
Wire Wire Line
	2700 4600 2650 4600
Connection ~ 2700 4500
Wire Wire Line
	2700 4500 2650 4500
Wire Wire Line
	2700 4600 2700 4650
Wire Wire Line
	2700 4650 2900 4650
Connection ~ 2700 4600
Wire Wire Line
	3200 4650 3400 4650
Wire Wire Line
	3400 4650 3400 4400
Wire Wire Line
	3400 4400 3350 4400
Text Label 3750 4400 2    50   ~ 0
CH1_OUT
Wire Wire Line
	2650 5100 2700 5100
Wire Wire Line
	2700 5100 2700 5200
Wire Wire Line
	2700 5200 2650 5200
Connection ~ 2700 5100
Wire Wire Line
	2700 5100 2750 5100
Wire Wire Line
	2700 5200 2700 5250
Wire Wire Line
	2700 5250 2900 5250
Connection ~ 2700 5200
Text Label 1950 4900 0    50   ~ 0
CH2_IN
Text Label 1950 5100 0    50   ~ 0
CH2_DIV1
Text Label 1950 5200 0    50   ~ 0
CH2_DIV2
Wire Wire Line
	1950 4900 2750 4900
Wire Wire Line
	2350 5100 1950 5100
Wire Wire Line
	1950 5200 2350 5200
Text Label 3750 5000 2    50   ~ 0
CH2_OUT
Wire Wire Line
	3400 5000 3400 5250
Wire Wire Line
	3400 5250 3200 5250
Wire Wire Line
	3400 5000 3350 5000
$Comp
L Device:R R15
U 1 1 5F595333
P 2500 5100
F 0 "R15" V 2450 5250 50  0000 C CNN
F 1 "2k" V 2500 5100 50  0000 C CNN
F 2 "Resistor_SMD:R_0603_1608Metric" V 2430 5100 50  0001 C CNN
F 3 "~" H 2500 5100 50  0001 C CNN
	1    2500 5100
	0    1    1    0   
$EndComp
$Comp
L Device:R R18
U 1 1 5F5957C1
P 3050 5250
F 0 "R18" V 3000 5350 50  0000 L CNN
F 1 "2k" V 3050 5200 50  0000 L CNN
F 2 "Resistor_SMD:R_0603_1608Metric" V 2980 5250 50  0001 C CNN
F 3 "~" H 3050 5250 50  0001 C CNN
	1    3050 5250
	0    1    1    0   
$EndComp
$Comp
L Device:R R16
U 1 1 5F595339
P 2500 5200
F 0 "R16" V 2550 5350 50  0000 C CNN
F 1 "1k" V 2500 5200 50  0000 C CNN
F 2 "Resistor_SMD:R_0603_1608Metric" V 2430 5200 50  0001 C CNN
F 3 "~" H 2500 5200 50  0001 C CNN
	1    2500 5200
	0    1    1    0   
$EndComp
$Comp
L Device:R R14
U 1 1 5F546AF1
P 2500 4600
F 0 "R14" V 2550 4750 50  0000 C CNN
F 1 "1k" V 2500 4600 50  0000 C CNN
F 2 "Resistor_SMD:R_0603_1608Metric" V 2430 4600 50  0001 C CNN
F 3 "~" H 2500 4600 50  0001 C CNN
	1    2500 4600
	0    1    1    0   
$EndComp
Text Label 4800 1650 0    50   ~ 0
CH1_DIV1
$Comp
L Switch:SW_Push SW3
U 1 1 5F6CFC4E
P 3400 6750
F 0 "SW3" V 3550 6750 50  0000 L CNN
F 1 "SW_Push" H 3250 6700 50  0000 L CNN
F 2 "Button_Switch_THT:SW_PUSH_6mm" H 3400 6950 50  0001 C CNN
F 3 "~" H 3400 6950 50  0001 C CNN
	1    3400 6750
	0    1    1    0   
$EndComp
$Comp
L power:GND #PWR0109
U 1 1 5F6CFC5A
P 3000 7050
F 0 "#PWR0109" H 3000 6800 50  0001 C CNN
F 1 "GND" H 3005 6877 50  0000 C CNN
F 2 "" H 3000 7050 50  0001 C CNN
F 3 "" H 3000 7050 50  0001 C CNN
	1    3000 7050
	1    0    0    -1  
$EndComp
Wire Wire Line
	3000 7050 3000 7000
$Comp
L Switch:SW_Push SW4
U 1 1 5F6CFC67
P 3000 6750
F 0 "SW4" V 3150 6750 50  0000 L CNN
F 1 "SW_Push" H 2850 6700 50  0000 L CNN
F 2 "Button_Switch_THT:SW_PUSH_6mm" H 3000 6950 50  0001 C CNN
F 3 "~" H 3000 6950 50  0001 C CNN
	1    3000 6750
	0    1    1    0   
$EndComp
$Comp
L power:GND #PWR0110
U 1 1 5F6CFC73
P 3400 7050
F 0 "#PWR0110" H 3400 6800 50  0001 C CNN
F 1 "GND" H 3405 6877 50  0000 C CNN
F 2 "" H 3400 7050 50  0001 C CNN
F 3 "" H 3400 7050 50  0001 C CNN
	1    3400 7050
	1    0    0    -1  
$EndComp
Wire Wire Line
	3400 7050 3400 7000
$Comp
L Device:LED D1
U 1 1 5F6CFC85
P 2300 6850
F 0 "D1" V 2400 6850 50  0000 R CNN
F 1 "LED" H 2250 6900 50  0000 R CNN
F 2 "LED_THT:LED_D3.0mm" H 2300 6850 50  0001 C CNN
F 3 "~" H 2300 6850 50  0001 C CNN
	1    2300 6850
	0    -1   -1   0   
$EndComp
$Comp
L power:GND #PWR0111
U 1 1 5F6CFC8B
P 1650 7050
F 0 "#PWR0111" H 1650 6800 50  0001 C CNN
F 1 "GND" H 1655 6877 50  0000 C CNN
F 2 "" H 1650 7050 50  0001 C CNN
F 3 "" H 1650 7050 50  0001 C CNN
	1    1650 7050
	1    0    0    -1  
$EndComp
Wire Wire Line
	1650 7050 1650 7000
$Comp
L Switch:SW_Push SW2
U 1 1 5F6CFC97
P 1650 6750
F 0 "SW2" V 1800 6750 50  0000 L CNN
F 1 "SW_Push" H 1500 6700 50  0000 L CNN
F 2 "Button_Switch_THT:SW_PUSH_6mm" H 1650 6950 50  0001 C CNN
F 3 "~" H 1650 6950 50  0001 C CNN
	1    1650 6750
	0    1    1    0   
$EndComp
$Comp
L Device:LED D2
U 1 1 5F6CFC9D
P 2600 6850
F 0 "D2" V 2700 6850 50  0000 R CNN
F 1 "LED" H 2550 6900 50  0000 R CNN
F 2 "LED_THT:LED_D3.0mm" H 2600 6850 50  0001 C CNN
F 3 "~" H 2600 6850 50  0001 C CNN
	1    2600 6850
	0    -1   -1   0   
$EndComp
$Comp
L power:GND #PWR0112
U 1 1 5F6CFCA3
P 2050 7050
F 0 "#PWR0112" H 2050 6800 50  0001 C CNN
F 1 "GND" H 2055 6877 50  0000 C CNN
F 2 "" H 2050 7050 50  0001 C CNN
F 3 "" H 2050 7050 50  0001 C CNN
	1    2050 7050
	1    0    0    -1  
$EndComp
Wire Wire Line
	2050 7050 2050 7000
$Comp
L Device:Rotary_Encoder SW13
U 1 1 5F8C4E79
P 10200 4950
F 0 "SW13" V 10189 4720 50  0000 R CNN
F 1 "Rotary_Encoder" V 10098 4720 50  0000 R CNN
F 2 "Rotary_Encoder:RotaryEncoder_Alps_EC12E_Vertical_H20mm" H 10050 5110 50  0001 C CNN
F 3 "~" H 10200 5210 50  0001 C CNN
	1    10200 4950
	0    -1   -1   0   
$EndComp
Text Label 10100 5550 1    50   ~ 0
ENC_A
Text Label 10300 5550 1    50   ~ 0
ENC_B
Wire Wire Line
	10200 6000 10200 5950
Wire Wire Line
	10300 5250 10300 5550
Wire Wire Line
	10100 5250 10100 5550
$Comp
L power:GND #PWR0113
U 1 1 5F8CA966
P 10200 6000
F 0 "#PWR0113" H 10200 5750 50  0001 C CNN
F 1 "GND" H 10205 5827 50  0000 C CNN
F 2 "" H 10200 6000 50  0001 C CNN
F 3 "" H 10200 6000 50  0001 C CNN
	1    10200 6000
	1    0    0    -1  
$EndComp
Wire Wire Line
	5900 800  5900 850 
$Comp
L power:GND #PWR0115
U 1 1 5F90579C
P 5900 2800
F 0 "#PWR0115" H 5900 2550 50  0001 C CNN
F 1 "GND" H 5905 2627 50  0000 C CNN
F 2 "" H 5900 2800 50  0001 C CNN
F 3 "" H 5900 2800 50  0001 C CNN
	1    5900 2800
	1    0    0    -1  
$EndComp
Wire Wire Line
	5900 2800 5900 2750
$Comp
L power:+12V #PWR0116
U 1 1 5F91E692
P 2150 900
F 0 "#PWR0116" H 2150 750 50  0001 C CNN
F 1 "+12V" H 2165 1073 50  0000 C CNN
F 2 "" H 2150 900 50  0001 C CNN
F 3 "" H 2150 900 50  0001 C CNN
	1    2150 900 
	1    0    0    -1  
$EndComp
Wire Wire Line
	2150 900  2150 950 
$Comp
L Device:C C2
U 1 1 5F95FC41
P 2150 1150
F 0 "C2" H 2150 1250 50  0000 L CNN
F 1 "1u" H 2150 1050 50  0000 L CNN
F 2 "Capacitor_SMD:C_0603_1608Metric" H 2188 1000 50  0001 C CNN
F 3 "~" H 2150 1150 50  0001 C CNN
	1    2150 1150
	1    0    0    -1  
$EndComp
$Comp
L Device:C C1
U 1 1 5F96015F
P 2850 1150
F 0 "C1" H 2850 1250 50  0000 L CNN
F 1 "4.7u" H 2850 1050 50  0000 L CNN
F 2 "Capacitor_SMD:C_0603_1608Metric" H 2888 1000 50  0001 C CNN
F 3 "~" H 2850 1150 50  0001 C CNN
	1    2850 1150
	1    0    0    -1  
$EndComp
$Comp
L power:GND #PWR0118
U 1 1 5F980781
P 2150 1400
F 0 "#PWR0118" H 2150 1150 50  0001 C CNN
F 1 "GND" H 2155 1227 50  0000 C CNN
F 2 "" H 2150 1400 50  0001 C CNN
F 3 "" H 2150 1400 50  0001 C CNN
	1    2150 1400
	1    0    0    -1  
$EndComp
Wire Wire Line
	2500 1350 2850 1350
Wire Wire Line
	2850 1350 2850 1300
Connection ~ 2500 1350
Connection ~ 2850 1350
Wire Wire Line
	1550 5100 1550 5050
$Comp
L power:+12V #PWR0132
U 1 1 5FB4A02A
P 1550 4300
F 0 "#PWR0132" H 1550 4150 50  0001 C CNN
F 1 "+12V" H 1565 4473 50  0000 C CNN
F 2 "" H 1550 4300 50  0001 C CNN
F 3 "" H 1550 4300 50  0001 C CNN
	1    1550 4300
	1    0    0    -1  
$EndComp
Wire Wire Line
	1550 4300 1550 4350
$Comp
L Device:C C8
U 1 1 5FBC7649
P 1050 4700
F 0 "C8" V 1000 4750 50  0000 L CNN
F 1 "0.1u" V 1000 4450 50  0000 L CNN
F 2 "Capacitor_SMD:C_0603_1608Metric" H 1088 4550 50  0001 C CNN
F 3 "~" H 1050 4700 50  0001 C CNN
	1    1050 4700
	1    0    0    -1  
$EndComp
$Comp
L Device:CP C9
U 1 1 5FBCA90D
P 1300 4700
F 0 "C9" V 1350 4750 50  0000 L CNN
F 1 "47u" V 1250 4450 50  0000 L CNN
F 2 "Capacitor_THT:CP_Radial_D5.0mm_P2.50mm" H 1338 4550 50  0001 C CNN
F 3 "~" H 1300 4700 50  0001 C CNN
	1    1300 4700
	1    0    0    -1  
$EndComp
Wire Wire Line
	1300 4850 1300 5050
Wire Wire Line
	1300 5050 1550 5050
Connection ~ 1550 5050
Wire Wire Line
	1550 5050 1550 5000
Wire Wire Line
	1050 4850 1050 5050
Wire Wire Line
	1050 5050 1300 5050
Connection ~ 1300 5050
Wire Wire Line
	1300 4550 1300 4350
Wire Wire Line
	1300 4350 1550 4350
Connection ~ 1550 4350
Wire Wire Line
	1550 4350 1550 4400
Wire Wire Line
	1050 4550 1050 4350
Wire Wire Line
	1050 4350 1300 4350
Connection ~ 1300 4350
Text Label 1700 2650 2    50   ~ 0
SWDIO
Text Label 1700 2750 2    50   ~ 0
SWCLK
Text Label 5150 1050 0    50   ~ 0
~RST
Wire Wire Line
	5150 1050 5300 1050
Text Label 1700 2850 2    50   ~ 0
~RST
Wire Wire Line
	1700 2850 1400 2850
Wire Wire Line
	1700 2650 1400 2650
Wire Wire Line
	1400 2750 1700 2750
$Comp
L power:+3V0 #PWR0135
U 1 1 5F8FB42F
P 5900 800
F 0 "#PWR0135" H 5900 650 50  0001 C CNN
F 1 "+3V0" H 5915 973 50  0000 C CNN
F 2 "" H 5900 800 50  0001 C CNN
F 3 "" H 5900 800 50  0001 C CNN
	1    5900 800 
	1    0    0    -1  
$EndComp
$Comp
L power:+3V0 #PWR0136
U 1 1 5FD0F43D
P 800 2600
F 0 "#PWR0136" H 800 2450 50  0001 C CNN
F 1 "+3V0" H 815 2773 50  0000 C CNN
F 2 "" H 800 2600 50  0001 C CNN
F 3 "" H 800 2600 50  0001 C CNN
	1    800  2600
	1    0    0    -1  
$EndComp
$Comp
L power:GND #PWR0137
U 1 1 5FD215BB
P 850 2900
F 0 "#PWR0137" H 850 2650 50  0001 C CNN
F 1 "GND" H 855 2727 50  0000 C CNN
F 2 "" H 850 2900 50  0001 C CNN
F 3 "" H 850 2900 50  0001 C CNN
	1    850  2900
	1    0    0    -1  
$EndComp
$Comp
L Device:C C4
U 1 1 5FDA9C1A
P 10300 5700
F 0 "C4" V 10250 5750 50  0000 L CNN
F 1 "0.1u" V 10250 5500 50  0000 L CNN
F 2 "Capacitor_SMD:C_0603_1608Metric" H 10338 5550 50  0001 C CNN
F 3 "~" H 10300 5700 50  0001 C CNN
	1    10300 5700
	1    0    0    -1  
$EndComp
$Comp
L Device:C C3
U 1 1 5FDCF6C1
P 10100 5700
F 0 "C3" V 10050 5750 50  0000 L CNN
F 1 "0.1u" V 10050 5500 50  0000 L CNN
F 2 "Capacitor_SMD:C_0603_1608Metric" H 10138 5550 50  0001 C CNN
F 3 "~" H 10100 5700 50  0001 C CNN
	1    10100 5700
	1    0    0    -1  
$EndComp
Wire Wire Line
	10100 5850 10100 5950
Wire Wire Line
	10100 5950 10200 5950
Connection ~ 10200 5950
Wire Wire Line
	10200 5950 10200 5250
Wire Wire Line
	10200 5950 10300 5950
Wire Wire Line
	10300 5950 10300 5850
$Comp
L Connector:Conn_Coaxial J3
U 1 1 5FE3B8B6
P 4750 4400
F 0 "J3" H 4850 4375 50  0000 L CNN
F 1 "Conn_Coaxial" H 4850 4284 50  0000 L CNN
F 2 "bnc:bnc" H 4750 4400 50  0001 C CNN
F 3 " ~" H 4750 4400 50  0001 C CNN
	1    4750 4400
	1    0    0    -1  
$EndComp
$Comp
L Connector:Conn_Coaxial J4
U 1 1 5FE4406C
P 4750 5000
F 0 "J4" H 4850 4975 50  0000 L CNN
F 1 "Conn_Coaxial" H 4850 4884 50  0000 L CNN
F 2 "bnc:bnc" H 4750 5000 50  0001 C CNN
F 3 " ~" H 4750 5000 50  0001 C CNN
	1    4750 5000
	1    0    0    -1  
$EndComp
$Comp
L power:GND #PWR0138
U 1 1 5FE817E4
P 4750 5250
F 0 "#PWR0138" H 4750 5000 50  0001 C CNN
F 1 "GND" H 4755 5077 50  0000 C CNN
F 2 "" H 4750 5250 50  0001 C CNN
F 3 "" H 4750 5250 50  0001 C CNN
	1    4750 5250
	1    0    0    -1  
$EndComp
$Comp
L power:GND #PWR0139
U 1 1 5FE82A3A
P 4750 4650
F 0 "#PWR0139" H 4750 4400 50  0001 C CNN
F 1 "GND" H 4755 4477 50  0000 C CNN
F 2 "" H 4750 4650 50  0001 C CNN
F 3 "" H 4750 4650 50  0001 C CNN
	1    4750 4650
	1    0    0    -1  
$EndComp
Wire Wire Line
	4750 4600 4750 4650
Wire Wire Line
	4750 5200 4750 5250
$Comp
L Connector:Conn_Coaxial J5
U 1 1 60068DB8
P 8650 4900
F 0 "J5" H 8750 4875 50  0000 L CNN
F 1 "Conn_Coaxial" H 8750 4784 50  0000 L CNN
F 2 "bnc:bnc" H 8650 4900 50  0001 C CNN
F 3 " ~" H 8650 4900 50  0001 C CNN
	1    8650 4900
	1    0    0    -1  
$EndComp
$Comp
L power:GND #PWR0140
U 1 1 60068DBE
P 8650 5150
F 0 "#PWR0140" H 8650 4900 50  0001 C CNN
F 1 "GND" H 8655 4977 50  0000 C CNN
F 2 "" H 8650 5150 50  0001 C CNN
F 3 "" H 8650 5150 50  0001 C CNN
	1    8650 5150
	1    0    0    -1  
$EndComp
Wire Wire Line
	8650 5100 8650 5150
$Comp
L Switch:SW_Push SW1
U 1 1 5F6CFC7F
P 2050 6750
F 0 "SW1" V 2200 6750 50  0000 L CNN
F 1 "SW_Push" H 1900 6700 50  0000 L CNN
F 2 "Button_Switch_THT:SW_PUSH_6mm" H 2050 6950 50  0001 C CNN
F 3 "~" H 2050 6950 50  0001 C CNN
	1    2050 6750
	0    1    1    0   
$EndComp
$Comp
L Switch:SW_Push SW5
U 1 1 60213A05
P 3800 6750
F 0 "SW5" V 3950 6750 50  0000 L CNN
F 1 "SW_Push" H 3650 6700 50  0000 L CNN
F 2 "Button_Switch_THT:SW_PUSH_6mm" H 3800 6950 50  0001 C CNN
F 3 "~" H 3800 6950 50  0001 C CNN
	1    3800 6750
	0    1    1    0   
$EndComp
$Comp
L power:GND #PWR0101
U 1 1 60213A0B
P 3800 7050
F 0 "#PWR0101" H 3800 6800 50  0001 C CNN
F 1 "GND" H 3805 6877 50  0000 C CNN
F 2 "" H 3800 7050 50  0001 C CNN
F 3 "" H 3800 7050 50  0001 C CNN
	1    3800 7050
	1    0    0    -1  
$EndComp
Wire Wire Line
	3800 7050 3800 7000
Text Label 3400 6000 3    50   ~ 0
BTN_ENTER
Text Label 3000 6000 3    50   ~ 0
BTN_BACK
Text Label 3800 6000 3    50   ~ 0
BTN_CH1_SEL
Wire Wire Line
	3800 6000 3800 6500
Wire Wire Line
	3400 6550 3400 6500
Wire Wire Line
	3000 6000 3000 6500
Text Label 1650 5950 3    50   ~ 0
BTN_CH1_EN
Text Label 2050 5950 3    50   ~ 0
BTN_CH2_EN
Text Label 2300 5850 3    50   ~ 0
LED_CH1_EN
Text Label 2600 5850 3    50   ~ 0
LED_CH2_EN
Wire Wire Line
	2600 6350 2600 5850
Wire Wire Line
	2300 5850 2300 6350
Wire Wire Line
	2050 6550 2050 6500
Wire Wire Line
	1650 5950 1650 6500
Wire Wire Line
	2300 6650 2300 6700
Wire Wire Line
	2600 6650 2600 6700
$Comp
L power:GND #PWR0102
U 1 1 60176275
P 2600 7050
F 0 "#PWR0102" H 2600 6800 50  0001 C CNN
F 1 "GND" H 2605 6877 50  0000 C CNN
F 2 "" H 2600 7050 50  0001 C CNN
F 3 "" H 2600 7050 50  0001 C CNN
	1    2600 7050
	1    0    0    -1  
$EndComp
Wire Wire Line
	2600 7000 2600 7050
$Comp
L power:GND #PWR0103
U 1 1 60175BC0
P 2300 7050
F 0 "#PWR0103" H 2300 6800 50  0001 C CNN
F 1 "GND" H 2305 6877 50  0000 C CNN
F 2 "" H 2300 7050 50  0001 C CNN
F 3 "" H 2300 7050 50  0001 C CNN
	1    2300 7050
	1    0    0    -1  
$EndComp
Wire Wire Line
	2300 7000 2300 7050
$Comp
L Device:R R1
U 1 1 5F6CFCC1
P 2300 6500
F 0 "R1" H 2300 6350 50  0000 L CNN
F 1 "220" V 2300 6400 50  0000 L CNN
F 2 "Resistor_SMD:R_0603_1608Metric" V 2230 6500 50  0001 C CNN
F 3 "~" H 2300 6500 50  0001 C CNN
	1    2300 6500
	1    0    0    -1  
$EndComp
$Comp
L Device:R R2
U 1 1 5F6CFCBB
P 2600 6500
F 0 "R2" H 2600 6350 50  0000 L CNN
F 1 "220" V 2600 6400 50  0000 L CNN
F 2 "Resistor_SMD:R_0603_1608Metric" V 2530 6500 50  0001 C CNN
F 3 "~" H 2600 6500 50  0001 C CNN
	1    2600 6500
	1    0    0    -1  
$EndComp
Text Label 6900 1850 2    50   ~ 0
BTN_ENTER
Text Label 6900 2250 2    50   ~ 0
BTN_BACK
Text Label 6900 2050 2    50   ~ 0
BTN_CH1_EN
Wire Wire Line
	6900 1850 6400 1850
Wire Wire Line
	6400 2050 6900 2050
Wire Wire Line
	6400 2250 6900 2250
Wire Wire Line
	3600 900  3600 950 
$Comp
L power:+3V0 #PWR0120
U 1 1 5F9BF167
P 3600 900
F 0 "#PWR0120" H 3600 750 50  0001 C CNN
F 1 "+3V0" H 3615 1073 50  0000 C CNN
F 2 "" H 3600 900 50  0001 C CNN
F 3 "" H 3600 900 50  0001 C CNN
	1    3600 900 
	1    0    0    -1  
$EndComp
Wire Wire Line
	2800 950  2850 950 
Text Label 6950 4900 0    50   ~ 0
CH1_TRIG
Wire Wire Line
	6900 1250 6400 1250
Text Label 6900 2150 2    50   ~ 0
BTN_CH1_SEL
Wire Wire Line
	6900 2150 6400 2150
Wire Wire Line
	4800 2550 5300 2550
$Comp
L Device:C C6
U 1 1 60475DB2
P 3600 1150
F 0 "C6" H 3600 1250 50  0000 L CNN
F 1 "0.1u" H 3600 1050 50  0000 L CNN
F 2 "Capacitor_SMD:C_0603_1608Metric" H 3638 1000 50  0001 C CNN
F 3 "~" H 3600 1150 50  0001 C CNN
	1    3600 1150
	1    0    0    -1  
$EndComp
Wire Wire Line
	3100 1300 3100 1350
Wire Wire Line
	3100 950  3100 1000
Connection ~ 3100 950 
Connection ~ 3400 4400
Wire Wire Line
	3400 4400 4000 4400
Connection ~ 3400 5000
Wire Wire Line
	3400 5000 4000 5000
$Comp
L power:+3V0 #PWR0105
U 1 1 60552610
P 7600 4750
F 0 "#PWR0105" H 7600 4600 50  0001 C CNN
F 1 "+3V0" H 7750 4750 50  0000 C CNN
F 2 "" H 7600 4750 50  0001 C CNN
F 3 "" H 7600 4750 50  0001 C CNN
	1    7600 4750
	1    0    0    -1  
$EndComp
$Comp
L power:GND #PWR0106
U 1 1 60557AD8
P 7600 5050
F 0 "#PWR0106" H 7600 4800 50  0001 C CNN
F 1 "GND" H 7750 5000 50  0000 C CNN
F 2 "" H 7600 5050 50  0001 C CNN
F 3 "" H 7600 5050 50  0001 C CNN
	1    7600 5050
	1    0    0    -1  
$EndComp
Wire Wire Line
	7600 5050 7600 5000
Wire Wire Line
	7600 4800 7600 4750
Wire Wire Line
	6950 4900 7300 4900
$Comp
L Device:C_Small C20
U 1 1 5F5BE734
P 3650 6750
F 0 "C20" V 3600 6800 50  0000 L CNN
F 1 "0.1u" V 3600 6550 50  0000 L CNN
F 2 "Capacitor_SMD:C_0603_1608Metric" H 3650 6750 50  0001 C CNN
F 3 "~" H 3650 6750 50  0001 C CNN
	1    3650 6750
	1    0    0    -1  
$EndComp
Wire Wire Line
	3650 6850 3650 7000
Wire Wire Line
	3650 7000 3800 7000
Connection ~ 3800 7000
Wire Wire Line
	3800 7000 3800 6950
Wire Wire Line
	3650 6650 3650 6500
Wire Wire Line
	3650 6500 3800 6500
Connection ~ 3800 6500
Wire Wire Line
	3800 6500 3800 6550
$Comp
L Device:C_Small C19
U 1 1 5F655A0C
P 3250 6750
F 0 "C19" V 3200 6800 50  0000 L CNN
F 1 "0.1u" V 3200 6550 50  0000 L CNN
F 2 "Capacitor_SMD:C_0603_1608Metric" H 3250 6750 50  0001 C CNN
F 3 "~" H 3250 6750 50  0001 C CNN
	1    3250 6750
	1    0    0    -1  
$EndComp
Wire Wire Line
	3250 6850 3250 7000
Wire Wire Line
	3250 7000 3400 7000
Connection ~ 3400 7000
Wire Wire Line
	3400 7000 3400 6950
Wire Wire Line
	3250 6650 3250 6500
Wire Wire Line
	3250 6500 3400 6500
Connection ~ 3400 6500
Wire Wire Line
	3400 6500 3400 6000
$Comp
L Device:C_Small C18
U 1 1 5F687ED3
P 2850 6750
F 0 "C18" V 2800 6800 50  0000 L CNN
F 1 "0.1u" V 2800 6550 50  0000 L CNN
F 2 "Capacitor_SMD:C_0603_1608Metric" H 2850 6750 50  0001 C CNN
F 3 "~" H 2850 6750 50  0001 C CNN
	1    2850 6750
	1    0    0    -1  
$EndComp
Wire Wire Line
	2850 6650 2850 6500
Wire Wire Line
	2850 6500 3000 6500
Connection ~ 3000 6500
Wire Wire Line
	3000 6500 3000 6550
Wire Wire Line
	2850 6850 2850 7000
Wire Wire Line
	2850 7000 3000 7000
Connection ~ 3000 7000
Wire Wire Line
	3000 7000 3000 6950
$Comp
L Device:C_Small C10
U 1 1 5F6F9F68
P 1900 6750
F 0 "C10" V 1850 6800 50  0000 L CNN
F 1 "0.1u" V 1850 6550 50  0000 L CNN
F 2 "Capacitor_SMD:C_0603_1608Metric" H 1900 6750 50  0001 C CNN
F 3 "~" H 1900 6750 50  0001 C CNN
	1    1900 6750
	1    0    0    -1  
$EndComp
Wire Wire Line
	1900 6650 1900 6500
Wire Wire Line
	1900 6500 2050 6500
Connection ~ 2050 6500
Wire Wire Line
	2050 6500 2050 5950
Wire Wire Line
	1900 6850 1900 7000
Wire Wire Line
	1900 7000 2050 7000
Connection ~ 2050 7000
Wire Wire Line
	2050 7000 2050 6950
$Comp
L Device:C_Small C7
U 1 1 5F710404
P 1500 6750
F 0 "C7" V 1450 6800 50  0000 L CNN
F 1 "0.1u" V 1450 6550 50  0000 L CNN
F 2 "Capacitor_SMD:C_0603_1608Metric" H 1500 6750 50  0001 C CNN
F 3 "~" H 1500 6750 50  0001 C CNN
	1    1500 6750
	1    0    0    -1  
$EndComp
Wire Wire Line
	1500 6650 1500 6500
Wire Wire Line
	1500 6500 1650 6500
Connection ~ 1650 6500
Wire Wire Line
	1650 6500 1650 6550
Wire Wire Line
	1500 6850 1500 7000
Wire Wire Line
	1500 7000 1650 7000
Connection ~ 1650 7000
Wire Wire Line
	1650 7000 1650 6950
$Comp
L Switch:SW_Push SW6
U 1 1 5FA969DB
P 4200 6750
F 0 "SW6" V 4350 6750 50  0000 L CNN
F 1 "SW_Push" H 4050 6700 50  0000 L CNN
F 2 "Button_Switch_THT:SW_PUSH_6mm" H 4200 6950 50  0001 C CNN
F 3 "~" H 4200 6950 50  0001 C CNN
	1    4200 6750
	0    1    1    0   
$EndComp
$Comp
L power:GND #PWR0104
U 1 1 5FA969E1
P 4200 7050
F 0 "#PWR0104" H 4200 6800 50  0001 C CNN
F 1 "GND" H 4205 6877 50  0000 C CNN
F 2 "" H 4200 7050 50  0001 C CNN
F 3 "" H 4200 7050 50  0001 C CNN
	1    4200 7050
	1    0    0    -1  
$EndComp
Wire Wire Line
	4200 7050 4200 7000
Text Label 4200 6000 3    50   ~ 0
BTN_CH2_SEL
Wire Wire Line
	4200 6000 4200 6500
$Comp
L Device:C_Small C5
U 1 1 5FA969EA
P 4050 6750
F 0 "C5" V 4000 6800 50  0000 L CNN
F 1 "0.1u" V 4000 6550 50  0000 L CNN
F 2 "Capacitor_SMD:C_0603_1608Metric" H 4050 6750 50  0001 C CNN
F 3 "~" H 4050 6750 50  0001 C CNN
	1    4050 6750
	1    0    0    -1  
$EndComp
Wire Wire Line
	4050 6850 4050 7000
Wire Wire Line
	4050 7000 4200 7000
Connection ~ 4200 7000
Wire Wire Line
	4200 7000 4200 6950
Wire Wire Line
	4050 6650 4050 6500
Wire Wire Line
	4050 6500 4200 6500
Connection ~ 4200 6500
Wire Wire Line
	4200 6500 4200 6550
$Comp
L Connector:Conn_Coaxial J7
U 1 1 5FB8FE9A
P 8650 5500
F 0 "J7" H 8750 5475 50  0000 L CNN
F 1 "Conn_Coaxial" H 8750 5384 50  0000 L CNN
F 2 "bnc:bnc" H 8650 5500 50  0001 C CNN
F 3 " ~" H 8650 5500 50  0001 C CNN
	1    8650 5500
	1    0    0    -1  
$EndComp
$Comp
L power:GND #PWR0114
U 1 1 5FB8FEA0
P 8650 5750
F 0 "#PWR0114" H 8650 5500 50  0001 C CNN
F 1 "GND" H 8655 5577 50  0000 C CNN
F 2 "" H 8650 5750 50  0001 C CNN
F 3 "" H 8650 5750 50  0001 C CNN
	1    8650 5750
	1    0    0    -1  
$EndComp
Wire Wire Line
	8650 5700 8650 5750
Text Label 6950 5500 0    50   ~ 0
CH2_TRIG
$Comp
L power:GND #PWR0117
U 1 1 5FB8FEAE
P 7600 5650
F 0 "#PWR0117" H 7600 5400 50  0001 C CNN
F 1 "GND" H 7750 5600 50  0000 C CNN
F 2 "" H 7600 5650 50  0001 C CNN
F 3 "" H 7600 5650 50  0001 C CNN
	1    7600 5650
	1    0    0    -1  
$EndComp
Wire Wire Line
	7600 5650 7600 5600
Wire Wire Line
	7600 5400 7600 5350
Wire Wire Line
	6950 5500 7300 5500
Text Label 6900 1250 2    50   ~ 0
CH1_TRIG
Wire Wire Line
	6900 1350 6400 1350
Text Label 6900 1350 2    50   ~ 0
CH2_TRIG
$Comp
L power:+3V0 #PWR0119
U 1 1 5FBF244D
P 7600 5350
F 0 "#PWR0119" H 7600 5200 50  0001 C CNN
F 1 "+3V0" H 7750 5350 50  0000 C CNN
F 2 "" H 7600 5350 50  0001 C CNN
F 3 "" H 7600 5350 50  0001 C CNN
	1    7600 5350
	1    0    0    -1  
$EndComp
$Comp
L Device:C_Small C11
U 1 1 5FBFF54B
P 5300 6600
F 0 "C11" H 5150 6650 50  0000 L CNN
F 1 "4p" H 5150 6500 50  0000 L CNN
F 2 "Capacitor_SMD:C_0603_1608Metric" H 5300 6600 50  0001 C CNN
F 3 "~" H 5300 6600 50  0001 C CNN
	1    5300 6600
	1    0    0    -1  
$EndComp
$Comp
L Device:C_Small C12
U 1 1 5FC01E56
P 5700 6600
F 0 "C12" H 5750 6650 50  0000 L CNN
F 1 "4p" H 5750 6500 50  0000 L CNN
F 2 "Capacitor_SMD:C_0603_1608Metric" H 5700 6600 50  0001 C CNN
F 3 "~" H 5700 6600 50  0001 C CNN
	1    5700 6600
	1    0    0    -1  
$EndComp
Text Label 5050 6500 0    50   ~ 0
XTAL1
Text Label 6000 6500 2    50   ~ 0
XTAL2
$Comp
L power:GND #PWR0121
U 1 1 5FC07A02
P 5500 6800
F 0 "#PWR0121" H 5500 6550 50  0001 C CNN
F 1 "GND" H 5505 6627 50  0000 C CNN
F 2 "" H 5500 6800 50  0001 C CNN
F 3 "" H 5500 6800 50  0001 C CNN
	1    5500 6800
	1    0    0    -1  
$EndComp
Wire Wire Line
	5300 6700 5300 6750
Wire Wire Line
	5300 6750 5500 6750
Connection ~ 5500 6750
Wire Wire Line
	5500 6750 5500 6800
Wire Wire Line
	5500 6750 5700 6750
Wire Wire Line
	5700 6750 5700 6700
Wire Wire Line
	5700 6500 5650 6500
Wire Wire Line
	5700 6500 6000 6500
Connection ~ 5700 6500
Wire Wire Line
	5350 6500 5300 6500
Wire Wire Line
	5300 6500 5050 6500
Connection ~ 5300 6500
Text Label 4800 1350 0    50   ~ 0
XTAL1
Text Label 4800 1450 0    50   ~ 0
XTAL2
Wire Wire Line
	4800 1450 5300 1450
Wire Wire Line
	4800 1350 5300 1350
$Comp
L Connector_Generic:Conn_02x03_Odd_Even J2
U 1 1 5FD8AFA0
P 1200 2750
F 0 "J2" H 1250 3050 50  0000 C CNN
F 1 "SWD" H 1250 2950 50  0000 C CNN
F 2 "Connector_PinHeader_2.54mm:PinHeader_2x03_P2.54mm_Horizontal" H 1200 2750 50  0001 C CNN
F 3 "~" H 1200 2750 50  0001 C CNN
	1    1200 2750
	-1   0    0    1   
$EndComp
Wire Wire Line
	850  2900 850  2750
Wire Wire Line
	850  2750 900  2750
Wire Wire Line
	900  2650 850  2650
Wire Wire Line
	850  2650 850  2750
Connection ~ 850  2750
Wire Wire Line
	800  2600 800  2850
Wire Wire Line
	800  2850 900  2850
$Comp
L 74xGxx:74LVC2G17 U3
U 1 1 5FD36EA2
P 7600 5500
F 0 "U3" H 7450 5650 50  0000 C CNN
F 1 "74LVC2G17" H 7200 5450 50  0000 C CNN
F 2 "Package_TO_SOT_SMD:SOT-23-6" H 7600 5500 50  0001 C CNN
F 3 "http://www.ti.com/lit/sg/scyt129e/scyt129e.pdf" H 7600 5500 50  0001 C CNN
	1    7600 5500
	1    0    0    -1  
$EndComp
$Comp
L 74xGxx:74LVC2G17 U3
U 2 1 5FD39ED1
P 7600 4900
F 0 "U3" H 7450 5050 50  0000 C CNN
F 1 "74LVC2G17" H 7200 4850 50  0000 C CNN
F 2 "Package_TO_SOT_SMD:SOT-23-6" H 7600 4900 50  0001 C CNN
F 3 "http://www.ti.com/lit/sg/scyt129e/scyt129e.pdf" H 7600 4900 50  0001 C CNN
	2    7600 4900
	1    0    0    -1  
$EndComp
Wire Wire Line
	2850 1000 2850 950 
Connection ~ 2850 950 
$Comp
L Regulator_Linear:LM1117-3.3 U4
U 1 1 5F6419C6
P 2500 950
F 0 "U4" H 2500 1192 50  0000 C CNN
F 1 "LM1117-3.3" H 2500 1101 50  0000 C CNN
F 2 "Package_TO_SOT_SMD:SOT-223-3_TabPin2" H 2500 950 50  0001 C CNN
F 3 "http://www.ti.com/lit/ds/symlink/lm1117.pdf" H 2500 950 50  0001 C CNN
	1    2500 950 
	1    0    0    -1  
$EndComp
Wire Wire Line
	2150 1000 2150 950 
Connection ~ 2150 950 
Wire Wire Line
	2150 950  2200 950 
Wire Wire Line
	2850 950  3100 950 
Wire Wire Line
	2850 1350 3100 1350
Wire Wire Line
	2150 1300 2150 1350
Wire Wire Line
	2150 1350 2500 1350
Wire Wire Line
	2500 1250 2500 1350
$Comp
L Device:C C13
U 1 1 6016C788
P 3350 1150
F 0 "C13" H 3350 1250 50  0000 L CNN
F 1 "0.1u" H 3350 1050 50  0000 L CNN
F 2 "Capacitor_SMD:C_0603_1608Metric" H 3388 1000 50  0001 C CNN
F 3 "~" H 3350 1150 50  0001 C CNN
	1    3350 1150
	1    0    0    -1  
$EndComp
Wire Wire Line
	3350 1000 3350 950 
Connection ~ 3350 950 
Wire Wire Line
	3350 950  3100 950 
Wire Wire Line
	3350 1300 3350 1350
Wire Wire Line
	3350 1350 3100 1350
Connection ~ 3100 1350
$Comp
L Device:C C14
U 1 1 601E6553
P 3100 1150
F 0 "C14" H 3100 1250 50  0000 L CNN
F 1 "2.2u" H 3100 1050 50  0000 L CNN
F 2 "Capacitor_SMD:C_0603_1608Metric" H 3138 1000 50  0001 C CNN
F 3 "~" H 3100 1150 50  0001 C CNN
	1    3100 1150
	1    0    0    -1  
$EndComp
Wire Wire Line
	3600 1000 3600 950 
Wire Wire Line
	3600 950  3350 950 
Wire Wire Line
	3600 1300 3600 1350
Wire Wire Line
	3600 1350 3350 1350
Connection ~ 3350 1350
$Comp
L Device:R R4
U 1 1 60337925
P 4150 4400
F 0 "R4" V 4100 4550 50  0000 C CNN
F 1 "0" V 4150 4400 50  0000 C CNN
F 2 "Resistor_SMD:R_0603_1608Metric" V 4080 4400 50  0001 C CNN
F 3 "~" H 4150 4400 50  0001 C CNN
	1    4150 4400
	0    1    1    0   
$EndComp
$Comp
L Device:R R5
U 1 1 60355C0D
P 4150 5000
F 0 "R5" V 4100 5150 50  0000 C CNN
F 1 "0" V 4150 5000 50  0000 C CNN
F 2 "Resistor_SMD:R_0603_1608Metric" V 4080 5000 50  0001 C CNN
F 3 "~" H 4150 5000 50  0001 C CNN
	1    4150 5000
	0    1    1    0   
$EndComp
Wire Wire Line
	4300 4400 4550 4400
Wire Wire Line
	4550 5000 4300 5000
Text Notes 3850 4800 0    50   ~ 0
Can be switched\nto 50 for 50ohm\noutput impedance
$Comp
L Device:R R6
U 1 1 603E02BE
P 8150 4900
F 0 "R6" V 8100 5050 50  0000 C CNN
F 1 "0" V 8150 4900 50  0000 C CNN
F 2 "Resistor_SMD:R_0603_1608Metric" V 8080 4900 50  0001 C CNN
F 3 "~" H 8150 4900 50  0001 C CNN
	1    8150 4900
	0    1    1    0   
$EndComp
$Comp
L Device:R R7
U 1 1 603E02C4
P 8150 5500
F 0 "R7" V 8100 5650 50  0000 C CNN
F 1 "0" V 8150 5500 50  0000 C CNN
F 2 "Resistor_SMD:R_0603_1608Metric" V 8080 5500 50  0001 C CNN
F 3 "~" H 8150 5500 50  0001 C CNN
	1    8150 5500
	0    1    1    0   
$EndComp
Text Notes 7850 5300 0    50   ~ 0
Can be switched\nto 50 for 50ohm\noutput impedance
Wire Wire Line
	8300 5500 8450 5500
Wire Wire Line
	8000 5500 7850 5500
Wire Wire Line
	7850 4900 8000 4900
Wire Wire Line
	8300 4900 8450 4900
Text Label 4800 2450 0    50   ~ 0
LED_CH2_EN
Text Label 6900 1550 2    50   ~ 0
CH1_IN
Text Label 6900 1450 2    50   ~ 0
CH2_IN
Wire Wire Line
	6900 1550 6400 1550
Wire Wire Line
	6400 1450 6900 1450
Text Label 4800 1750 0    50   ~ 0
CH1_DIV2
Text Label 6900 1750 2    50   ~ 0
CH2_DIV2
Text Label 6900 1650 2    50   ~ 0
CH2_DIV1
Wire Wire Line
	6900 2450 6400 2450
Wire Wire Line
	6400 2350 6900 2350
Wire Wire Line
	4800 1750 5300 1750
Wire Wire Line
	6400 1750 6900 1750
Text Label 6900 1150 2    50   ~ 0
ENC_A
Text Label 6900 1050 2    50   ~ 0
ENC_B
Wire Wire Line
	6900 1150 6400 1150
Wire Wire Line
	6400 1050 6900 1050
Text Label 6900 2350 2    50   ~ 0
SWDIO
Text Label 6900 2450 2    50   ~ 0
SWCLK
Wire Wire Line
	6900 1650 6400 1650
Text Label 4800 2150 0    50   ~ 0
DISP_MOSI
Text Label 4800 1950 0    50   ~ 0
DISP_SCK
Text Label 4800 1850 0    50   ~ 0
DISP_RST
Text Label 6900 2550 2    50   ~ 0
DISP_CS
Wire Wire Line
	4800 2050 5300 2050
Wire Wire Line
	4800 1850 5300 1850
Wire Wire Line
	6400 2550 6900 2550
Wire Wire Line
	4800 1950 5300 1950
Wire Wire Line
	5300 2150 4800 2150
Text Label 4800 2050 0    50   ~ 0
DISP_DC
Wire Wire Line
	10300 3500 10300 3550
Wire Wire Line
	10300 3500 10000 3500
Connection ~ 10300 3500
Wire Wire Line
	10300 3450 10300 3500
Wire Wire Line
	10600 2950 10600 3500
Wire Wire Line
	10000 3250 10000 3500
Wire Wire Line
	10600 3500 10300 3500
NoConn ~ 10050 2750
Wire Wire Line
	10600 2650 10600 2850
Connection ~ 10600 2650
Wire Wire Line
	10550 2650 10600 2650
Wire Wire Line
	10600 2550 10600 2650
Connection ~ 10600 2550
Wire Wire Line
	10550 2550 10600 2550
Wire Wire Line
	10600 2450 10600 2550
Connection ~ 10600 2450
Wire Wire Line
	10550 2450 10600 2450
Wire Wire Line
	10600 2350 10600 2450
Connection ~ 10600 2350
Wire Wire Line
	10550 2350 10600 2350
Wire Wire Line
	10600 2250 10600 2350
Connection ~ 10600 2250
Wire Wire Line
	10550 2250 10600 2250
Wire Wire Line
	10600 2150 10600 2250
Connection ~ 10600 2150
Wire Wire Line
	10550 2150 10600 2150
Wire Wire Line
	10600 2050 10600 2150
Connection ~ 10600 2050
Wire Wire Line
	10550 2050 10600 2050
Wire Wire Line
	10600 1950 10600 2050
Connection ~ 10600 1950
Wire Wire Line
	10550 1950 10600 1950
Wire Wire Line
	10600 1850 10600 1950
Connection ~ 10600 1850
Wire Wire Line
	10550 1850 10600 1850
Wire Wire Line
	10000 1850 10000 1950
Connection ~ 10000 1850
Wire Wire Line
	10000 1750 10000 1850
Wire Wire Line
	10050 1850 10000 1850
Wire Wire Line
	10000 1950 10000 2050
Connection ~ 10000 1950
Wire Wire Line
	10050 1950 10000 1950
Wire Wire Line
	10000 2050 10000 2150
Connection ~ 10000 2050
Wire Wire Line
	10050 2050 10000 2050
Wire Wire Line
	10000 2150 10000 2250
Connection ~ 10000 2150
Wire Wire Line
	10050 2150 10000 2150
Wire Wire Line
	10000 2250 10000 2350
Connection ~ 10000 2250
Wire Wire Line
	10050 2250 10000 2250
Wire Wire Line
	10000 2350 10000 2450
Connection ~ 10000 2350
Wire Wire Line
	10050 2350 10000 2350
Wire Wire Line
	10000 2450 10000 2550
Connection ~ 10000 2450
Wire Wire Line
	10050 2450 10000 2450
Wire Wire Line
	10000 2550 10000 2650
Connection ~ 10000 2550
Wire Wire Line
	10050 2550 10000 2550
Wire Wire Line
	10000 2650 10000 2850
Connection ~ 10000 2650
Wire Wire Line
	10050 2650 10000 2650
Wire Wire Line
	11050 1750 10550 1750
Connection ~ 10000 1750
Wire Wire Line
	10050 1750 10000 1750
Wire Wire Line
	10600 1650 10600 1850
Connection ~ 10600 1650
Wire Wire Line
	10550 1650 10600 1650
Wire Wire Line
	10000 1650 10000 1750
Connection ~ 10000 1650
Wire Wire Line
	10050 1650 10000 1650
Wire Wire Line
	10600 1550 10600 1650
Connection ~ 10600 1550
Wire Wire Line
	10550 1550 10600 1550
Wire Wire Line
	10000 1550 10000 1650
Connection ~ 10000 1550
Wire Wire Line
	10050 1550 10000 1550
Wire Wire Line
	10950 1450 10550 1450
Text Label 10950 1450 2    50   ~ 0
DISP_DC
Wire Wire Line
	10550 1350 10950 1350
Wire Wire Line
	10050 1350 9600 1350
Wire Wire Line
	9600 1450 10050 1450
Text Label 10950 1350 2    50   ~ 0
DISP_CS
Text Label 9600 1350 0    50   ~ 0
DISP_RST
Connection ~ 10600 2850
Wire Wire Line
	10600 1250 10600 1550
Wire Wire Line
	10550 1250 10600 1250
Connection ~ 9950 1150
Wire Wire Line
	9950 1250 10050 1250
Wire Wire Line
	9950 1150 9950 1250
Connection ~ 10650 1050
Wire Wire Line
	10650 1150 10550 1150
Wire Wire Line
	10650 1050 10650 1150
Wire Wire Line
	10650 1050 10550 1050
Wire Wire Line
	10650 1000 10650 1050
Wire Wire Line
	9950 1150 10050 1150
Wire Wire Line
	9950 1000 9950 1150
Connection ~ 10000 2850
Wire Wire Line
	10000 1050 10000 1550
Wire Wire Line
	10050 1050 10000 1050
Connection ~ 10600 2950
Wire Wire Line
	10600 2850 10550 2850
Wire Wire Line
	10600 2950 10600 2850
Wire Wire Line
	10600 2950 10550 2950
$Comp
L power:GND #PWR0124
U 1 1 5F9EEB2C
P 10300 3550
F 0 "#PWR0124" H 10300 3300 50  0001 C CNN
F 1 "GND" H 10305 3377 50  0000 C CNN
F 2 "" H 10300 3550 50  0001 C CNN
F 3 "" H 10300 3550 50  0001 C CNN
	1    10300 3550
	1    0    0    -1  
$EndComp
Wire Wire Line
	10000 2950 10000 3250
Connection ~ 10000 2950
Wire Wire Line
	10050 2950 10000 2950
Connection ~ 10000 3250
Wire Wire Line
	10000 2850 10000 2950
Wire Wire Line
	10050 2850 10000 2850
NoConn ~ 10050 3050
NoConn ~ 10550 3050
NoConn ~ 10550 3150
NoConn ~ 10050 3150
Wire Wire Line
	10000 3250 10050 3250
$Comp
L Connector_Generic_MountingPin:Conn_2Rows-45Pins_MountingPin J6
U 1 1 5F630615
P 10250 2150
F 0 "J6" H 10338 2064 50  0000 L CNN
F 1 "E24RG12432LW2M300-N" H 9800 3550 50  0000 L CNN
F 2 "Connector_FFC-FPC:TE_4-1734839-5_1x45-1MP_P0.5mm_Horizontal" H 10250 2150 50  0001 C CNN
F 3 "~" H 10250 2150 50  0001 C CNN
	1    10250 2150
	1    0    0    -1  
$EndComp
Wire Wire Line
	10850 2700 10850 2750
Wire Wire Line
	10850 2400 10850 2350
$Comp
L Device:R R3
U 1 1 604CA788
P 10850 2550
F 0 "R3" V 10800 2650 50  0000 L CNN
F 1 "10" V 10850 2500 50  0000 L CNN
F 2 "Resistor_SMD:R_0603_1608Metric" V 10780 2550 50  0001 C CNN
F 3 "~" H 10850 2550 50  0001 C CNN
	1    10850 2550
	-1   0    0    -1  
$EndComp
Wire Wire Line
	5300 2450 4800 2450
Text Label 4800 2550 0    50   ~ 0
LED_CH1_EN
Wire Wire Line
	10850 2750 10550 2750
Text Label 11050 1750 2    50   ~ 0
DISP_MOSI
Text Label 9600 1450 0    50   ~ 0
DISP_SCK
Wire Wire Line
	4800 1650 5300 1650
Text Label 6900 1950 2    50   ~ 0
BTN_CH2_SEL
Wire Wire Line
	6900 1950 6400 1950
Wire Wire Line
	4800 1250 5300 1250
Text Label 4800 1250 0    50   ~ 0
BTN_CH2_EN
$Comp
L power:-3V3 #PWR0131
U 1 1 60DDC131
P 1550 5100
F 0 "#PWR0131" H 1550 5200 50  0001 C CNN
F 1 "-3V3" H 1565 5273 50  0000 C CNN
F 2 "" H 1550 5100 50  0001 C CNN
F 3 "" H 1550 5100 50  0001 C CNN
	1    1550 5100
	-1   0    0    1   
$EndComp
Wire Wire Line
	1400 1350 1350 1350
Wire Wire Line
	1400 1400 1400 1350
$Comp
L power:GND #PWR0134
U 1 1 5FC81B60
P 1400 1400
F 0 "#PWR0134" H 1400 1150 50  0001 C CNN
F 1 "GND" H 1405 1227 50  0000 C CNN
F 2 "" H 1400 1400 50  0001 C CNN
F 3 "" H 1400 1400 50  0001 C CNN
	1    1400 1400
	1    0    0    -1  
$EndComp
Wire Wire Line
	1400 1150 1350 1150
Wire Wire Line
	1400 1100 1400 1150
$Comp
L power:+12V #PWR0133
U 1 1 5FC714E2
P 1400 1100
F 0 "#PWR0133" H 1400 950 50  0001 C CNN
F 1 "+12V" H 1415 1273 50  0000 C CNN
F 2 "" H 1400 1100 50  0001 C CNN
F 3 "" H 1400 1100 50  0001 C CNN
	1    1400 1100
	1    0    0    -1  
$EndComp
Text Label 1200 3650 2    50   ~ 0
RX
Text Label 1200 3750 2    50   ~ 0
TX
$Comp
L power:GND #PWR0141
U 1 1 610948D4
P 1050 3900
F 0 "#PWR0141" H 1050 3650 50  0001 C CNN
F 1 "GND" H 1055 3727 50  0000 C CNN
F 2 "" H 1050 3900 50  0001 C CNN
F 3 "" H 1050 3900 50  0001 C CNN
	1    1050 3900
	1    0    0    -1  
$EndComp
Wire Wire Line
	1050 3900 1050 3350
Text Label 4800 2350 0    50   ~ 0
RX
Text Label 4800 2250 0    50   ~ 0
TX
Wire Wire Line
	4800 2250 5300 2250
Wire Wire Line
	5300 2350 4800 2350
Connection ~ 3600 950 
$Comp
L power:+3V0 #PWR0107
U 1 1 60567723
P 9950 1000
F 0 "#PWR0107" H 9950 850 50  0001 C CNN
F 1 "+3V0" H 9965 1173 50  0000 C CNN
F 2 "" H 9950 1000 50  0001 C CNN
F 3 "" H 9950 1000 50  0001 C CNN
	1    9950 1000
	1    0    0    -1  
$EndComp
$Comp
L power:+3V0 #PWR0108
U 1 1 6056A6AB
P 10650 1000
F 0 "#PWR0108" H 10650 850 50  0001 C CNN
F 1 "+3V0" H 10665 1173 50  0000 C CNN
F 2 "" H 10650 1000 50  0001 C CNN
F 3 "" H 10650 1000 50  0001 C CNN
	1    10650 1000
	1    0    0    -1  
$EndComp
$Comp
L power:+3V0 #PWR0122
U 1 1 605A49A0
P 10850 2350
F 0 "#PWR0122" H 10850 2200 50  0001 C CNN
F 1 "+3V0" H 10865 2523 50  0000 C CNN
F 2 "" H 10850 2350 50  0001 C CNN
F 3 "" H 10850 2350 50  0001 C CNN
	1    10850 2350
	1    0    0    -1  
$EndComp
$Comp
L voltage_generator:MIC1557 U5
U 1 1 60BA9F33
P 2500 2300
F 0 "U5" H 2500 2625 50  0000 C CNN
F 1 "MIC1557" H 2500 2534 50  0000 C CNN
F 2 "Package_TO_SOT_SMD:SOT-23-5" H 2500 2300 50  0001 C CNN
F 3 "" H 2500 2300 50  0001 C CNN
	1    2500 2300
	1    0    0    -1  
$EndComp
$Comp
L voltage_generator:FDC6420 Q1
U 1 1 60BAA951
P 3650 2350
F 0 "Q1" H 3625 2931 50  0000 C CNN
F 1 "FDC6420" H 3625 2840 50  0000 C CNN
F 2 "Package_TO_SOT_SMD:SOT-23-6" H 3500 2600 50  0001 C CNN
F 3 "" H 3500 2600 50  0001 C CNN
	1    3650 2350
	1    0    0    -1  
$EndComp
$Comp
L Device:R R8
U 1 1 60BAF748
P 3100 2400
F 0 "R8" V 3050 2200 50  0000 L CNN
F 1 "1k" V 3100 2350 50  0000 L CNN
F 2 "Resistor_SMD:R_0603_1608Metric" V 3030 2400 50  0001 C CNN
F 3 "~" H 3100 2400 50  0001 C CNN
	1    3100 2400
	0    1    1    0   
$EndComp
$Comp
L Device:C C21
U 1 1 60BAFBF9
P 2900 2600
F 0 "C21" V 2950 2450 50  0000 L CNN
F 1 "68n" V 2950 2650 50  0000 L CNN
F 2 "Capacitor_SMD:C_0603_1608Metric" H 2938 2450 50  0001 C CNN
F 3 "~" H 2900 2600 50  0001 C CNN
	1    2900 2600
	1    0    0    -1  
$EndComp
$Comp
L Device:C C23
U 1 1 60BB0950
P 4150 2350
F 0 "C23" V 3898 2350 50  0000 C CNN
F 1 "47u" V 3989 2350 50  0000 C CNN
F 2 "Capacitor_SMD:C_1210_3225Metric" H 4188 2200 50  0001 C CNN
F 3 "~" H 4150 2350 50  0001 C CNN
	1    4150 2350
	0    1    1    0   
$EndComp
$Comp
L voltage_generator:CVJ10F30 D3
U 1 1 60BB19E6
P 4350 2100
F 0 "D3" V 4500 1900 50  0000 L CNN
F 1 "CVJ10F30" H 4150 2200 50  0000 L CNN
F 2 "Package_TO_SOT_SMD:SOT-353_SC-70-5" H 4350 2200 50  0001 C CNN
F 3 "" H 4350 2200 50  0001 C CNN
	1    4350 2100
	0    1    1    0   
$EndComp
$Comp
L voltage_generator:CVJ10F30 D3
U 2 1 60BB2006
P 4350 2600
F 0 "D3" V 4304 2688 50  0000 L CNN
F 1 "CVJ10F30" V 4395 2688 50  0000 L CNN
F 2 "Package_TO_SOT_SMD:SOT-353_SC-70-5" H 4350 2700 50  0001 C CNN
F 3 "" H 4350 2700 50  0001 C CNN
	2    4350 2600
	0    1    1    0   
$EndComp
$Comp
L Device:C C15
U 1 1 60BB3C1D
P 2150 3550
F 0 "C15" H 2265 3596 50  0000 L CNN
F 1 "4.7u" H 2265 3505 50  0000 L CNN
F 2 "Capacitor_SMD:C_0603_1608Metric" H 2188 3400 50  0001 C CNN
F 3 "~" H 2150 3550 50  0001 C CNN
	1    2150 3550
	1    0    0    -1  
$EndComp
Wire Wire Line
	2150 3350 2150 3400
Wire Wire Line
	2150 3700 2150 3750
Connection ~ 3650 2800
Wire Wire Line
	3650 2800 3650 2750
Wire Wire Line
	3950 2350 4000 2350
Wire Wire Line
	3900 2400 3950 2400
Wire Wire Line
	3950 2400 3950 2350
Wire Wire Line
	3950 2350 3950 2300
Wire Wire Line
	3950 2300 3900 2300
Connection ~ 3950 2350
$Comp
L Device:C C16
U 1 1 60C7CEF9
P 2450 3550
F 0 "C16" H 2565 3596 50  0000 L CNN
F 1 "1u" H 2565 3505 50  0000 L CNN
F 2 "Capacitor_SMD:C_0603_1608Metric" H 2488 3400 50  0001 C CNN
F 3 "~" H 2450 3550 50  0001 C CNN
	1    2450 3550
	1    0    0    -1  
$EndComp
$Comp
L Device:C C17
U 1 1 60C7DA63
P 2750 3550
F 0 "C17" H 2865 3596 50  0000 L CNN
F 1 "0.1u" H 2865 3505 50  0000 L CNN
F 2 "Capacitor_SMD:C_0603_1608Metric" H 2788 3400 50  0001 C CNN
F 3 "~" H 2750 3550 50  0001 C CNN
	1    2750 3550
	1    0    0    -1  
$EndComp
Wire Wire Line
	2900 2450 2900 2400
Wire Wire Line
	2900 2400 2800 2400
Wire Wire Line
	2900 2400 2950 2400
Connection ~ 2900 2400
Wire Wire Line
	2800 2200 3300 2200
Wire Wire Line
	3300 2500 3350 2500
Wire Wire Line
	3300 2200 3300 2400
Connection ~ 3300 2200
Wire Wire Line
	3300 2200 3350 2200
Wire Wire Line
	3250 2400 3300 2400
Connection ~ 3300 2400
Wire Wire Line
	3300 2400 3300 2500
Wire Wire Line
	3650 2800 2900 2800
Wire Wire Line
	2900 2800 2900 2750
$Comp
L power:GND #PWR0123
U 1 1 60D7884A
P 2150 2850
F 0 "#PWR0123" H 2150 2600 50  0001 C CNN
F 1 "GND" H 2155 2677 50  0000 C CNN
F 2 "" H 2150 2850 50  0001 C CNN
F 3 "" H 2150 2850 50  0001 C CNN
	1    2150 2850
	1    0    0    -1  
$EndComp
Wire Wire Line
	2150 2850 2150 2800
Wire Wire Line
	2150 2400 2200 2400
Wire Wire Line
	2150 2800 2900 2800
Connection ~ 2150 2800
Wire Wire Line
	2150 2800 2150 2400
Connection ~ 2900 2800
Wire Wire Line
	2200 2300 2150 2300
Wire Wire Line
	2150 2300 2150 2200
Wire Wire Line
	2150 2200 2200 2200
$Comp
L power:+12V #PWR0125
U 1 1 60DC5B09
P 2150 1850
F 0 "#PWR0125" H 2150 1700 50  0001 C CNN
F 1 "+12V" H 2165 2023 50  0000 C CNN
F 2 "" H 2150 1850 50  0001 C CNN
F 3 "" H 2150 1850 50  0001 C CNN
	1    2150 1850
	1    0    0    -1  
$EndComp
Wire Wire Line
	2150 1850 2150 1900
Connection ~ 2150 2200
Wire Wire Line
	2150 1900 3650 1900
Wire Wire Line
	3650 1900 3650 1950
Connection ~ 2150 1900
Wire Wire Line
	2150 1900 2150 2200
Wire Wire Line
	2450 3400 2450 3350
Wire Wire Line
	2450 3350 2150 3350
Wire Wire Line
	2750 3400 2750 3350
Wire Wire Line
	2750 3350 2450 3350
Connection ~ 2450 3350
Wire Wire Line
	2450 3700 2450 3750
Wire Wire Line
	2450 3750 2150 3750
Wire Wire Line
	2750 3700 2750 3750
Wire Wire Line
	2750 3750 2450 3750
Connection ~ 2450 3750
$Comp
L voltage_generator:MIC5270 U6
U 1 1 60F17DEB
P 3400 3400
F 0 "U6" H 3400 3675 50  0000 C CNN
F 1 "MIC5270" H 3400 3584 50  0000 C CNN
F 2 "Package_TO_SOT_SMD:SOT-23-5" H 3400 3400 50  0001 C CNN
F 3 "" H 3400 3400 50  0001 C CNN
	1    3400 3400
	1    0    0    -1  
$EndComp
Wire Wire Line
	3050 3350 2750 3350
Connection ~ 2750 3350
Wire Wire Line
	2750 3750 3400 3750
Wire Wire Line
	3400 3750 3400 3700
Connection ~ 2750 3750
Wire Wire Line
	4350 2750 4350 2800
Wire Wire Line
	3650 2800 4350 2800
Wire Wire Line
	4350 2250 4350 2350
Wire Wire Line
	4350 2350 4300 2350
Wire Wire Line
	4350 2350 4350 2450
Connection ~ 4350 2350
Wire Wire Line
	4350 1900 4350 1950
$Comp
L Device:C C22
U 1 1 610E65F7
P 3900 3550
F 0 "C22" H 4015 3596 50  0000 L CNN
F 1 "4.7u" H 4015 3505 50  0000 L CNN
F 2 "Capacitor_SMD:C_0603_1608Metric" H 3938 3400 50  0001 C CNN
F 3 "~" H 3900 3550 50  0001 C CNN
	1    3900 3550
	1    0    0    -1  
$EndComp
$Comp
L Device:C C24
U 1 1 610E65FD
P 4200 3550
F 0 "C24" H 4315 3596 50  0000 L CNN
F 1 "1u" H 4315 3505 50  0000 L CNN
F 2 "Capacitor_SMD:C_0603_1608Metric" H 4238 3400 50  0001 C CNN
F 3 "~" H 4200 3550 50  0001 C CNN
	1    4200 3550
	1    0    0    -1  
$EndComp
$Comp
L Device:C C25
U 1 1 610E6603
P 4500 3550
F 0 "C25" H 4615 3596 50  0000 L CNN
F 1 "0.1u" H 4615 3505 50  0000 L CNN
F 2 "Capacitor_SMD:C_0603_1608Metric" H 4538 3400 50  0001 C CNN
F 3 "~" H 4500 3550 50  0001 C CNN
	1    4500 3550
	1    0    0    -1  
$EndComp
$Comp
L power:-12V #PWR0126
U 1 1 6112889C
P 4350 1900
F 0 "#PWR0126" H 4350 2000 50  0001 C CNN
F 1 "-12V" H 4365 2073 50  0000 C CNN
F 2 "" H 4350 1900 50  0001 C CNN
F 3 "" H 4350 1900 50  0001 C CNN
	1    4350 1900
	1    0    0    -1  
$EndComp
$Comp
L power:GND #PWR0127
U 1 1 6112EE8B
P 2150 3800
F 0 "#PWR0127" H 2150 3550 50  0001 C CNN
F 1 "GND" H 2155 3627 50  0000 C CNN
F 2 "" H 2150 3800 50  0001 C CNN
F 3 "" H 2150 3800 50  0001 C CNN
	1    2150 3800
	1    0    0    -1  
$EndComp
Wire Wire Line
	2150 3800 2150 3750
Connection ~ 2150 3750
$Comp
L power:-12V #PWR0128
U 1 1 6114C451
P 2150 3300
F 0 "#PWR0128" H 2150 3400 50  0001 C CNN
F 1 "-12V" H 2165 3473 50  0000 C CNN
F 2 "" H 2150 3300 50  0001 C CNN
F 3 "" H 2150 3300 50  0001 C CNN
	1    2150 3300
	1    0    0    -1  
$EndComp
Wire Wire Line
	2150 3300 2150 3350
Connection ~ 2150 3350
Wire Wire Line
	3750 3350 3900 3350
Wire Wire Line
	3900 3350 3900 3400
Wire Wire Line
	3900 3700 3900 3750
Wire Wire Line
	3900 3750 3400 3750
Connection ~ 3400 3750
Wire Wire Line
	3900 3350 4200 3350
Wire Wire Line
	4200 3350 4200 3400
Connection ~ 3900 3350
Wire Wire Line
	4200 3700 4200 3750
Wire Wire Line
	4200 3750 3900 3750
Connection ~ 3900 3750
Wire Wire Line
	4200 3750 4500 3750
Wire Wire Line
	4500 3750 4500 3700
Connection ~ 4200 3750
Wire Wire Line
	4500 3400 4500 3350
Wire Wire Line
	4500 3350 4200 3350
Connection ~ 4200 3350
$Comp
L power:-3V3 #PWR0129
U 1 1 6124805E
P 4500 3300
F 0 "#PWR0129" H 4500 3400 50  0001 C CNN
F 1 "-3V3" H 4515 3473 50  0000 C CNN
F 2 "" H 4500 3300 50  0001 C CNN
F 3 "" H 4500 3300 50  0001 C CNN
	1    4500 3300
	1    0    0    -1  
$EndComp
Wire Wire Line
	4500 3300 4500 3350
Connection ~ 4500 3350
Wire Wire Line
	2150 1400 2150 1350
Connection ~ 2150 1350
$Comp
L stm32g0:STM32G071KBT6 U1
U 1 1 5F5B4455
P 5900 1750
F 0 "U1" H 5850 2831 50  0000 C CNN
F 1 "STM32G071KBT6" H 5850 2740 50  0000 C CNN
F 2 "Package_DFN_QFN:QFN-32-1EP_5x5mm_P0.5mm_EP3.6x3.6mm" H 5850 400 50  0001 R CNN
F 3 "" H 5900 1750 50  0001 C CNN
	1    5900 1750
	1    0    0    -1  
$EndComp
$Comp
L Device:Crystal Y1
U 1 1 5FBF8EFD
P 5500 6500
F 0 "Y1" H 5500 6768 50  0000 C CNN
F 1 "32.738k" H 5500 6677 50  0000 C CNN
F 2 "Crystal:Crystal_SMD_MicroCrystal_CM9V-T1A-2Pin_1.6x1.0mm" H 5500 6500 50  0001 C CNN
F 3 "~" H 5500 6500 50  0001 C CNN
	1    5500 6500
	1    0    0    -1  
$EndComp
$Comp
L Connector:Conn_01x06_Male J8
U 1 1 60CFBF10
P 800 3550
F 0 "J8" H 908 3931 50  0000 C CNN
F 1 "Serial" H 908 3840 50  0000 C CNN
F 2 "Connector_PinHeader_2.54mm:PinHeader_1x06_P2.54mm_Horizontal" H 800 3550 50  0001 C CNN
F 3 "~" H 800 3550 50  0001 C CNN
	1    800  3550
	1    0    0    -1  
$EndComp
Wire Wire Line
	1000 3350 1050 3350
Wire Wire Line
	1000 3650 1200 3650
Wire Wire Line
	1000 3750 1200 3750
NoConn ~ 1000 3450
NoConn ~ 1000 3550
NoConn ~ 1000 3850
$Comp
L Connector:Barrel_Jack_Switch_Pin3Ring J1
U 1 1 60EF3EE3
P 1050 1250
F 0 "J1" H 1107 1567 50  0000 C CNN
F 1 "Power" H 1107 1476 50  0000 C CNN
F 2 "Connector_BarrelJack:BarrelJack_CLIFF_FC681465S_SMT_Horizontal" H 1100 1210 50  0001 C CNN
F 3 "~" H 1100 1210 50  0001 C CNN
	1    1050 1250
	1    0    0    -1  
$EndComp
$EndSCHEMATC
