(module bnc (layer F.Cu) (tedit 5F5503D7)
  (fp_text reference REF** (at 0 0.5) (layer F.SilkS)
    (effects (font (size 1 1) (thickness 0.15)))
  )
  (fp_text value bnc (at 0 -0.5) (layer F.Fab)
    (effects (font (size 1 1) (thickness 0.15)))
  )
  (fp_circle (center 0 0) (end 5.5 0) (layer F.SilkS) (width 0.12))
  (pad 1 thru_hole circle (at 0 0) (size 3 3) (drill 1.32) (layers *.Cu *.Mask))
  (pad 2 thru_hole circle (at -3.43 -3.43) (size 4 4) (drill 2.16) (layers *.Cu *.Mask))
  (pad 2 thru_hole circle (at 3.43 -3.43) (size 4 4) (drill 2.16) (layers *.Cu *.Mask))
  (pad 2 thru_hole circle (at -3.43 3.43) (size 4 4) (drill 2.16) (layers *.Cu *.Mask))
  (pad 2 thru_hole circle (at 3.43 3.43) (size 4 4) (drill 2.16) (layers *.Cu *.Mask))
)
