%TF.GenerationSoftware,KiCad,Pcbnew,(5.99.0-9973-g41d97e0007)*%
%TF.CreationDate,2021-03-31T14:50:23-04:00*%
%TF.ProjectId,function_generator,66756e63-7469-46f6-9e5f-67656e657261,rev?*%
%TF.SameCoordinates,PX5f5e100PY5f5e100*%
%TF.FileFunction,Legend,Top*%
%TF.FilePolarity,Positive*%
%FSLAX46Y46*%
G04 Gerber Fmt 4.6, Leading zero omitted, Abs format (unit mm)*
G04 Created by KiCad (PCBNEW (5.99.0-9973-g41d97e0007)) date 2021-03-31 14:50:23*
%MOMM*%
%LPD*%
G01*
G04 APERTURE LIST*
%ADD10C,0.120000*%
%ADD11C,0.150000*%
G04 APERTURE END LIST*
D10*
X11945000Y45129895D02*
X11944999Y60229895D01*
X19445000Y45129895D02*
X11945000Y45129895D01*
X19445000Y19129895D02*
X19445000Y45129895D01*
X49945000Y45129896D02*
X49945000Y60229895D01*
X42445000Y45129895D02*
X49945000Y45129896D01*
X42445000Y19129895D02*
X42445000Y45129895D01*
D11*
%TO.C,U3*%
X7197965Y48547620D02*
X7197965Y47738096D01*
X7245584Y47642858D01*
X7293203Y47595239D01*
X7388441Y47547620D01*
X7578917Y47547620D01*
X7674155Y47595239D01*
X7721774Y47642858D01*
X7769393Y47738096D01*
X7769393Y48547620D01*
X8150346Y48547620D02*
X8769393Y48547620D01*
X8436060Y48166667D01*
X8578917Y48166667D01*
X8674155Y48119048D01*
X8721774Y48071429D01*
X8769393Y47976191D01*
X8769393Y47738096D01*
X8721774Y47642858D01*
X8674155Y47595239D01*
X8578917Y47547620D01*
X8293203Y47547620D01*
X8197965Y47595239D01*
X8150346Y47642858D01*
%TO.C,J8*%
X39661536Y14957620D02*
X39661536Y14243334D01*
X39613917Y14100477D01*
X39518679Y14005239D01*
X39375822Y13957620D01*
X39280584Y13957620D01*
X40280584Y14529048D02*
X40185346Y14576667D01*
X40137727Y14624286D01*
X40090108Y14719524D01*
X40090108Y14767143D01*
X40137727Y14862381D01*
X40185346Y14910000D01*
X40280584Y14957620D01*
X40471060Y14957620D01*
X40566298Y14910000D01*
X40613917Y14862381D01*
X40661536Y14767143D01*
X40661536Y14719524D01*
X40613917Y14624286D01*
X40566298Y14576667D01*
X40471060Y14529048D01*
X40280584Y14529048D01*
X40185346Y14481429D01*
X40137727Y14433810D01*
X40090108Y14338572D01*
X40090108Y14148096D01*
X40137727Y14052858D01*
X40185346Y14005239D01*
X40280584Y13957620D01*
X40471060Y13957620D01*
X40566298Y14005239D01*
X40613917Y14052858D01*
X40661536Y14148096D01*
X40661536Y14338572D01*
X40613917Y14433810D01*
X40566298Y14481429D01*
X40471060Y14529048D01*
%TO.C,Y1*%
X28716060Y12198810D02*
X29192250Y12198810D01*
X28192250Y11865477D02*
X28716060Y12198810D01*
X28192250Y12532143D01*
X29192250Y13389286D02*
X29192250Y12817858D01*
X29192250Y13103572D02*
X28192250Y13103572D01*
X28335108Y13008334D01*
X28430346Y12913096D01*
X28477965Y12817858D01*
%TO.C,J2*%
X46176536Y3472620D02*
X46176536Y2758334D01*
X46128917Y2615477D01*
X46033679Y2520239D01*
X45890822Y2472620D01*
X45795584Y2472620D01*
X46605108Y3377381D02*
X46652727Y3425000D01*
X46747965Y3472620D01*
X46986060Y3472620D01*
X47081298Y3425000D01*
X47128917Y3377381D01*
X47176536Y3282143D01*
X47176536Y3186905D01*
X47128917Y3044048D01*
X46557489Y2472620D01*
X47176536Y2472620D01*
%TO.C,J1*%
X14182250Y18031667D02*
X14896536Y18031667D01*
X15039393Y17984048D01*
X15134631Y17888810D01*
X15182250Y17745953D01*
X15182250Y17650715D01*
X15182250Y19031667D02*
X15182250Y18460239D01*
X15182250Y18745953D02*
X14182250Y18745953D01*
X14325108Y18650715D01*
X14420346Y18555477D01*
X14467965Y18460239D01*
%TO.C,U5*%
X11602965Y34602620D02*
X11602965Y33793096D01*
X11650584Y33697858D01*
X11698203Y33650239D01*
X11793441Y33602620D01*
X11983917Y33602620D01*
X12079155Y33650239D01*
X12126774Y33697858D01*
X12174393Y33793096D01*
X12174393Y34602620D01*
X13126774Y34602620D02*
X12650584Y34602620D01*
X12602965Y34126429D01*
X12650584Y34174048D01*
X12745822Y34221667D01*
X12983917Y34221667D01*
X13079155Y34174048D01*
X13126774Y34126429D01*
X13174393Y34031191D01*
X13174393Y33793096D01*
X13126774Y33697858D01*
X13079155Y33650239D01*
X12983917Y33602620D01*
X12745822Y33602620D01*
X12650584Y33650239D01*
X12602965Y33697858D01*
%TO.C,R9*%
X16117250Y30408334D02*
X15641060Y30075000D01*
X16117250Y29836905D02*
X15117250Y29836905D01*
X15117250Y30217858D01*
X15164870Y30313096D01*
X15212489Y30360715D01*
X15307727Y30408334D01*
X15450584Y30408334D01*
X15545822Y30360715D01*
X15593441Y30313096D01*
X15641060Y30217858D01*
X15641060Y29836905D01*
X16117250Y30884524D02*
X16117250Y31075000D01*
X16069631Y31170239D01*
X16022012Y31217858D01*
X15879155Y31313096D01*
X15688679Y31360715D01*
X15307727Y31360715D01*
X15212489Y31313096D01*
X15164870Y31265477D01*
X15117250Y31170239D01*
X15117250Y30979762D01*
X15164870Y30884524D01*
X15212489Y30836905D01*
X15307727Y30789286D01*
X15545822Y30789286D01*
X15641060Y30836905D01*
X15688679Y30884524D01*
X15736298Y30979762D01*
X15736298Y31170239D01*
X15688679Y31265477D01*
X15641060Y31313096D01*
X15545822Y31360715D01*
%TO.C,R8*%
X11818203Y31202620D02*
X11484870Y31678810D01*
X11246774Y31202620D02*
X11246774Y32202620D01*
X11627727Y32202620D01*
X11722965Y32155000D01*
X11770584Y32107381D01*
X11818203Y32012143D01*
X11818203Y31869286D01*
X11770584Y31774048D01*
X11722965Y31726429D01*
X11627727Y31678810D01*
X11246774Y31678810D01*
X12389631Y31774048D02*
X12294393Y31821667D01*
X12246774Y31869286D01*
X12199155Y31964524D01*
X12199155Y32012143D01*
X12246774Y32107381D01*
X12294393Y32155000D01*
X12389631Y32202620D01*
X12580108Y32202620D01*
X12675346Y32155000D01*
X12722965Y32107381D01*
X12770584Y32012143D01*
X12770584Y31964524D01*
X12722965Y31869286D01*
X12675346Y31821667D01*
X12580108Y31774048D01*
X12389631Y31774048D01*
X12294393Y31726429D01*
X12246774Y31678810D01*
X12199155Y31583572D01*
X12199155Y31393096D01*
X12246774Y31297858D01*
X12294393Y31250239D01*
X12389631Y31202620D01*
X12580108Y31202620D01*
X12675346Y31250239D01*
X12722965Y31297858D01*
X12770584Y31393096D01*
X12770584Y31583572D01*
X12722965Y31678810D01*
X12675346Y31726429D01*
X12580108Y31774048D01*
%TO.C,C17*%
X11342012Y30147858D02*
X11294393Y30100239D01*
X11151536Y30052620D01*
X11056298Y30052620D01*
X10913441Y30100239D01*
X10818203Y30195477D01*
X10770584Y30290715D01*
X10722965Y30481191D01*
X10722965Y30624048D01*
X10770584Y30814524D01*
X10818203Y30909762D01*
X10913441Y31005000D01*
X11056298Y31052620D01*
X11151536Y31052620D01*
X11294393Y31005000D01*
X11342012Y30957381D01*
X12294393Y30052620D02*
X11722965Y30052620D01*
X12008679Y30052620D02*
X12008679Y31052620D01*
X11913441Y30909762D01*
X11818203Y30814524D01*
X11722965Y30766905D01*
X12627727Y31052620D02*
X13294393Y31052620D01*
X12865822Y30052620D01*
%TO.C,C16*%
X8662012Y31532143D02*
X8709631Y31484524D01*
X8757250Y31341667D01*
X8757250Y31246429D01*
X8709631Y31103572D01*
X8614393Y31008334D01*
X8519155Y30960715D01*
X8328679Y30913096D01*
X8185822Y30913096D01*
X7995346Y30960715D01*
X7900108Y31008334D01*
X7804870Y31103572D01*
X7757250Y31246429D01*
X7757250Y31341667D01*
X7804870Y31484524D01*
X7852489Y31532143D01*
X8757250Y32484524D02*
X8757250Y31913096D01*
X8757250Y32198810D02*
X7757250Y32198810D01*
X7900108Y32103572D01*
X7995346Y32008334D01*
X8042965Y31913096D01*
X7757250Y33341667D02*
X7757250Y33151191D01*
X7804870Y33055953D01*
X7852489Y33008334D01*
X7995346Y32913096D01*
X8185822Y32865477D01*
X8566774Y32865477D01*
X8662012Y32913096D01*
X8709631Y32960715D01*
X8757250Y33055953D01*
X8757250Y33246429D01*
X8709631Y33341667D01*
X8662012Y33389286D01*
X8566774Y33436905D01*
X8328679Y33436905D01*
X8233441Y33389286D01*
X8185822Y33341667D01*
X8138203Y33246429D01*
X8138203Y33055953D01*
X8185822Y32960715D01*
X8233441Y32913096D01*
X8328679Y32865477D01*
%TO.C,C15*%
X11342012Y35147858D02*
X11294393Y35100239D01*
X11151536Y35052620D01*
X11056298Y35052620D01*
X10913441Y35100239D01*
X10818203Y35195477D01*
X10770584Y35290715D01*
X10722965Y35481191D01*
X10722965Y35624048D01*
X10770584Y35814524D01*
X10818203Y35909762D01*
X10913441Y36005000D01*
X11056298Y36052620D01*
X11151536Y36052620D01*
X11294393Y36005000D01*
X11342012Y35957381D01*
X12294393Y35052620D02*
X11722965Y35052620D01*
X12008679Y35052620D02*
X12008679Y36052620D01*
X11913441Y35909762D01*
X11818203Y35814524D01*
X11722965Y35766905D01*
X13199155Y36052620D02*
X12722965Y36052620D01*
X12675346Y35576429D01*
X12722965Y35624048D01*
X12818203Y35671667D01*
X13056298Y35671667D01*
X13151536Y35624048D01*
X13199155Y35576429D01*
X13246774Y35481191D01*
X13246774Y35243096D01*
X13199155Y35147858D01*
X13151536Y35100239D01*
X13056298Y35052620D01*
X12818203Y35052620D01*
X12722965Y35100239D01*
X12675346Y35147858D01*
%TO.C,U1*%
X28392250Y7238096D02*
X29201774Y7238096D01*
X29297012Y7285715D01*
X29344631Y7333334D01*
X29392250Y7428572D01*
X29392250Y7619048D01*
X29344631Y7714286D01*
X29297012Y7761905D01*
X29201774Y7809524D01*
X28392250Y7809524D01*
X29392250Y8809524D02*
X29392250Y8238096D01*
X29392250Y8523810D02*
X28392250Y8523810D01*
X28535108Y8428572D01*
X28630346Y8333334D01*
X28677965Y8238096D01*
%TO.C,R4*%
X7698333Y7977515D02*
X7365000Y8453705D01*
X7126904Y7977515D02*
X7126904Y8977515D01*
X7507857Y8977515D01*
X7603095Y8929895D01*
X7650714Y8882276D01*
X7698333Y8787038D01*
X7698333Y8644181D01*
X7650714Y8548943D01*
X7603095Y8501324D01*
X7507857Y8453705D01*
X7126904Y8453705D01*
X8555476Y8644181D02*
X8555476Y7977515D01*
X8317380Y9025134D02*
X8079285Y8310848D01*
X8698333Y8310848D01*
%TO.C,R7*%
X1332250Y43383334D02*
X856060Y43050000D01*
X1332250Y42811905D02*
X332250Y42811905D01*
X332250Y43192858D01*
X379870Y43288096D01*
X427489Y43335715D01*
X522727Y43383334D01*
X665584Y43383334D01*
X760822Y43335715D01*
X808441Y43288096D01*
X856060Y43192858D01*
X856060Y42811905D01*
X332250Y43716667D02*
X332250Y44383334D01*
X1332250Y43954762D01*
%TO.C,R6*%
X4192250Y47233334D02*
X3716060Y46900000D01*
X4192250Y46661905D02*
X3192250Y46661905D01*
X3192250Y47042858D01*
X3239870Y47138096D01*
X3287489Y47185715D01*
X3382727Y47233334D01*
X3525584Y47233334D01*
X3620822Y47185715D01*
X3668441Y47138096D01*
X3716060Y47042858D01*
X3716060Y46661905D01*
X3192250Y48090477D02*
X3192250Y47900000D01*
X3239870Y47804762D01*
X3287489Y47757143D01*
X3430346Y47661905D01*
X3620822Y47614286D01*
X4001774Y47614286D01*
X4097012Y47661905D01*
X4144631Y47709524D01*
X4192250Y47804762D01*
X4192250Y47995239D01*
X4144631Y48090477D01*
X4097012Y48138096D01*
X4001774Y48185715D01*
X3763679Y48185715D01*
X3668441Y48138096D01*
X3620822Y48090477D01*
X3573203Y47995239D01*
X3573203Y47804762D01*
X3620822Y47709524D01*
X3668441Y47661905D01*
X3763679Y47614286D01*
%TO.C,R5*%
X4192250Y16283334D02*
X3716060Y15950000D01*
X4192250Y15711905D02*
X3192250Y15711905D01*
X3192250Y16092858D01*
X3239870Y16188096D01*
X3287489Y16235715D01*
X3382727Y16283334D01*
X3525584Y16283334D01*
X3620822Y16235715D01*
X3668441Y16188096D01*
X3716060Y16092858D01*
X3716060Y15711905D01*
X3192250Y17188096D02*
X3192250Y16711905D01*
X3668441Y16664286D01*
X3620822Y16711905D01*
X3573203Y16807143D01*
X3573203Y17045239D01*
X3620822Y17140477D01*
X3668441Y17188096D01*
X3763679Y17235715D01*
X4001774Y17235715D01*
X4097012Y17188096D01*
X4144631Y17140477D01*
X4192250Y17045239D01*
X4192250Y16807143D01*
X4144631Y16711905D01*
X4097012Y16664286D01*
%TO.C,J6*%
X30611666Y16577515D02*
X30611666Y15863229D01*
X30564047Y15720372D01*
X30468809Y15625134D01*
X30325952Y15577515D01*
X30230714Y15577515D01*
X31516428Y16577515D02*
X31325952Y16577515D01*
X31230714Y16529895D01*
X31183095Y16482276D01*
X31087857Y16339419D01*
X31040238Y16148943D01*
X31040238Y15767991D01*
X31087857Y15672753D01*
X31135476Y15625134D01*
X31230714Y15577515D01*
X31421190Y15577515D01*
X31516428Y15625134D01*
X31564047Y15672753D01*
X31611666Y15767991D01*
X31611666Y16006086D01*
X31564047Y16101324D01*
X31516428Y16148943D01*
X31421190Y16196562D01*
X31230714Y16196562D01*
X31135476Y16148943D01*
X31087857Y16101324D01*
X31040238Y16006086D01*
%TO.C,C14*%
X48547012Y23357143D02*
X48594631Y23309524D01*
X48642250Y23166667D01*
X48642250Y23071429D01*
X48594631Y22928572D01*
X48499393Y22833334D01*
X48404155Y22785715D01*
X48213679Y22738096D01*
X48070822Y22738096D01*
X47880346Y22785715D01*
X47785108Y22833334D01*
X47689870Y22928572D01*
X47642250Y23071429D01*
X47642250Y23166667D01*
X47689870Y23309524D01*
X47737489Y23357143D01*
X48642250Y24309524D02*
X48642250Y23738096D01*
X48642250Y24023810D02*
X47642250Y24023810D01*
X47785108Y23928572D01*
X47880346Y23833334D01*
X47927965Y23738096D01*
X47975584Y25166667D02*
X48642250Y25166667D01*
X47594631Y24928572D02*
X48308917Y24690477D01*
X48308917Y25309524D01*
%TO.C,C13*%
X10767012Y33912858D02*
X10719393Y33865239D01*
X10576536Y33817620D01*
X10481298Y33817620D01*
X10338441Y33865239D01*
X10243203Y33960477D01*
X10195584Y34055715D01*
X10147965Y34246191D01*
X10147965Y34389048D01*
X10195584Y34579524D01*
X10243203Y34674762D01*
X10338441Y34770000D01*
X10481298Y34817620D01*
X10576536Y34817620D01*
X10719393Y34770000D01*
X10767012Y34722381D01*
X11719393Y33817620D02*
X11147965Y33817620D01*
X11433679Y33817620D02*
X11433679Y34817620D01*
X11338441Y34674762D01*
X11243203Y34579524D01*
X11147965Y34531905D01*
X12052727Y34817620D02*
X12671774Y34817620D01*
X12338441Y34436667D01*
X12481298Y34436667D01*
X12576536Y34389048D01*
X12624155Y34341429D01*
X12671774Y34246191D01*
X12671774Y34008096D01*
X12624155Y33912858D01*
X12576536Y33865239D01*
X12481298Y33817620D01*
X12195584Y33817620D01*
X12100346Y33865239D01*
X12052727Y33912858D01*
%TO.C,R3*%
X17062250Y21420834D02*
X16586060Y21087500D01*
X17062250Y20849405D02*
X16062250Y20849405D01*
X16062250Y21230358D01*
X16109870Y21325596D01*
X16157489Y21373215D01*
X16252727Y21420834D01*
X16395584Y21420834D01*
X16490822Y21373215D01*
X16538441Y21325596D01*
X16586060Y21230358D01*
X16586060Y20849405D01*
X16062250Y21754167D02*
X16062250Y22373215D01*
X16443203Y22039881D01*
X16443203Y22182739D01*
X16490822Y22277977D01*
X16538441Y22325596D01*
X16633679Y22373215D01*
X16871774Y22373215D01*
X16967012Y22325596D01*
X17014631Y22277977D01*
X17062250Y22182739D01*
X17062250Y21897024D01*
X17014631Y21801786D01*
X16967012Y21754167D01*
%TO.C,C1*%
X12697203Y45156858D02*
X12649584Y45109239D01*
X12506727Y45061620D01*
X12411489Y45061620D01*
X12268631Y45109239D01*
X12173393Y45204477D01*
X12125774Y45299715D01*
X12078155Y45490191D01*
X12078155Y45633048D01*
X12125774Y45823524D01*
X12173393Y45918762D01*
X12268631Y46014000D01*
X12411489Y46061620D01*
X12506727Y46061620D01*
X12649584Y46014000D01*
X12697203Y45966381D01*
X13649584Y45061620D02*
X13078155Y45061620D01*
X13363870Y45061620D02*
X13363870Y46061620D01*
X13268631Y45918762D01*
X13173393Y45823524D01*
X13078155Y45775905D01*
%TO.C,U4*%
X8162250Y41138096D02*
X8971774Y41138096D01*
X9067012Y41185715D01*
X9114631Y41233334D01*
X9162250Y41328572D01*
X9162250Y41519048D01*
X9114631Y41614286D01*
X9067012Y41661905D01*
X8971774Y41709524D01*
X8162250Y41709524D01*
X8495584Y42614286D02*
X9162250Y42614286D01*
X8114631Y42376191D02*
X8828917Y42138096D01*
X8828917Y42757143D01*
%TO.C,C12*%
X27979512Y12507143D02*
X28027131Y12459524D01*
X28074750Y12316667D01*
X28074750Y12221429D01*
X28027131Y12078572D01*
X27931893Y11983334D01*
X27836655Y11935715D01*
X27646179Y11888096D01*
X27503322Y11888096D01*
X27312846Y11935715D01*
X27217608Y11983334D01*
X27122370Y12078572D01*
X27074750Y12221429D01*
X27074750Y12316667D01*
X27122370Y12459524D01*
X27169989Y12507143D01*
X28074750Y13459524D02*
X28074750Y12888096D01*
X28074750Y13173810D02*
X27074750Y13173810D01*
X27217608Y13078572D01*
X27312846Y12983334D01*
X27360465Y12888096D01*
X27169989Y13840477D02*
X27122370Y13888096D01*
X27074750Y13983334D01*
X27074750Y14221429D01*
X27122370Y14316667D01*
X27169989Y14364286D01*
X27265227Y14411905D01*
X27360465Y14411905D01*
X27503322Y14364286D01*
X28074750Y13792858D01*
X28074750Y14411905D01*
%TO.C,C11*%
X29447012Y12507143D02*
X29494631Y12459524D01*
X29542250Y12316667D01*
X29542250Y12221429D01*
X29494631Y12078572D01*
X29399393Y11983334D01*
X29304155Y11935715D01*
X29113679Y11888096D01*
X28970822Y11888096D01*
X28780346Y11935715D01*
X28685108Y11983334D01*
X28589870Y12078572D01*
X28542250Y12221429D01*
X28542250Y12316667D01*
X28589870Y12459524D01*
X28637489Y12507143D01*
X29542250Y13459524D02*
X29542250Y12888096D01*
X29542250Y13173810D02*
X28542250Y13173810D01*
X28685108Y13078572D01*
X28780346Y12983334D01*
X28827965Y12888096D01*
X29542250Y14411905D02*
X29542250Y13840477D01*
X29542250Y14126191D02*
X28542250Y14126191D01*
X28685108Y14030953D01*
X28780346Y13935715D01*
X28827965Y13840477D01*
%TO.C,C5*%
X18148333Y75212753D02*
X18100714Y75165134D01*
X17957857Y75117515D01*
X17862619Y75117515D01*
X17719761Y75165134D01*
X17624523Y75260372D01*
X17576904Y75355610D01*
X17529285Y75546086D01*
X17529285Y75688943D01*
X17576904Y75879419D01*
X17624523Y75974657D01*
X17719761Y76069895D01*
X17862619Y76117515D01*
X17957857Y76117515D01*
X18100714Y76069895D01*
X18148333Y76022276D01*
X19053095Y76117515D02*
X18576904Y76117515D01*
X18529285Y75641324D01*
X18576904Y75688943D01*
X18672142Y75736562D01*
X18910238Y75736562D01*
X19005476Y75688943D01*
X19053095Y75641324D01*
X19100714Y75546086D01*
X19100714Y75307991D01*
X19053095Y75212753D01*
X19005476Y75165134D01*
X18910238Y75117515D01*
X18672142Y75117515D01*
X18576904Y75165134D01*
X18529285Y75212753D01*
%TO.C,U2*%
X8077250Y7163096D02*
X8886774Y7163096D01*
X8982012Y7210715D01*
X9029631Y7258334D01*
X9077250Y7353572D01*
X9077250Y7544048D01*
X9029631Y7639286D01*
X8982012Y7686905D01*
X8886774Y7734524D01*
X8077250Y7734524D01*
X8172489Y8163096D02*
X8124870Y8210715D01*
X8077250Y8305953D01*
X8077250Y8544048D01*
X8124870Y8639286D01*
X8172489Y8686905D01*
X8267727Y8734524D01*
X8362965Y8734524D01*
X8505822Y8686905D01*
X9077250Y8115477D01*
X9077250Y8734524D01*
%TO.C,R18*%
X11367012Y13527620D02*
X11033679Y14003810D01*
X10795584Y13527620D02*
X10795584Y14527620D01*
X11176536Y14527620D01*
X11271774Y14480000D01*
X11319393Y14432381D01*
X11367012Y14337143D01*
X11367012Y14194286D01*
X11319393Y14099048D01*
X11271774Y14051429D01*
X11176536Y14003810D01*
X10795584Y14003810D01*
X12319393Y13527620D02*
X11747965Y13527620D01*
X12033679Y13527620D02*
X12033679Y14527620D01*
X11938441Y14384762D01*
X11843203Y14289524D01*
X11747965Y14241905D01*
X12890822Y14099048D02*
X12795584Y14146667D01*
X12747965Y14194286D01*
X12700346Y14289524D01*
X12700346Y14337143D01*
X12747965Y14432381D01*
X12795584Y14480000D01*
X12890822Y14527620D01*
X13081298Y14527620D01*
X13176536Y14480000D01*
X13224155Y14432381D01*
X13271774Y14337143D01*
X13271774Y14289524D01*
X13224155Y14194286D01*
X13176536Y14146667D01*
X13081298Y14099048D01*
X12890822Y14099048D01*
X12795584Y14051429D01*
X12747965Y14003810D01*
X12700346Y13908572D01*
X12700346Y13718096D01*
X12747965Y13622858D01*
X12795584Y13575239D01*
X12890822Y13527620D01*
X13081298Y13527620D01*
X13176536Y13575239D01*
X13224155Y13622858D01*
X13271774Y13718096D01*
X13271774Y13908572D01*
X13224155Y14003810D01*
X13176536Y14051429D01*
X13081298Y14099048D01*
%TO.C,R17*%
X10267012Y1447620D02*
X9933679Y1923810D01*
X9695584Y1447620D02*
X9695584Y2447620D01*
X10076536Y2447620D01*
X10171774Y2400000D01*
X10219393Y2352381D01*
X10267012Y2257143D01*
X10267012Y2114286D01*
X10219393Y2019048D01*
X10171774Y1971429D01*
X10076536Y1923810D01*
X9695584Y1923810D01*
X11219393Y1447620D02*
X10647965Y1447620D01*
X10933679Y1447620D02*
X10933679Y2447620D01*
X10838441Y2304762D01*
X10743203Y2209524D01*
X10647965Y2161905D01*
X11552727Y2447620D02*
X12219393Y2447620D01*
X11790822Y1447620D01*
%TO.C,R16*%
X14362250Y7607143D02*
X13886060Y7273810D01*
X14362250Y7035715D02*
X13362250Y7035715D01*
X13362250Y7416667D01*
X13409870Y7511905D01*
X13457489Y7559524D01*
X13552727Y7607143D01*
X13695584Y7607143D01*
X13790822Y7559524D01*
X13838441Y7511905D01*
X13886060Y7416667D01*
X13886060Y7035715D01*
X14362250Y8559524D02*
X14362250Y7988096D01*
X14362250Y8273810D02*
X13362250Y8273810D01*
X13505108Y8178572D01*
X13600346Y8083334D01*
X13647965Y7988096D01*
X13362250Y9416667D02*
X13362250Y9226191D01*
X13409870Y9130953D01*
X13457489Y9083334D01*
X13600346Y8988096D01*
X13790822Y8940477D01*
X14171774Y8940477D01*
X14267012Y8988096D01*
X14314631Y9035715D01*
X14362250Y9130953D01*
X14362250Y9321429D01*
X14314631Y9416667D01*
X14267012Y9464286D01*
X14171774Y9511905D01*
X13933679Y9511905D01*
X13838441Y9464286D01*
X13790822Y9416667D01*
X13743203Y9321429D01*
X13743203Y9130953D01*
X13790822Y9035715D01*
X13838441Y8988096D01*
X13933679Y8940477D01*
%TO.C,R15*%
X18312250Y7607143D02*
X17836060Y7273810D01*
X18312250Y7035715D02*
X17312250Y7035715D01*
X17312250Y7416667D01*
X17359870Y7511905D01*
X17407489Y7559524D01*
X17502727Y7607143D01*
X17645584Y7607143D01*
X17740822Y7559524D01*
X17788441Y7511905D01*
X17836060Y7416667D01*
X17836060Y7035715D01*
X18312250Y8559524D02*
X18312250Y7988096D01*
X18312250Y8273810D02*
X17312250Y8273810D01*
X17455108Y8178572D01*
X17550346Y8083334D01*
X17597965Y7988096D01*
X17312250Y9464286D02*
X17312250Y8988096D01*
X17788441Y8940477D01*
X17740822Y8988096D01*
X17693203Y9083334D01*
X17693203Y9321429D01*
X17740822Y9416667D01*
X17788441Y9464286D01*
X17883679Y9511905D01*
X18121774Y9511905D01*
X18217012Y9464286D01*
X18264631Y9416667D01*
X18312250Y9321429D01*
X18312250Y9083334D01*
X18264631Y8988096D01*
X18217012Y8940477D01*
%TO.C,R14*%
X18462250Y3757143D02*
X17986060Y3423810D01*
X18462250Y3185715D02*
X17462250Y3185715D01*
X17462250Y3566667D01*
X17509870Y3661905D01*
X17557489Y3709524D01*
X17652727Y3757143D01*
X17795584Y3757143D01*
X17890822Y3709524D01*
X17938441Y3661905D01*
X17986060Y3566667D01*
X17986060Y3185715D01*
X18462250Y4709524D02*
X18462250Y4138096D01*
X18462250Y4423810D02*
X17462250Y4423810D01*
X17605108Y4328572D01*
X17700346Y4233334D01*
X17747965Y4138096D01*
X17795584Y5566667D02*
X18462250Y5566667D01*
X17414631Y5328572D02*
X18128917Y5090477D01*
X18128917Y5709524D01*
%TO.C,R13*%
X14362250Y3757143D02*
X13886060Y3423810D01*
X14362250Y3185715D02*
X13362250Y3185715D01*
X13362250Y3566667D01*
X13409870Y3661905D01*
X13457489Y3709524D01*
X13552727Y3757143D01*
X13695584Y3757143D01*
X13790822Y3709524D01*
X13838441Y3661905D01*
X13886060Y3566667D01*
X13886060Y3185715D01*
X14362250Y4709524D02*
X14362250Y4138096D01*
X14362250Y4423810D02*
X13362250Y4423810D01*
X13505108Y4328572D01*
X13600346Y4233334D01*
X13647965Y4138096D01*
X13362250Y5042858D02*
X13362250Y5661905D01*
X13743203Y5328572D01*
X13743203Y5471429D01*
X13790822Y5566667D01*
X13838441Y5614286D01*
X13933679Y5661905D01*
X14171774Y5661905D01*
X14267012Y5614286D01*
X14314631Y5566667D01*
X14362250Y5471429D01*
X14362250Y5185715D01*
X14314631Y5090477D01*
X14267012Y5042858D01*
%TO.C,R2*%
X18362250Y43683334D02*
X17886060Y43350000D01*
X18362250Y43111905D02*
X17362250Y43111905D01*
X17362250Y43492858D01*
X17409870Y43588096D01*
X17457489Y43635715D01*
X17552727Y43683334D01*
X17695584Y43683334D01*
X17790822Y43635715D01*
X17838441Y43588096D01*
X17886060Y43492858D01*
X17886060Y43111905D01*
X17457489Y44064286D02*
X17409870Y44111905D01*
X17362250Y44207143D01*
X17362250Y44445239D01*
X17409870Y44540477D01*
X17457489Y44588096D01*
X17552727Y44635715D01*
X17647965Y44635715D01*
X17790822Y44588096D01*
X18362250Y44016667D01*
X18362250Y44635715D01*
%TO.C,R1*%
X15612250Y43483334D02*
X15136060Y43150000D01*
X15612250Y42911905D02*
X14612250Y42911905D01*
X14612250Y43292858D01*
X14659870Y43388096D01*
X14707489Y43435715D01*
X14802727Y43483334D01*
X14945584Y43483334D01*
X15040822Y43435715D01*
X15088441Y43388096D01*
X15136060Y43292858D01*
X15136060Y42911905D01*
X15612250Y44435715D02*
X15612250Y43864286D01*
X15612250Y44150000D02*
X14612250Y44150000D01*
X14755108Y44054762D01*
X14850346Y43959524D01*
X14897965Y43864286D01*
%TO.C,C20*%
X17672142Y63212754D02*
X17624523Y63165135D01*
X17481666Y63117516D01*
X17386428Y63117516D01*
X17243571Y63165135D01*
X17148333Y63260373D01*
X17100714Y63355611D01*
X17053095Y63546087D01*
X17053095Y63688944D01*
X17100714Y63879420D01*
X17148333Y63974658D01*
X17243571Y64069896D01*
X17386428Y64117516D01*
X17481666Y64117516D01*
X17624523Y64069896D01*
X17672142Y64022277D01*
X18053095Y64022277D02*
X18100714Y64069896D01*
X18195952Y64117516D01*
X18434047Y64117516D01*
X18529285Y64069896D01*
X18576904Y64022277D01*
X18624523Y63927039D01*
X18624523Y63831801D01*
X18576904Y63688944D01*
X18005476Y63117516D01*
X18624523Y63117516D01*
X19243571Y64117516D02*
X19338809Y64117516D01*
X19434047Y64069896D01*
X19481666Y64022277D01*
X19529285Y63927039D01*
X19576904Y63736563D01*
X19576904Y63498468D01*
X19529285Y63307992D01*
X19481666Y63212754D01*
X19434047Y63165135D01*
X19338809Y63117516D01*
X19243571Y63117516D01*
X19148333Y63165135D01*
X19100714Y63212754D01*
X19053095Y63307992D01*
X19005476Y63498468D01*
X19005476Y63736563D01*
X19053095Y63927039D01*
X19100714Y64022277D01*
X19148333Y64069896D01*
X19243571Y64117516D01*
%TO.C,C19*%
X27172142Y75212754D02*
X27124523Y75165135D01*
X26981666Y75117516D01*
X26886428Y75117516D01*
X26743571Y75165135D01*
X26648333Y75260373D01*
X26600714Y75355611D01*
X26553095Y75546087D01*
X26553095Y75688944D01*
X26600714Y75879420D01*
X26648333Y75974658D01*
X26743571Y76069896D01*
X26886428Y76117516D01*
X26981666Y76117516D01*
X27124523Y76069896D01*
X27172142Y76022277D01*
X28124523Y75117516D02*
X27553095Y75117516D01*
X27838809Y75117516D02*
X27838809Y76117516D01*
X27743571Y75974658D01*
X27648333Y75879420D01*
X27553095Y75831801D01*
X28600714Y75117516D02*
X28791190Y75117516D01*
X28886428Y75165135D01*
X28934047Y75212754D01*
X29029285Y75355611D01*
X29076904Y75546087D01*
X29076904Y75927039D01*
X29029285Y76022277D01*
X28981666Y76069896D01*
X28886428Y76117516D01*
X28695952Y76117516D01*
X28600714Y76069896D01*
X28553095Y76022277D01*
X28505476Y75927039D01*
X28505476Y75688944D01*
X28553095Y75593706D01*
X28600714Y75546087D01*
X28695952Y75498468D01*
X28886428Y75498468D01*
X28981666Y75546087D01*
X29029285Y75593706D01*
X29076904Y75688944D01*
%TO.C,C18*%
X27172142Y63212753D02*
X27124523Y63165134D01*
X26981666Y63117515D01*
X26886428Y63117515D01*
X26743571Y63165134D01*
X26648333Y63260372D01*
X26600714Y63355610D01*
X26553095Y63546086D01*
X26553095Y63688943D01*
X26600714Y63879419D01*
X26648333Y63974657D01*
X26743571Y64069895D01*
X26886428Y64117515D01*
X26981666Y64117515D01*
X27124523Y64069895D01*
X27172142Y64022276D01*
X28124523Y63117515D02*
X27553095Y63117515D01*
X27838809Y63117515D02*
X27838809Y64117515D01*
X27743571Y63974657D01*
X27648333Y63879419D01*
X27553095Y63831800D01*
X28695952Y63688943D02*
X28600714Y63736562D01*
X28553095Y63784181D01*
X28505476Y63879419D01*
X28505476Y63927038D01*
X28553095Y64022276D01*
X28600714Y64069895D01*
X28695952Y64117515D01*
X28886428Y64117515D01*
X28981666Y64069895D01*
X29029285Y64022276D01*
X29076904Y63927038D01*
X29076904Y63879419D01*
X29029285Y63784181D01*
X28981666Y63736562D01*
X28886428Y63688943D01*
X28695952Y63688943D01*
X28600714Y63641324D01*
X28553095Y63593705D01*
X28505476Y63498467D01*
X28505476Y63307991D01*
X28553095Y63212753D01*
X28600714Y63165134D01*
X28695952Y63117515D01*
X28886428Y63117515D01*
X28981666Y63165134D01*
X29029285Y63212753D01*
X29076904Y63307991D01*
X29076904Y63498467D01*
X29029285Y63593705D01*
X28981666Y63641324D01*
X28886428Y63688943D01*
%TO.C,C10*%
X8172142Y75212754D02*
X8124523Y75165135D01*
X7981666Y75117516D01*
X7886428Y75117516D01*
X7743571Y75165135D01*
X7648333Y75260373D01*
X7600714Y75355611D01*
X7553095Y75546087D01*
X7553095Y75688944D01*
X7600714Y75879420D01*
X7648333Y75974658D01*
X7743571Y76069896D01*
X7886428Y76117516D01*
X7981666Y76117516D01*
X8124523Y76069896D01*
X8172142Y76022277D01*
X9124523Y75117516D02*
X8553095Y75117516D01*
X8838809Y75117516D02*
X8838809Y76117516D01*
X8743571Y75974658D01*
X8648333Y75879420D01*
X8553095Y75831801D01*
X9743571Y76117516D02*
X9838809Y76117516D01*
X9934047Y76069896D01*
X9981666Y76022277D01*
X10029285Y75927039D01*
X10076904Y75736563D01*
X10076904Y75498468D01*
X10029285Y75307992D01*
X9981666Y75212754D01*
X9934047Y75165135D01*
X9838809Y75117516D01*
X9743571Y75117516D01*
X9648333Y75165135D01*
X9600714Y75212754D01*
X9553095Y75307992D01*
X9505476Y75498468D01*
X9505476Y75736563D01*
X9553095Y75927039D01*
X9600714Y76022277D01*
X9648333Y76069896D01*
X9743571Y76117516D01*
%TO.C,C9*%
X9793203Y25942858D02*
X9745584Y25895239D01*
X9602727Y25847620D01*
X9507489Y25847620D01*
X9364631Y25895239D01*
X9269393Y25990477D01*
X9221774Y26085715D01*
X9174155Y26276191D01*
X9174155Y26419048D01*
X9221774Y26609524D01*
X9269393Y26704762D01*
X9364631Y26800000D01*
X9507489Y26847620D01*
X9602727Y26847620D01*
X9745584Y26800000D01*
X9793203Y26752381D01*
X10269393Y25847620D02*
X10459870Y25847620D01*
X10555108Y25895239D01*
X10602727Y25942858D01*
X10697965Y26085715D01*
X10745584Y26276191D01*
X10745584Y26657143D01*
X10697965Y26752381D01*
X10650346Y26800000D01*
X10555108Y26847620D01*
X10364631Y26847620D01*
X10269393Y26800000D01*
X10221774Y26752381D01*
X10174155Y26657143D01*
X10174155Y26419048D01*
X10221774Y26323810D01*
X10269393Y26276191D01*
X10364631Y26228572D01*
X10555108Y26228572D01*
X10650346Y26276191D01*
X10697965Y26323810D01*
X10745584Y26419048D01*
%TO.C,C8*%
X9793098Y27087728D02*
X9745479Y27040109D01*
X9602622Y26992490D01*
X9507384Y26992490D01*
X9364526Y27040109D01*
X9269288Y27135347D01*
X9221669Y27230585D01*
X9174050Y27421061D01*
X9174050Y27563918D01*
X9221669Y27754394D01*
X9269288Y27849632D01*
X9364526Y27944870D01*
X9507384Y27992490D01*
X9602622Y27992490D01*
X9745479Y27944870D01*
X9793098Y27897251D01*
X10364526Y27563918D02*
X10269288Y27611537D01*
X10221669Y27659156D01*
X10174050Y27754394D01*
X10174050Y27802013D01*
X10221669Y27897251D01*
X10269288Y27944870D01*
X10364526Y27992490D01*
X10555003Y27992490D01*
X10650241Y27944870D01*
X10697860Y27897251D01*
X10745479Y27802013D01*
X10745479Y27754394D01*
X10697860Y27659156D01*
X10650241Y27611537D01*
X10555003Y27563918D01*
X10364526Y27563918D01*
X10269288Y27516299D01*
X10221669Y27468680D01*
X10174050Y27373442D01*
X10174050Y27182966D01*
X10221669Y27087728D01*
X10269288Y27040109D01*
X10364526Y26992490D01*
X10555003Y26992490D01*
X10650241Y27040109D01*
X10697860Y27087728D01*
X10745479Y27182966D01*
X10745479Y27373442D01*
X10697860Y27468680D01*
X10650241Y27516299D01*
X10555003Y27563918D01*
%TO.C,C7*%
X8648333Y63212753D02*
X8600714Y63165134D01*
X8457857Y63117515D01*
X8362619Y63117515D01*
X8219761Y63165134D01*
X8124523Y63260372D01*
X8076904Y63355610D01*
X8029285Y63546086D01*
X8029285Y63688943D01*
X8076904Y63879419D01*
X8124523Y63974657D01*
X8219761Y64069895D01*
X8362619Y64117515D01*
X8457857Y64117515D01*
X8600714Y64069895D01*
X8648333Y64022276D01*
X8981666Y64117515D02*
X9648333Y64117515D01*
X9219761Y63117515D01*
%TO.C,C6*%
X20630703Y14192858D02*
X20583084Y14145239D01*
X20440227Y14097620D01*
X20344989Y14097620D01*
X20202131Y14145239D01*
X20106893Y14240477D01*
X20059274Y14335715D01*
X20011655Y14526191D01*
X20011655Y14669048D01*
X20059274Y14859524D01*
X20106893Y14954762D01*
X20202131Y15050000D01*
X20344989Y15097620D01*
X20440227Y15097620D01*
X20583084Y15050000D01*
X20630703Y15002381D01*
X21487846Y15097620D02*
X21297370Y15097620D01*
X21202131Y15050000D01*
X21154512Y15002381D01*
X21059274Y14859524D01*
X21011655Y14669048D01*
X21011655Y14288096D01*
X21059274Y14192858D01*
X21106893Y14145239D01*
X21202131Y14097620D01*
X21392608Y14097620D01*
X21487846Y14145239D01*
X21535465Y14192858D01*
X21583084Y14288096D01*
X21583084Y14526191D01*
X21535465Y14621429D01*
X21487846Y14669048D01*
X21392608Y14716667D01*
X21202131Y14716667D01*
X21106893Y14669048D01*
X21059274Y14621429D01*
X21011655Y14526191D01*
%TO.C,C4*%
X39552142Y72333230D02*
X39599761Y72285611D01*
X39647380Y72142754D01*
X39647380Y72047516D01*
X39599761Y71904658D01*
X39504523Y71809420D01*
X39409285Y71761801D01*
X39218809Y71714182D01*
X39075952Y71714182D01*
X38885476Y71761801D01*
X38790238Y71809420D01*
X38695000Y71904658D01*
X38647380Y72047516D01*
X38647380Y72142754D01*
X38695000Y72285611D01*
X38742619Y72333230D01*
X38980714Y73190373D02*
X39647380Y73190373D01*
X38599761Y72952277D02*
X39314047Y72714182D01*
X39314047Y73333230D01*
%TO.C,C3*%
X36692142Y69333229D02*
X36739761Y69285610D01*
X36787380Y69142753D01*
X36787380Y69047515D01*
X36739761Y68904657D01*
X36644523Y68809419D01*
X36549285Y68761800D01*
X36358809Y68714181D01*
X36215952Y68714181D01*
X36025476Y68761800D01*
X35930238Y68809419D01*
X35835000Y68904657D01*
X35787380Y69047515D01*
X35787380Y69142753D01*
X35835000Y69285610D01*
X35882619Y69333229D01*
X35787380Y69666562D02*
X35787380Y70285610D01*
X36168333Y69952276D01*
X36168333Y70095134D01*
X36215952Y70190372D01*
X36263571Y70237991D01*
X36358809Y70285610D01*
X36596904Y70285610D01*
X36692142Y70237991D01*
X36739761Y70190372D01*
X36787380Y70095134D01*
X36787380Y69809419D01*
X36739761Y69714181D01*
X36692142Y69666562D01*
%TO.C,C2*%
X9793203Y24592858D02*
X9745584Y24545239D01*
X9602727Y24497620D01*
X9507489Y24497620D01*
X9364631Y24545239D01*
X9269393Y24640477D01*
X9221774Y24735715D01*
X9174155Y24926191D01*
X9174155Y25069048D01*
X9221774Y25259524D01*
X9269393Y25354762D01*
X9364631Y25450000D01*
X9507489Y25497620D01*
X9602727Y25497620D01*
X9745584Y25450000D01*
X9793203Y25402381D01*
X10174155Y25402381D02*
X10221774Y25450000D01*
X10317012Y25497620D01*
X10555108Y25497620D01*
X10650346Y25450000D01*
X10697965Y25402381D01*
X10745584Y25307143D01*
X10745584Y25211905D01*
X10697965Y25069048D01*
X10126536Y24497620D01*
X10745584Y24497620D01*
D10*
%TO.C,U3*%
X7059870Y43890000D02*
X9509870Y43890000D01*
X8859870Y47110000D02*
X7059870Y47110000D01*
%TO.C,J8*%
X34339870Y13410000D02*
X35609870Y13410000D01*
X34339870Y12140000D02*
X34339870Y13410000D01*
X36652799Y6680000D02*
X37049870Y6680000D01*
X36652799Y7440000D02*
X37049870Y7440000D01*
X45709870Y6680000D02*
X39709870Y6680000D01*
X45709870Y7440000D02*
X45709870Y6680000D01*
X39709870Y7440000D02*
X45709870Y7440000D01*
X37049870Y8330000D02*
X39709870Y8330000D01*
X36652799Y9220000D02*
X37049870Y9220000D01*
X36652799Y9980000D02*
X37049870Y9980000D01*
X45709870Y9220000D02*
X39709870Y9220000D01*
X45709870Y9980000D02*
X45709870Y9220000D01*
X39709870Y9980000D02*
X45709870Y9980000D01*
X37049870Y10870000D02*
X39709870Y10870000D01*
X36719870Y11760000D02*
X37049870Y11760000D01*
X36719870Y12520000D02*
X37049870Y12520000D01*
X39709870Y11860000D02*
X45709870Y11860000D01*
X39709870Y11980000D02*
X45709870Y11980000D01*
X39709870Y12100000D02*
X45709870Y12100000D01*
X39709870Y12220000D02*
X45709870Y12220000D01*
X39709870Y12340000D02*
X45709870Y12340000D01*
X39709870Y12460000D02*
X45709870Y12460000D01*
X45709870Y11760000D02*
X39709870Y11760000D01*
X45709870Y12520000D02*
X45709870Y11760000D01*
X39709870Y12520000D02*
X45709870Y12520000D01*
X39709870Y13470000D02*
X37049870Y13470000D01*
X39709870Y5730000D02*
X39709870Y13470000D01*
X37049870Y5730000D02*
X39709870Y5730000D01*
X37049870Y13470000D02*
X37049870Y5730000D01*
%TO.C,Y1*%
X33029870Y12900000D02*
X33029870Y12900000D01*
X32259870Y12500000D02*
X33029870Y12900000D01*
X30489870Y12900000D02*
X30489870Y12900000D01*
X31259870Y12500000D02*
X30489870Y12900000D01*
X33459870Y12500000D02*
X33459870Y8800000D01*
X30059870Y12500000D02*
X33459870Y12500000D01*
X30059870Y8800000D02*
X30059870Y12500000D01*
%TO.C,J2*%
X44099870Y10895000D02*
X45369870Y10895000D01*
X44099870Y9625000D02*
X44099870Y10895000D01*
X46412799Y4165000D02*
X46866941Y4165000D01*
X46412799Y4925000D02*
X46866941Y4925000D01*
X48952799Y4165000D02*
X49349870Y4165000D01*
X48952799Y4925000D02*
X49349870Y4925000D01*
X58009870Y4165000D02*
X52009870Y4165000D01*
X58009870Y4925000D02*
X58009870Y4165000D01*
X52009870Y4925000D02*
X58009870Y4925000D01*
X49349870Y5815000D02*
X52009870Y5815000D01*
X46412799Y6705000D02*
X46866941Y6705000D01*
X46412799Y7465000D02*
X46866941Y7465000D01*
X48952799Y6705000D02*
X49349870Y6705000D01*
X48952799Y7465000D02*
X49349870Y7465000D01*
X58009870Y6705000D02*
X52009870Y6705000D01*
X58009870Y7465000D02*
X58009870Y6705000D01*
X52009870Y7465000D02*
X58009870Y7465000D01*
X49349870Y8355000D02*
X52009870Y8355000D01*
X46479870Y9245000D02*
X46866941Y9245000D01*
X46479870Y10005000D02*
X46866941Y10005000D01*
X48952799Y9245000D02*
X49349870Y9245000D01*
X48952799Y10005000D02*
X49349870Y10005000D01*
X52009870Y9345000D02*
X58009870Y9345000D01*
X52009870Y9465000D02*
X58009870Y9465000D01*
X52009870Y9585000D02*
X58009870Y9585000D01*
X52009870Y9705000D02*
X58009870Y9705000D01*
X52009870Y9825000D02*
X58009870Y9825000D01*
X52009870Y9945000D02*
X58009870Y9945000D01*
X58009870Y9245000D02*
X52009870Y9245000D01*
X58009870Y10005000D02*
X58009870Y9245000D01*
X52009870Y10005000D02*
X58009870Y10005000D01*
X52009870Y10955000D02*
X49349870Y10955000D01*
X52009870Y3215000D02*
X52009870Y10955000D01*
X49349870Y3215000D02*
X52009870Y3215000D01*
X49349870Y10955000D02*
X49349870Y3215000D01*
%TO.C,J1*%
X13729870Y24020000D02*
X13729870Y22750000D01*
X12459870Y24020000D02*
X13729870Y24020000D01*
X9539870Y21707071D02*
X9539870Y21310000D01*
X10299870Y21707071D02*
X10299870Y21310000D01*
X9539870Y12650000D02*
X9539870Y18650000D01*
X10299870Y12650000D02*
X9539870Y12650000D01*
X10299870Y18650000D02*
X10299870Y12650000D01*
X11189870Y21310000D02*
X11189870Y18650000D01*
X12079870Y21640000D02*
X12079870Y21310000D01*
X12839870Y21640000D02*
X12839870Y21310000D01*
X12179870Y18650000D02*
X12179870Y12650000D01*
X12299870Y18650000D02*
X12299870Y12650000D01*
X12419870Y18650000D02*
X12419870Y12650000D01*
X12539870Y18650000D02*
X12539870Y12650000D01*
X12659870Y18650000D02*
X12659870Y12650000D01*
X12779870Y18650000D02*
X12779870Y12650000D01*
X12079870Y12650000D02*
X12079870Y18650000D01*
X12839870Y12650000D02*
X12079870Y12650000D01*
X12839870Y18650000D02*
X12839870Y12650000D01*
X13789870Y18650000D02*
X13789870Y21310000D01*
X8589870Y18650000D02*
X13789870Y18650000D01*
X8589870Y21310000D02*
X8589870Y18650000D01*
X13789870Y21310000D02*
X8589870Y21310000D01*
%TO.C,U5*%
X10484870Y33275000D02*
X12484870Y33275000D01*
X12484870Y31035000D02*
X11484870Y31035000D01*
%TO.C,R9*%
X13712370Y30812258D02*
X13712370Y30337742D01*
X14757370Y30812258D02*
X14757370Y30337742D01*
%TO.C,R8*%
X11747612Y29702500D02*
X12222128Y29702500D01*
X11747612Y30747500D02*
X12222128Y30747500D01*
%TO.C,C17*%
X11844290Y28565000D02*
X12125450Y28565000D01*
X11844290Y29585000D02*
X12125450Y29585000D01*
%TO.C,C16*%
X10244870Y32034420D02*
X10244870Y32315580D01*
X9224870Y32034420D02*
X9224870Y32315580D01*
%TO.C,C15*%
X11844290Y33565000D02*
X12125450Y33565000D01*
X11844290Y34585000D02*
X12125450Y34585000D01*
%TO.C,U1*%
X26369870Y11610000D02*
X26369870Y12925000D01*
X26669870Y11610000D02*
X26369870Y11610000D01*
X26669870Y11310000D02*
X26669870Y11610000D01*
X26669870Y4390000D02*
X26369870Y4390000D01*
X26669870Y4690000D02*
X26669870Y4390000D01*
X19449870Y11610000D02*
X19749870Y11610000D01*
X19449870Y11310000D02*
X19449870Y11610000D01*
X19449870Y4390000D02*
X19749870Y4390000D01*
X19449870Y4690000D02*
X19449870Y4390000D01*
%TO.C,R4*%
X7627742Y6477395D02*
X8102258Y6477395D01*
X7627742Y7522395D02*
X8102258Y7522395D01*
%TO.C,R7*%
X1787370Y43312742D02*
X1787370Y43787258D01*
X2832370Y43312742D02*
X2832370Y43787258D01*
%TO.C,R6*%
X2832370Y47637258D02*
X2832370Y47162742D01*
X1787370Y47637258D02*
X1787370Y47162742D01*
%TO.C,R5*%
X1787370Y16687258D02*
X1787370Y16212742D01*
X2832370Y16687258D02*
X2832370Y16212742D01*
%TO.C,J6*%
X41745000Y18579895D02*
X42145000Y18579895D01*
X41945000Y18979895D02*
X41745000Y18579895D01*
X42145000Y18579895D02*
X41945000Y18979895D01*
X16870000Y21169895D02*
X16870000Y21769895D01*
X16980000Y21169895D02*
X16870000Y21169895D01*
X45020000Y21169895D02*
X45020000Y21769895D01*
X44910000Y21169895D02*
X45020000Y21169895D01*
%TO.C,C14*%
X46249870Y24140580D02*
X46249870Y23859420D01*
X47269870Y24140580D02*
X47269870Y23859420D01*
%TO.C,C13*%
X11550450Y35190000D02*
X11269290Y35190000D01*
X11550450Y36210000D02*
X11269290Y36210000D01*
%TO.C,R3*%
X16099870Y24162779D02*
X16099870Y23837221D01*
X17119870Y24162779D02*
X17119870Y23837221D01*
%TO.C,C1*%
X12701091Y46404000D02*
X13026649Y46404000D01*
X12701091Y47424000D02*
X13026649Y47424000D01*
%TO.C,U4*%
X16519870Y42610000D02*
X15259870Y42610000D01*
X9699870Y42610000D02*
X10959870Y42610000D01*
X16519870Y38850000D02*
X16519870Y42610000D01*
X9699870Y36600000D02*
X9699870Y42610000D01*
%TO.C,C12*%
X28499870Y13312779D02*
X28499870Y12987221D01*
X29519870Y13312779D02*
X29519870Y12987221D01*
%TO.C,C11*%
X27149870Y13312779D02*
X27149870Y12987221D01*
X28169870Y13312779D02*
X28169870Y12987221D01*
%TO.C,C5*%
X18477779Y77509895D02*
X18152221Y77509895D01*
X18477779Y76489895D02*
X18152221Y76489895D01*
%TO.C,U2*%
X9464870Y7925000D02*
X9464870Y4475000D01*
X9464870Y7925000D02*
X9464870Y9875000D01*
X14584870Y7925000D02*
X14584870Y5975000D01*
X14584870Y7925000D02*
X14584870Y9875000D01*
%TO.C,R18*%
X11847091Y12040000D02*
X12172649Y12040000D01*
X11847091Y13060000D02*
X12172649Y13060000D01*
%TO.C,R17*%
X10747091Y2840000D02*
X11072649Y2840000D01*
X10747091Y3860000D02*
X11072649Y3860000D01*
%TO.C,R16*%
X14899870Y8412779D02*
X14899870Y8087221D01*
X15919870Y8412779D02*
X15919870Y8087221D01*
%TO.C,R15*%
X16049870Y8412779D02*
X16049870Y8087221D01*
X17069870Y8412779D02*
X17069870Y8087221D01*
%TO.C,R14*%
X17219870Y4237221D02*
X17219870Y4562779D01*
X16199870Y4237221D02*
X16199870Y4562779D01*
%TO.C,R13*%
X15919870Y4237221D02*
X15919870Y4562779D01*
X14899870Y4237221D02*
X14899870Y4562779D01*
%TO.C,R2*%
X19019870Y43537221D02*
X19019870Y43862779D01*
X17999870Y43537221D02*
X17999870Y43862779D01*
%TO.C,R1*%
X17869870Y43537221D02*
X17869870Y43862779D01*
X16849870Y43537221D02*
X16849870Y43862779D01*
%TO.C,C20*%
X18477779Y65509896D02*
X18152221Y65509896D01*
X18477779Y64489896D02*
X18152221Y64489896D01*
%TO.C,C19*%
X27977779Y77509896D02*
X27652221Y77509896D01*
X27977779Y76489896D02*
X27652221Y76489896D01*
%TO.C,C18*%
X27977779Y65509895D02*
X27652221Y65509895D01*
X27977779Y64489895D02*
X27652221Y64489895D01*
%TO.C,C10*%
X8977779Y77509896D02*
X8652221Y77509896D01*
X8977779Y76489896D02*
X8652221Y76489896D01*
%TO.C,C9*%
X11922649Y26810000D02*
X11597091Y26810000D01*
X11922649Y25790000D02*
X11597091Y25790000D01*
%TO.C,C8*%
X11922544Y27954870D02*
X11596986Y27954870D01*
X11922544Y26934870D02*
X11596986Y26934870D01*
%TO.C,C7*%
X8977779Y65509895D02*
X8652221Y65509895D01*
X8977779Y64489895D02*
X8652221Y64489895D01*
%TO.C,C6*%
X23222649Y14610000D02*
X22897091Y14610000D01*
X23222649Y13590000D02*
X22897091Y13590000D01*
%TO.C,C4*%
X37255000Y72662675D02*
X37255000Y72337117D01*
X38275000Y72662675D02*
X38275000Y72337117D01*
%TO.C,C3*%
X38275000Y69337116D02*
X38275000Y69662674D01*
X37255000Y69337116D02*
X37255000Y69662674D01*
%TO.C,C2*%
X11922649Y25460000D02*
X11597091Y25460000D01*
X11922649Y24440000D02*
X11597091Y24440000D01*
%TD*%
M02*
