%TF.GenerationSoftware,KiCad,Pcbnew,5.1.9*%
%TF.CreationDate,2021-03-31T15:16:15-04:00*%
%TF.ProjectId,function_generator,66756e63-7469-46f6-9e5f-67656e657261,rev?*%
%TF.SameCoordinates,PX5f5e100PY5f5e100*%
%TF.FileFunction,Paste,Top*%
%TF.FilePolarity,Positive*%
%FSLAX46Y46*%
G04 Gerber Fmt 4.6, Leading zero omitted, Abs format (unit mm)*
G04 Created by KiCad (PCBNEW 5.1.9) date 2021-03-31 15:16:15*
%MOMM*%
%LPD*%
G01*
G04 APERTURE LIST*
%ADD10R,1.000000X0.650000*%
%ADD11R,3.000000X2.500000*%
%ADD12R,1.000000X1.600000*%
%ADD13R,0.750000X0.650000*%
%ADD14R,0.500000X0.250000*%
%ADD15R,2.400000X2.400000*%
%ADD16R,0.300000X1.100000*%
%ADD17R,1.500000X2.000000*%
%ADD18R,3.800000X2.000000*%
G04 APERTURE END LIST*
D10*
%TO.C,U3*%
X45450000Y3600000D03*
X45450000Y4550000D03*
X45450000Y2650000D03*
X43250000Y2650000D03*
X43250000Y3600000D03*
X43250000Y4550000D03*
%TD*%
D11*
%TO.C,Y1*%
X20550000Y41750000D03*
D12*
X19280000Y35200000D03*
X21820000Y35200000D03*
%TD*%
D13*
%TO.C,U5*%
X40325000Y16545000D03*
X40325000Y17345000D03*
D14*
X39375000Y17195000D03*
X39375000Y17695000D03*
X41275000Y17695000D03*
X41275000Y16695000D03*
X41275000Y16195000D03*
X39375000Y16195000D03*
X39375000Y16695000D03*
X41275000Y17195000D03*
%TD*%
%TO.C,R9*%
G36*
G01*
X38350000Y18950000D02*
X37800000Y18950000D01*
G75*
G02*
X37600000Y19150000I0J200000D01*
G01*
X37600000Y19550000D01*
G75*
G02*
X37800000Y19750000I200000J0D01*
G01*
X38350000Y19750000D01*
G75*
G02*
X38550000Y19550000I0J-200000D01*
G01*
X38550000Y19150000D01*
G75*
G02*
X38350000Y18950000I-200000J0D01*
G01*
G37*
G36*
G01*
X38350000Y17300000D02*
X37800000Y17300000D01*
G75*
G02*
X37600000Y17500000I0J200000D01*
G01*
X37600000Y17900000D01*
G75*
G02*
X37800000Y18100000I200000J0D01*
G01*
X38350000Y18100000D01*
G75*
G02*
X38550000Y17900000I0J-200000D01*
G01*
X38550000Y17500000D01*
G75*
G02*
X38350000Y17300000I-200000J0D01*
G01*
G37*
%TD*%
%TO.C,R8*%
G36*
G01*
X39900000Y19150000D02*
X39900000Y18600000D01*
G75*
G02*
X39700000Y18400000I-200000J0D01*
G01*
X39300000Y18400000D01*
G75*
G02*
X39100000Y18600000I0J200000D01*
G01*
X39100000Y19150000D01*
G75*
G02*
X39300000Y19350000I200000J0D01*
G01*
X39700000Y19350000D01*
G75*
G02*
X39900000Y19150000I0J-200000D01*
G01*
G37*
G36*
G01*
X41550000Y19150000D02*
X41550000Y18600000D01*
G75*
G02*
X41350000Y18400000I-200000J0D01*
G01*
X40950000Y18400000D01*
G75*
G02*
X40750000Y18600000I0J200000D01*
G01*
X40750000Y19150000D01*
G75*
G02*
X40950000Y19350000I200000J0D01*
G01*
X41350000Y19350000D01*
G75*
G02*
X41550000Y19150000I0J-200000D01*
G01*
G37*
%TD*%
%TO.C,C17*%
G36*
G01*
X40000000Y20275000D02*
X40000000Y19775000D01*
G75*
G02*
X39775000Y19550000I-225000J0D01*
G01*
X39325000Y19550000D01*
G75*
G02*
X39100000Y19775000I0J225000D01*
G01*
X39100000Y20275000D01*
G75*
G02*
X39325000Y20500000I225000J0D01*
G01*
X39775000Y20500000D01*
G75*
G02*
X40000000Y20275000I0J-225000D01*
G01*
G37*
G36*
G01*
X41550000Y20275000D02*
X41550000Y19775000D01*
G75*
G02*
X41325000Y19550000I-225000J0D01*
G01*
X40875000Y19550000D01*
G75*
G02*
X40650000Y19775000I0J225000D01*
G01*
X40650000Y20275000D01*
G75*
G02*
X40875000Y20500000I225000J0D01*
G01*
X41325000Y20500000D01*
G75*
G02*
X41550000Y20275000I0J-225000D01*
G01*
G37*
%TD*%
%TO.C,C16*%
G36*
G01*
X42325000Y16600000D02*
X42825000Y16600000D01*
G75*
G02*
X43050000Y16375000I0J-225000D01*
G01*
X43050000Y15925000D01*
G75*
G02*
X42825000Y15700000I-225000J0D01*
G01*
X42325000Y15700000D01*
G75*
G02*
X42100000Y15925000I0J225000D01*
G01*
X42100000Y16375000D01*
G75*
G02*
X42325000Y16600000I225000J0D01*
G01*
G37*
G36*
G01*
X42325000Y18150000D02*
X42825000Y18150000D01*
G75*
G02*
X43050000Y17925000I0J-225000D01*
G01*
X43050000Y17475000D01*
G75*
G02*
X42825000Y17250000I-225000J0D01*
G01*
X42325000Y17250000D01*
G75*
G02*
X42100000Y17475000I0J225000D01*
G01*
X42100000Y17925000D01*
G75*
G02*
X42325000Y18150000I225000J0D01*
G01*
G37*
%TD*%
%TO.C,C15*%
G36*
G01*
X40000000Y15275000D02*
X40000000Y14775000D01*
G75*
G02*
X39775000Y14550000I-225000J0D01*
G01*
X39325000Y14550000D01*
G75*
G02*
X39100000Y14775000I0J225000D01*
G01*
X39100000Y15275000D01*
G75*
G02*
X39325000Y15500000I225000J0D01*
G01*
X39775000Y15500000D01*
G75*
G02*
X40000000Y15275000I0J-225000D01*
G01*
G37*
G36*
G01*
X41550000Y15275000D02*
X41550000Y14775000D01*
G75*
G02*
X41325000Y14550000I-225000J0D01*
G01*
X40875000Y14550000D01*
G75*
G02*
X40650000Y14775000I0J225000D01*
G01*
X40650000Y15275000D01*
G75*
G02*
X40875000Y15500000I225000J0D01*
G01*
X41325000Y15500000D01*
G75*
G02*
X41550000Y15275000I0J-225000D01*
G01*
G37*
%TD*%
%TO.C,U1*%
G36*
G01*
X25700000Y38050000D02*
X24450000Y38050000D01*
G75*
G02*
X24325000Y38175000I0J125000D01*
G01*
X24325000Y38425000D01*
G75*
G02*
X24450000Y38550000I125000J0D01*
G01*
X25700000Y38550000D01*
G75*
G02*
X25825000Y38425000I0J-125000D01*
G01*
X25825000Y38175000D01*
G75*
G02*
X25700000Y38050000I-125000J0D01*
G01*
G37*
G36*
G01*
X25700000Y38850000D02*
X24450000Y38850000D01*
G75*
G02*
X24325000Y38975000I0J125000D01*
G01*
X24325000Y39225000D01*
G75*
G02*
X24450000Y39350000I125000J0D01*
G01*
X25700000Y39350000D01*
G75*
G02*
X25825000Y39225000I0J-125000D01*
G01*
X25825000Y38975000D01*
G75*
G02*
X25700000Y38850000I-125000J0D01*
G01*
G37*
G36*
G01*
X25700000Y39650000D02*
X24450000Y39650000D01*
G75*
G02*
X24325000Y39775000I0J125000D01*
G01*
X24325000Y40025000D01*
G75*
G02*
X24450000Y40150000I125000J0D01*
G01*
X25700000Y40150000D01*
G75*
G02*
X25825000Y40025000I0J-125000D01*
G01*
X25825000Y39775000D01*
G75*
G02*
X25700000Y39650000I-125000J0D01*
G01*
G37*
G36*
G01*
X25700000Y40450000D02*
X24450000Y40450000D01*
G75*
G02*
X24325000Y40575000I0J125000D01*
G01*
X24325000Y40825000D01*
G75*
G02*
X24450000Y40950000I125000J0D01*
G01*
X25700000Y40950000D01*
G75*
G02*
X25825000Y40825000I0J-125000D01*
G01*
X25825000Y40575000D01*
G75*
G02*
X25700000Y40450000I-125000J0D01*
G01*
G37*
G36*
G01*
X25700000Y41250000D02*
X24450000Y41250000D01*
G75*
G02*
X24325000Y41375000I0J125000D01*
G01*
X24325000Y41625000D01*
G75*
G02*
X24450000Y41750000I125000J0D01*
G01*
X25700000Y41750000D01*
G75*
G02*
X25825000Y41625000I0J-125000D01*
G01*
X25825000Y41375000D01*
G75*
G02*
X25700000Y41250000I-125000J0D01*
G01*
G37*
G36*
G01*
X25700000Y42050000D02*
X24450000Y42050000D01*
G75*
G02*
X24325000Y42175000I0J125000D01*
G01*
X24325000Y42425000D01*
G75*
G02*
X24450000Y42550000I125000J0D01*
G01*
X25700000Y42550000D01*
G75*
G02*
X25825000Y42425000I0J-125000D01*
G01*
X25825000Y42175000D01*
G75*
G02*
X25700000Y42050000I-125000J0D01*
G01*
G37*
G36*
G01*
X25700000Y42850000D02*
X24450000Y42850000D01*
G75*
G02*
X24325000Y42975000I0J125000D01*
G01*
X24325000Y43225000D01*
G75*
G02*
X24450000Y43350000I125000J0D01*
G01*
X25700000Y43350000D01*
G75*
G02*
X25825000Y43225000I0J-125000D01*
G01*
X25825000Y42975000D01*
G75*
G02*
X25700000Y42850000I-125000J0D01*
G01*
G37*
G36*
G01*
X25700000Y43650000D02*
X24450000Y43650000D01*
G75*
G02*
X24325000Y43775000I0J125000D01*
G01*
X24325000Y44025000D01*
G75*
G02*
X24450000Y44150000I125000J0D01*
G01*
X25700000Y44150000D01*
G75*
G02*
X25825000Y44025000I0J-125000D01*
G01*
X25825000Y43775000D01*
G75*
G02*
X25700000Y43650000I-125000J0D01*
G01*
G37*
G36*
G01*
X26575000Y44525000D02*
X26325000Y44525000D01*
G75*
G02*
X26200000Y44650000I0J125000D01*
G01*
X26200000Y45900000D01*
G75*
G02*
X26325000Y46025000I125000J0D01*
G01*
X26575000Y46025000D01*
G75*
G02*
X26700000Y45900000I0J-125000D01*
G01*
X26700000Y44650000D01*
G75*
G02*
X26575000Y44525000I-125000J0D01*
G01*
G37*
G36*
G01*
X27375000Y44525000D02*
X27125000Y44525000D01*
G75*
G02*
X27000000Y44650000I0J125000D01*
G01*
X27000000Y45900000D01*
G75*
G02*
X27125000Y46025000I125000J0D01*
G01*
X27375000Y46025000D01*
G75*
G02*
X27500000Y45900000I0J-125000D01*
G01*
X27500000Y44650000D01*
G75*
G02*
X27375000Y44525000I-125000J0D01*
G01*
G37*
G36*
G01*
X28175000Y44525000D02*
X27925000Y44525000D01*
G75*
G02*
X27800000Y44650000I0J125000D01*
G01*
X27800000Y45900000D01*
G75*
G02*
X27925000Y46025000I125000J0D01*
G01*
X28175000Y46025000D01*
G75*
G02*
X28300000Y45900000I0J-125000D01*
G01*
X28300000Y44650000D01*
G75*
G02*
X28175000Y44525000I-125000J0D01*
G01*
G37*
G36*
G01*
X28975000Y44525000D02*
X28725000Y44525000D01*
G75*
G02*
X28600000Y44650000I0J125000D01*
G01*
X28600000Y45900000D01*
G75*
G02*
X28725000Y46025000I125000J0D01*
G01*
X28975000Y46025000D01*
G75*
G02*
X29100000Y45900000I0J-125000D01*
G01*
X29100000Y44650000D01*
G75*
G02*
X28975000Y44525000I-125000J0D01*
G01*
G37*
G36*
G01*
X29775000Y44525000D02*
X29525000Y44525000D01*
G75*
G02*
X29400000Y44650000I0J125000D01*
G01*
X29400000Y45900000D01*
G75*
G02*
X29525000Y46025000I125000J0D01*
G01*
X29775000Y46025000D01*
G75*
G02*
X29900000Y45900000I0J-125000D01*
G01*
X29900000Y44650000D01*
G75*
G02*
X29775000Y44525000I-125000J0D01*
G01*
G37*
G36*
G01*
X30575000Y44525000D02*
X30325000Y44525000D01*
G75*
G02*
X30200000Y44650000I0J125000D01*
G01*
X30200000Y45900000D01*
G75*
G02*
X30325000Y46025000I125000J0D01*
G01*
X30575000Y46025000D01*
G75*
G02*
X30700000Y45900000I0J-125000D01*
G01*
X30700000Y44650000D01*
G75*
G02*
X30575000Y44525000I-125000J0D01*
G01*
G37*
G36*
G01*
X31375000Y44525000D02*
X31125000Y44525000D01*
G75*
G02*
X31000000Y44650000I0J125000D01*
G01*
X31000000Y45900000D01*
G75*
G02*
X31125000Y46025000I125000J0D01*
G01*
X31375000Y46025000D01*
G75*
G02*
X31500000Y45900000I0J-125000D01*
G01*
X31500000Y44650000D01*
G75*
G02*
X31375000Y44525000I-125000J0D01*
G01*
G37*
G36*
G01*
X32175000Y44525000D02*
X31925000Y44525000D01*
G75*
G02*
X31800000Y44650000I0J125000D01*
G01*
X31800000Y45900000D01*
G75*
G02*
X31925000Y46025000I125000J0D01*
G01*
X32175000Y46025000D01*
G75*
G02*
X32300000Y45900000I0J-125000D01*
G01*
X32300000Y44650000D01*
G75*
G02*
X32175000Y44525000I-125000J0D01*
G01*
G37*
G36*
G01*
X34050000Y43650000D02*
X32800000Y43650000D01*
G75*
G02*
X32675000Y43775000I0J125000D01*
G01*
X32675000Y44025000D01*
G75*
G02*
X32800000Y44150000I125000J0D01*
G01*
X34050000Y44150000D01*
G75*
G02*
X34175000Y44025000I0J-125000D01*
G01*
X34175000Y43775000D01*
G75*
G02*
X34050000Y43650000I-125000J0D01*
G01*
G37*
G36*
G01*
X34050000Y42850000D02*
X32800000Y42850000D01*
G75*
G02*
X32675000Y42975000I0J125000D01*
G01*
X32675000Y43225000D01*
G75*
G02*
X32800000Y43350000I125000J0D01*
G01*
X34050000Y43350000D01*
G75*
G02*
X34175000Y43225000I0J-125000D01*
G01*
X34175000Y42975000D01*
G75*
G02*
X34050000Y42850000I-125000J0D01*
G01*
G37*
G36*
G01*
X34050000Y42050000D02*
X32800000Y42050000D01*
G75*
G02*
X32675000Y42175000I0J125000D01*
G01*
X32675000Y42425000D01*
G75*
G02*
X32800000Y42550000I125000J0D01*
G01*
X34050000Y42550000D01*
G75*
G02*
X34175000Y42425000I0J-125000D01*
G01*
X34175000Y42175000D01*
G75*
G02*
X34050000Y42050000I-125000J0D01*
G01*
G37*
G36*
G01*
X34050000Y41250000D02*
X32800000Y41250000D01*
G75*
G02*
X32675000Y41375000I0J125000D01*
G01*
X32675000Y41625000D01*
G75*
G02*
X32800000Y41750000I125000J0D01*
G01*
X34050000Y41750000D01*
G75*
G02*
X34175000Y41625000I0J-125000D01*
G01*
X34175000Y41375000D01*
G75*
G02*
X34050000Y41250000I-125000J0D01*
G01*
G37*
G36*
G01*
X34050000Y40450000D02*
X32800000Y40450000D01*
G75*
G02*
X32675000Y40575000I0J125000D01*
G01*
X32675000Y40825000D01*
G75*
G02*
X32800000Y40950000I125000J0D01*
G01*
X34050000Y40950000D01*
G75*
G02*
X34175000Y40825000I0J-125000D01*
G01*
X34175000Y40575000D01*
G75*
G02*
X34050000Y40450000I-125000J0D01*
G01*
G37*
G36*
G01*
X34050000Y39650000D02*
X32800000Y39650000D01*
G75*
G02*
X32675000Y39775000I0J125000D01*
G01*
X32675000Y40025000D01*
G75*
G02*
X32800000Y40150000I125000J0D01*
G01*
X34050000Y40150000D01*
G75*
G02*
X34175000Y40025000I0J-125000D01*
G01*
X34175000Y39775000D01*
G75*
G02*
X34050000Y39650000I-125000J0D01*
G01*
G37*
G36*
G01*
X34050000Y38850000D02*
X32800000Y38850000D01*
G75*
G02*
X32675000Y38975000I0J125000D01*
G01*
X32675000Y39225000D01*
G75*
G02*
X32800000Y39350000I125000J0D01*
G01*
X34050000Y39350000D01*
G75*
G02*
X34175000Y39225000I0J-125000D01*
G01*
X34175000Y38975000D01*
G75*
G02*
X34050000Y38850000I-125000J0D01*
G01*
G37*
G36*
G01*
X34050000Y38050000D02*
X32800000Y38050000D01*
G75*
G02*
X32675000Y38175000I0J125000D01*
G01*
X32675000Y38425000D01*
G75*
G02*
X32800000Y38550000I125000J0D01*
G01*
X34050000Y38550000D01*
G75*
G02*
X34175000Y38425000I0J-125000D01*
G01*
X34175000Y38175000D01*
G75*
G02*
X34050000Y38050000I-125000J0D01*
G01*
G37*
G36*
G01*
X32175000Y36175000D02*
X31925000Y36175000D01*
G75*
G02*
X31800000Y36300000I0J125000D01*
G01*
X31800000Y37550000D01*
G75*
G02*
X31925000Y37675000I125000J0D01*
G01*
X32175000Y37675000D01*
G75*
G02*
X32300000Y37550000I0J-125000D01*
G01*
X32300000Y36300000D01*
G75*
G02*
X32175000Y36175000I-125000J0D01*
G01*
G37*
G36*
G01*
X31375000Y36175000D02*
X31125000Y36175000D01*
G75*
G02*
X31000000Y36300000I0J125000D01*
G01*
X31000000Y37550000D01*
G75*
G02*
X31125000Y37675000I125000J0D01*
G01*
X31375000Y37675000D01*
G75*
G02*
X31500000Y37550000I0J-125000D01*
G01*
X31500000Y36300000D01*
G75*
G02*
X31375000Y36175000I-125000J0D01*
G01*
G37*
G36*
G01*
X30575000Y36175000D02*
X30325000Y36175000D01*
G75*
G02*
X30200000Y36300000I0J125000D01*
G01*
X30200000Y37550000D01*
G75*
G02*
X30325000Y37675000I125000J0D01*
G01*
X30575000Y37675000D01*
G75*
G02*
X30700000Y37550000I0J-125000D01*
G01*
X30700000Y36300000D01*
G75*
G02*
X30575000Y36175000I-125000J0D01*
G01*
G37*
G36*
G01*
X29775000Y36175000D02*
X29525000Y36175000D01*
G75*
G02*
X29400000Y36300000I0J125000D01*
G01*
X29400000Y37550000D01*
G75*
G02*
X29525000Y37675000I125000J0D01*
G01*
X29775000Y37675000D01*
G75*
G02*
X29900000Y37550000I0J-125000D01*
G01*
X29900000Y36300000D01*
G75*
G02*
X29775000Y36175000I-125000J0D01*
G01*
G37*
G36*
G01*
X28975000Y36175000D02*
X28725000Y36175000D01*
G75*
G02*
X28600000Y36300000I0J125000D01*
G01*
X28600000Y37550000D01*
G75*
G02*
X28725000Y37675000I125000J0D01*
G01*
X28975000Y37675000D01*
G75*
G02*
X29100000Y37550000I0J-125000D01*
G01*
X29100000Y36300000D01*
G75*
G02*
X28975000Y36175000I-125000J0D01*
G01*
G37*
G36*
G01*
X28175000Y36175000D02*
X27925000Y36175000D01*
G75*
G02*
X27800000Y36300000I0J125000D01*
G01*
X27800000Y37550000D01*
G75*
G02*
X27925000Y37675000I125000J0D01*
G01*
X28175000Y37675000D01*
G75*
G02*
X28300000Y37550000I0J-125000D01*
G01*
X28300000Y36300000D01*
G75*
G02*
X28175000Y36175000I-125000J0D01*
G01*
G37*
G36*
G01*
X27375000Y36175000D02*
X27125000Y36175000D01*
G75*
G02*
X27000000Y36300000I0J125000D01*
G01*
X27000000Y37550000D01*
G75*
G02*
X27125000Y37675000I125000J0D01*
G01*
X27375000Y37675000D01*
G75*
G02*
X27500000Y37550000I0J-125000D01*
G01*
X27500000Y36300000D01*
G75*
G02*
X27375000Y36175000I-125000J0D01*
G01*
G37*
G36*
G01*
X26575000Y36175000D02*
X26325000Y36175000D01*
G75*
G02*
X26200000Y36300000I0J125000D01*
G01*
X26200000Y37550000D01*
G75*
G02*
X26325000Y37675000I125000J0D01*
G01*
X26575000Y37675000D01*
G75*
G02*
X26700000Y37550000I0J-125000D01*
G01*
X26700000Y36300000D01*
G75*
G02*
X26575000Y36175000I-125000J0D01*
G01*
G37*
%TD*%
%TO.C,R4*%
G36*
G01*
X44019870Y42375105D02*
X44019870Y41825105D01*
G75*
G02*
X43819870Y41625105I-200000J0D01*
G01*
X43419870Y41625105D01*
G75*
G02*
X43219870Y41825105I0J200000D01*
G01*
X43219870Y42375105D01*
G75*
G02*
X43419870Y42575105I200000J0D01*
G01*
X43819870Y42575105D01*
G75*
G02*
X44019870Y42375105I0J-200000D01*
G01*
G37*
G36*
G01*
X45669870Y42375105D02*
X45669870Y41825105D01*
G75*
G02*
X45469870Y41625105I-200000J0D01*
G01*
X45069870Y41625105D01*
G75*
G02*
X44869870Y41825105I0J200000D01*
G01*
X44869870Y42375105D01*
G75*
G02*
X45069870Y42575105I200000J0D01*
G01*
X45469870Y42575105D01*
G75*
G02*
X45669870Y42375105I0J-200000D01*
G01*
G37*
%TD*%
%TO.C,R7*%
G36*
G01*
X49725000Y5125000D02*
X50275000Y5125000D01*
G75*
G02*
X50475000Y4925000I0J-200000D01*
G01*
X50475000Y4525000D01*
G75*
G02*
X50275000Y4325000I-200000J0D01*
G01*
X49725000Y4325000D01*
G75*
G02*
X49525000Y4525000I0J200000D01*
G01*
X49525000Y4925000D01*
G75*
G02*
X49725000Y5125000I200000J0D01*
G01*
G37*
G36*
G01*
X49725000Y6775000D02*
X50275000Y6775000D01*
G75*
G02*
X50475000Y6575000I0J-200000D01*
G01*
X50475000Y6175000D01*
G75*
G02*
X50275000Y5975000I-200000J0D01*
G01*
X49725000Y5975000D01*
G75*
G02*
X49525000Y6175000I0J200000D01*
G01*
X49525000Y6575000D01*
G75*
G02*
X49725000Y6775000I200000J0D01*
G01*
G37*
%TD*%
%TO.C,R6*%
G36*
G01*
X50275000Y2125000D02*
X49725000Y2125000D01*
G75*
G02*
X49525000Y2325000I0J200000D01*
G01*
X49525000Y2725000D01*
G75*
G02*
X49725000Y2925000I200000J0D01*
G01*
X50275000Y2925000D01*
G75*
G02*
X50475000Y2725000I0J-200000D01*
G01*
X50475000Y2325000D01*
G75*
G02*
X50275000Y2125000I-200000J0D01*
G01*
G37*
G36*
G01*
X50275000Y475000D02*
X49725000Y475000D01*
G75*
G02*
X49525000Y675000I0J200000D01*
G01*
X49525000Y1075000D01*
G75*
G02*
X49725000Y1275000I200000J0D01*
G01*
X50275000Y1275000D01*
G75*
G02*
X50475000Y1075000I0J-200000D01*
G01*
X50475000Y675000D01*
G75*
G02*
X50275000Y475000I-200000J0D01*
G01*
G37*
%TD*%
%TO.C,R5*%
G36*
G01*
X50275000Y33075000D02*
X49725000Y33075000D01*
G75*
G02*
X49525000Y33275000I0J200000D01*
G01*
X49525000Y33675000D01*
G75*
G02*
X49725000Y33875000I200000J0D01*
G01*
X50275000Y33875000D01*
G75*
G02*
X50475000Y33675000I0J-200000D01*
G01*
X50475000Y33275000D01*
G75*
G02*
X50275000Y33075000I-200000J0D01*
G01*
G37*
G36*
G01*
X50275000Y31425000D02*
X49725000Y31425000D01*
G75*
G02*
X49525000Y31625000I0J200000D01*
G01*
X49525000Y32025000D01*
G75*
G02*
X49725000Y32225000I200000J0D01*
G01*
X50275000Y32225000D01*
G75*
G02*
X50475000Y32025000I0J-200000D01*
G01*
X50475000Y31625000D01*
G75*
G02*
X50275000Y31425000I-200000J0D01*
G01*
G37*
%TD*%
D15*
%TO.C,J6*%
X34464870Y28670105D03*
X8264870Y28670105D03*
D16*
X32364870Y31320105D03*
X31864870Y31320105D03*
X31364870Y31320105D03*
X30864870Y31320105D03*
X30364870Y31320105D03*
X29864870Y31320105D03*
X29364870Y31320105D03*
X28864870Y31320105D03*
X28364870Y31320105D03*
X27864870Y31320105D03*
X27364870Y31320105D03*
X26864870Y31320105D03*
X26364870Y31320105D03*
X25864870Y31320105D03*
X25364870Y31320105D03*
X24864870Y31320105D03*
X24364870Y31320105D03*
X23864870Y31320105D03*
X23364870Y31320105D03*
X22864870Y31320105D03*
X22364870Y31320105D03*
X21864870Y31320105D03*
X21364870Y31320105D03*
X20864870Y31320105D03*
X20364870Y31320105D03*
X19864870Y31320105D03*
X19364870Y31320105D03*
X18864870Y31320105D03*
X18364870Y31320105D03*
X17864870Y31320105D03*
X17364870Y31320105D03*
X16864870Y31320105D03*
X16364870Y31320105D03*
X15864870Y31320105D03*
X15364870Y31320105D03*
X14864870Y31320105D03*
X14364870Y31320105D03*
X13864870Y31320105D03*
X13364870Y31320105D03*
X12864870Y31320105D03*
X12364870Y31320105D03*
X11864870Y31320105D03*
X11364870Y31320105D03*
X10864870Y31320105D03*
X10364870Y31320105D03*
%TD*%
%TO.C,C14*%
G36*
G01*
X5800000Y23875000D02*
X5300000Y23875000D01*
G75*
G02*
X5075000Y24100000I0J225000D01*
G01*
X5075000Y24550000D01*
G75*
G02*
X5300000Y24775000I225000J0D01*
G01*
X5800000Y24775000D01*
G75*
G02*
X6025000Y24550000I0J-225000D01*
G01*
X6025000Y24100000D01*
G75*
G02*
X5800000Y23875000I-225000J0D01*
G01*
G37*
G36*
G01*
X5800000Y25425000D02*
X5300000Y25425000D01*
G75*
G02*
X5075000Y25650000I0J225000D01*
G01*
X5075000Y26100000D01*
G75*
G02*
X5300000Y26325000I225000J0D01*
G01*
X5800000Y26325000D01*
G75*
G02*
X6025000Y26100000I0J-225000D01*
G01*
X6025000Y25650000D01*
G75*
G02*
X5800000Y25425000I-225000J0D01*
G01*
G37*
%TD*%
%TO.C,C13*%
G36*
G01*
X41225000Y13150000D02*
X41225000Y13650000D01*
G75*
G02*
X41450000Y13875000I225000J0D01*
G01*
X41900000Y13875000D01*
G75*
G02*
X42125000Y13650000I0J-225000D01*
G01*
X42125000Y13150000D01*
G75*
G02*
X41900000Y12925000I-225000J0D01*
G01*
X41450000Y12925000D01*
G75*
G02*
X41225000Y13150000I0J225000D01*
G01*
G37*
G36*
G01*
X39675000Y13150000D02*
X39675000Y13650000D01*
G75*
G02*
X39900000Y13875000I225000J0D01*
G01*
X40350000Y13875000D01*
G75*
G02*
X40575000Y13650000I0J-225000D01*
G01*
X40575000Y13150000D01*
G75*
G02*
X40350000Y12925000I-225000J0D01*
G01*
X39900000Y12925000D01*
G75*
G02*
X39675000Y13150000I0J225000D01*
G01*
G37*
%TD*%
%TO.C,R3*%
G36*
G01*
X35956250Y25450000D02*
X35443750Y25450000D01*
G75*
G02*
X35225000Y25668750I0J218750D01*
G01*
X35225000Y26106250D01*
G75*
G02*
X35443750Y26325000I218750J0D01*
G01*
X35956250Y26325000D01*
G75*
G02*
X36175000Y26106250I0J-218750D01*
G01*
X36175000Y25668750D01*
G75*
G02*
X35956250Y25450000I-218750J0D01*
G01*
G37*
G36*
G01*
X35956250Y23875000D02*
X35443750Y23875000D01*
G75*
G02*
X35225000Y24093750I0J218750D01*
G01*
X35225000Y24531250D01*
G75*
G02*
X35443750Y24750000I218750J0D01*
G01*
X35956250Y24750000D01*
G75*
G02*
X36175000Y24531250I0J-218750D01*
G01*
X36175000Y24093750D01*
G75*
G02*
X35956250Y23875000I-218750J0D01*
G01*
G37*
%TD*%
%TO.C,C1*%
G36*
G01*
X39096000Y2442250D02*
X39096000Y1929750D01*
G75*
G02*
X38877250Y1711000I-218750J0D01*
G01*
X38439750Y1711000D01*
G75*
G02*
X38221000Y1929750I0J218750D01*
G01*
X38221000Y2442250D01*
G75*
G02*
X38439750Y2661000I218750J0D01*
G01*
X38877250Y2661000D01*
G75*
G02*
X39096000Y2442250I0J-218750D01*
G01*
G37*
G36*
G01*
X40671000Y2442250D02*
X40671000Y1929750D01*
G75*
G02*
X40452250Y1711000I-218750J0D01*
G01*
X40014750Y1711000D01*
G75*
G02*
X39796000Y1929750I0J218750D01*
G01*
X39796000Y2442250D01*
G75*
G02*
X40014750Y2661000I218750J0D01*
G01*
X40452250Y2661000D01*
G75*
G02*
X40671000Y2442250I0J-218750D01*
G01*
G37*
%TD*%
D17*
%TO.C,U4*%
X41500000Y11550000D03*
X36900000Y11550000D03*
X39200000Y11550000D03*
D18*
X39200000Y5250000D03*
%TD*%
%TO.C,C12*%
G36*
G01*
X23556250Y36300000D02*
X23043750Y36300000D01*
G75*
G02*
X22825000Y36518750I0J218750D01*
G01*
X22825000Y36956250D01*
G75*
G02*
X23043750Y37175000I218750J0D01*
G01*
X23556250Y37175000D01*
G75*
G02*
X23775000Y36956250I0J-218750D01*
G01*
X23775000Y36518750D01*
G75*
G02*
X23556250Y36300000I-218750J0D01*
G01*
G37*
G36*
G01*
X23556250Y34725000D02*
X23043750Y34725000D01*
G75*
G02*
X22825000Y34943750I0J218750D01*
G01*
X22825000Y35381250D01*
G75*
G02*
X23043750Y35600000I218750J0D01*
G01*
X23556250Y35600000D01*
G75*
G02*
X23775000Y35381250I0J-218750D01*
G01*
X23775000Y34943750D01*
G75*
G02*
X23556250Y34725000I-218750J0D01*
G01*
G37*
%TD*%
%TO.C,C11*%
G36*
G01*
X24906250Y36300000D02*
X24393750Y36300000D01*
G75*
G02*
X24175000Y36518750I0J218750D01*
G01*
X24175000Y36956250D01*
G75*
G02*
X24393750Y37175000I218750J0D01*
G01*
X24906250Y37175000D01*
G75*
G02*
X25125000Y36956250I0J-218750D01*
G01*
X25125000Y36518750D01*
G75*
G02*
X24906250Y36300000I-218750J0D01*
G01*
G37*
G36*
G01*
X24906250Y34725000D02*
X24393750Y34725000D01*
G75*
G02*
X24175000Y34943750I0J218750D01*
G01*
X24175000Y35381250D01*
G75*
G02*
X24393750Y35600000I218750J0D01*
G01*
X24906250Y35600000D01*
G75*
G02*
X25125000Y35381250I0J-218750D01*
G01*
X25125000Y34943750D01*
G75*
G02*
X24906250Y34725000I-218750J0D01*
G01*
G37*
%TD*%
%TO.C,C5*%
G36*
G01*
X34344870Y-28156145D02*
X34344870Y-27643645D01*
G75*
G02*
X34563620Y-27424895I218750J0D01*
G01*
X35001120Y-27424895D01*
G75*
G02*
X35219870Y-27643645I0J-218750D01*
G01*
X35219870Y-28156145D01*
G75*
G02*
X35001120Y-28374895I-218750J0D01*
G01*
X34563620Y-28374895D01*
G75*
G02*
X34344870Y-28156145I0J218750D01*
G01*
G37*
G36*
G01*
X32769870Y-28156145D02*
X32769870Y-27643645D01*
G75*
G02*
X32988620Y-27424895I218750J0D01*
G01*
X33426120Y-27424895D01*
G75*
G02*
X33644870Y-27643645I0J-218750D01*
G01*
X33644870Y-28156145D01*
G75*
G02*
X33426120Y-28374895I-218750J0D01*
G01*
X32988620Y-28374895D01*
G75*
G02*
X32769870Y-28156145I0J218750D01*
G01*
G37*
%TD*%
%TO.C,U2*%
G36*
G01*
X42040000Y39675000D02*
X42340000Y39675000D01*
G75*
G02*
X42490000Y39525000I0J-150000D01*
G01*
X42490000Y37875000D01*
G75*
G02*
X42340000Y37725000I-150000J0D01*
G01*
X42040000Y37725000D01*
G75*
G02*
X41890000Y37875000I0J150000D01*
G01*
X41890000Y39525000D01*
G75*
G02*
X42040000Y39675000I150000J0D01*
G01*
G37*
G36*
G01*
X40770000Y39675000D02*
X41070000Y39675000D01*
G75*
G02*
X41220000Y39525000I0J-150000D01*
G01*
X41220000Y37875000D01*
G75*
G02*
X41070000Y37725000I-150000J0D01*
G01*
X40770000Y37725000D01*
G75*
G02*
X40620000Y37875000I0J150000D01*
G01*
X40620000Y39525000D01*
G75*
G02*
X40770000Y39675000I150000J0D01*
G01*
G37*
G36*
G01*
X39500000Y39675000D02*
X39800000Y39675000D01*
G75*
G02*
X39950000Y39525000I0J-150000D01*
G01*
X39950000Y37875000D01*
G75*
G02*
X39800000Y37725000I-150000J0D01*
G01*
X39500000Y37725000D01*
G75*
G02*
X39350000Y37875000I0J150000D01*
G01*
X39350000Y39525000D01*
G75*
G02*
X39500000Y39675000I150000J0D01*
G01*
G37*
G36*
G01*
X38230000Y39675000D02*
X38530000Y39675000D01*
G75*
G02*
X38680000Y39525000I0J-150000D01*
G01*
X38680000Y37875000D01*
G75*
G02*
X38530000Y37725000I-150000J0D01*
G01*
X38230000Y37725000D01*
G75*
G02*
X38080000Y37875000I0J150000D01*
G01*
X38080000Y39525000D01*
G75*
G02*
X38230000Y39675000I150000J0D01*
G01*
G37*
G36*
G01*
X38230000Y44625000D02*
X38530000Y44625000D01*
G75*
G02*
X38680000Y44475000I0J-150000D01*
G01*
X38680000Y42825000D01*
G75*
G02*
X38530000Y42675000I-150000J0D01*
G01*
X38230000Y42675000D01*
G75*
G02*
X38080000Y42825000I0J150000D01*
G01*
X38080000Y44475000D01*
G75*
G02*
X38230000Y44625000I150000J0D01*
G01*
G37*
G36*
G01*
X39500000Y44625000D02*
X39800000Y44625000D01*
G75*
G02*
X39950000Y44475000I0J-150000D01*
G01*
X39950000Y42825000D01*
G75*
G02*
X39800000Y42675000I-150000J0D01*
G01*
X39500000Y42675000D01*
G75*
G02*
X39350000Y42825000I0J150000D01*
G01*
X39350000Y44475000D01*
G75*
G02*
X39500000Y44625000I150000J0D01*
G01*
G37*
G36*
G01*
X40770000Y44625000D02*
X41070000Y44625000D01*
G75*
G02*
X41220000Y44475000I0J-150000D01*
G01*
X41220000Y42825000D01*
G75*
G02*
X41070000Y42675000I-150000J0D01*
G01*
X40770000Y42675000D01*
G75*
G02*
X40620000Y42825000I0J150000D01*
G01*
X40620000Y44475000D01*
G75*
G02*
X40770000Y44625000I150000J0D01*
G01*
G37*
G36*
G01*
X42040000Y44625000D02*
X42340000Y44625000D01*
G75*
G02*
X42490000Y44475000I0J-150000D01*
G01*
X42490000Y42825000D01*
G75*
G02*
X42340000Y42675000I-150000J0D01*
G01*
X42040000Y42675000D01*
G75*
G02*
X41890000Y42825000I0J150000D01*
G01*
X41890000Y44475000D01*
G75*
G02*
X42040000Y44625000I150000J0D01*
G01*
G37*
%TD*%
%TO.C,R18*%
G36*
G01*
X39950000Y36806250D02*
X39950000Y36293750D01*
G75*
G02*
X39731250Y36075000I-218750J0D01*
G01*
X39293750Y36075000D01*
G75*
G02*
X39075000Y36293750I0J218750D01*
G01*
X39075000Y36806250D01*
G75*
G02*
X39293750Y37025000I218750J0D01*
G01*
X39731250Y37025000D01*
G75*
G02*
X39950000Y36806250I0J-218750D01*
G01*
G37*
G36*
G01*
X41525000Y36806250D02*
X41525000Y36293750D01*
G75*
G02*
X41306250Y36075000I-218750J0D01*
G01*
X40868750Y36075000D01*
G75*
G02*
X40650000Y36293750I0J218750D01*
G01*
X40650000Y36806250D01*
G75*
G02*
X40868750Y37025000I218750J0D01*
G01*
X41306250Y37025000D01*
G75*
G02*
X41525000Y36806250I0J-218750D01*
G01*
G37*
%TD*%
%TO.C,R17*%
G36*
G01*
X41050000Y46006250D02*
X41050000Y45493750D01*
G75*
G02*
X40831250Y45275000I-218750J0D01*
G01*
X40393750Y45275000D01*
G75*
G02*
X40175000Y45493750I0J218750D01*
G01*
X40175000Y46006250D01*
G75*
G02*
X40393750Y46225000I218750J0D01*
G01*
X40831250Y46225000D01*
G75*
G02*
X41050000Y46006250I0J-218750D01*
G01*
G37*
G36*
G01*
X42625000Y46006250D02*
X42625000Y45493750D01*
G75*
G02*
X42406250Y45275000I-218750J0D01*
G01*
X41968750Y45275000D01*
G75*
G02*
X41750000Y45493750I0J218750D01*
G01*
X41750000Y46006250D01*
G75*
G02*
X41968750Y46225000I218750J0D01*
G01*
X42406250Y46225000D01*
G75*
G02*
X42625000Y46006250I0J-218750D01*
G01*
G37*
%TD*%
%TO.C,R16*%
G36*
G01*
X37156250Y41200000D02*
X36643750Y41200000D01*
G75*
G02*
X36425000Y41418750I0J218750D01*
G01*
X36425000Y41856250D01*
G75*
G02*
X36643750Y42075000I218750J0D01*
G01*
X37156250Y42075000D01*
G75*
G02*
X37375000Y41856250I0J-218750D01*
G01*
X37375000Y41418750D01*
G75*
G02*
X37156250Y41200000I-218750J0D01*
G01*
G37*
G36*
G01*
X37156250Y39625000D02*
X36643750Y39625000D01*
G75*
G02*
X36425000Y39843750I0J218750D01*
G01*
X36425000Y40281250D01*
G75*
G02*
X36643750Y40500000I218750J0D01*
G01*
X37156250Y40500000D01*
G75*
G02*
X37375000Y40281250I0J-218750D01*
G01*
X37375000Y39843750D01*
G75*
G02*
X37156250Y39625000I-218750J0D01*
G01*
G37*
%TD*%
%TO.C,R15*%
G36*
G01*
X36006250Y41200000D02*
X35493750Y41200000D01*
G75*
G02*
X35275000Y41418750I0J218750D01*
G01*
X35275000Y41856250D01*
G75*
G02*
X35493750Y42075000I218750J0D01*
G01*
X36006250Y42075000D01*
G75*
G02*
X36225000Y41856250I0J-218750D01*
G01*
X36225000Y41418750D01*
G75*
G02*
X36006250Y41200000I-218750J0D01*
G01*
G37*
G36*
G01*
X36006250Y39625000D02*
X35493750Y39625000D01*
G75*
G02*
X35275000Y39843750I0J218750D01*
G01*
X35275000Y40281250D01*
G75*
G02*
X35493750Y40500000I218750J0D01*
G01*
X36006250Y40500000D01*
G75*
G02*
X36225000Y40281250I0J-218750D01*
G01*
X36225000Y39843750D01*
G75*
G02*
X36006250Y39625000I-218750J0D01*
G01*
G37*
%TD*%
%TO.C,R14*%
G36*
G01*
X35343750Y44350000D02*
X35856250Y44350000D01*
G75*
G02*
X36075000Y44131250I0J-218750D01*
G01*
X36075000Y43693750D01*
G75*
G02*
X35856250Y43475000I-218750J0D01*
G01*
X35343750Y43475000D01*
G75*
G02*
X35125000Y43693750I0J218750D01*
G01*
X35125000Y44131250D01*
G75*
G02*
X35343750Y44350000I218750J0D01*
G01*
G37*
G36*
G01*
X35343750Y45925000D02*
X35856250Y45925000D01*
G75*
G02*
X36075000Y45706250I0J-218750D01*
G01*
X36075000Y45268750D01*
G75*
G02*
X35856250Y45050000I-218750J0D01*
G01*
X35343750Y45050000D01*
G75*
G02*
X35125000Y45268750I0J218750D01*
G01*
X35125000Y45706250D01*
G75*
G02*
X35343750Y45925000I218750J0D01*
G01*
G37*
%TD*%
%TO.C,R13*%
G36*
G01*
X36643750Y44350000D02*
X37156250Y44350000D01*
G75*
G02*
X37375000Y44131250I0J-218750D01*
G01*
X37375000Y43693750D01*
G75*
G02*
X37156250Y43475000I-218750J0D01*
G01*
X36643750Y43475000D01*
G75*
G02*
X36425000Y43693750I0J218750D01*
G01*
X36425000Y44131250D01*
G75*
G02*
X36643750Y44350000I218750J0D01*
G01*
G37*
G36*
G01*
X36643750Y45925000D02*
X37156250Y45925000D01*
G75*
G02*
X37375000Y45706250I0J-218750D01*
G01*
X37375000Y45268750D01*
G75*
G02*
X37156250Y45050000I-218750J0D01*
G01*
X36643750Y45050000D01*
G75*
G02*
X36425000Y45268750I0J218750D01*
G01*
X36425000Y45706250D01*
G75*
G02*
X36643750Y45925000I218750J0D01*
G01*
G37*
%TD*%
%TO.C,R2*%
G36*
G01*
X33543750Y5050000D02*
X34056250Y5050000D01*
G75*
G02*
X34275000Y4831250I0J-218750D01*
G01*
X34275000Y4393750D01*
G75*
G02*
X34056250Y4175000I-218750J0D01*
G01*
X33543750Y4175000D01*
G75*
G02*
X33325000Y4393750I0J218750D01*
G01*
X33325000Y4831250D01*
G75*
G02*
X33543750Y5050000I218750J0D01*
G01*
G37*
G36*
G01*
X33543750Y6625000D02*
X34056250Y6625000D01*
G75*
G02*
X34275000Y6406250I0J-218750D01*
G01*
X34275000Y5968750D01*
G75*
G02*
X34056250Y5750000I-218750J0D01*
G01*
X33543750Y5750000D01*
G75*
G02*
X33325000Y5968750I0J218750D01*
G01*
X33325000Y6406250D01*
G75*
G02*
X33543750Y6625000I218750J0D01*
G01*
G37*
%TD*%
%TO.C,R1*%
G36*
G01*
X34693750Y5050000D02*
X35206250Y5050000D01*
G75*
G02*
X35425000Y4831250I0J-218750D01*
G01*
X35425000Y4393750D01*
G75*
G02*
X35206250Y4175000I-218750J0D01*
G01*
X34693750Y4175000D01*
G75*
G02*
X34475000Y4393750I0J218750D01*
G01*
X34475000Y4831250D01*
G75*
G02*
X34693750Y5050000I218750J0D01*
G01*
G37*
G36*
G01*
X34693750Y6625000D02*
X35206250Y6625000D01*
G75*
G02*
X35425000Y6406250I0J-218750D01*
G01*
X35425000Y5968750D01*
G75*
G02*
X35206250Y5750000I-218750J0D01*
G01*
X34693750Y5750000D01*
G75*
G02*
X34475000Y5968750I0J218750D01*
G01*
X34475000Y6406250D01*
G75*
G02*
X34693750Y6625000I218750J0D01*
G01*
G37*
%TD*%
%TO.C,C20*%
G36*
G01*
X34344870Y-16156146D02*
X34344870Y-15643646D01*
G75*
G02*
X34563620Y-15424896I218750J0D01*
G01*
X35001120Y-15424896D01*
G75*
G02*
X35219870Y-15643646I0J-218750D01*
G01*
X35219870Y-16156146D01*
G75*
G02*
X35001120Y-16374896I-218750J0D01*
G01*
X34563620Y-16374896D01*
G75*
G02*
X34344870Y-16156146I0J218750D01*
G01*
G37*
G36*
G01*
X32769870Y-16156146D02*
X32769870Y-15643646D01*
G75*
G02*
X32988620Y-15424896I218750J0D01*
G01*
X33426120Y-15424896D01*
G75*
G02*
X33644870Y-15643646I0J-218750D01*
G01*
X33644870Y-16156146D01*
G75*
G02*
X33426120Y-16374896I-218750J0D01*
G01*
X32988620Y-16374896D01*
G75*
G02*
X32769870Y-16156146I0J218750D01*
G01*
G37*
%TD*%
%TO.C,C19*%
G36*
G01*
X24844870Y-28156146D02*
X24844870Y-27643646D01*
G75*
G02*
X25063620Y-27424896I218750J0D01*
G01*
X25501120Y-27424896D01*
G75*
G02*
X25719870Y-27643646I0J-218750D01*
G01*
X25719870Y-28156146D01*
G75*
G02*
X25501120Y-28374896I-218750J0D01*
G01*
X25063620Y-28374896D01*
G75*
G02*
X24844870Y-28156146I0J218750D01*
G01*
G37*
G36*
G01*
X23269870Y-28156146D02*
X23269870Y-27643646D01*
G75*
G02*
X23488620Y-27424896I218750J0D01*
G01*
X23926120Y-27424896D01*
G75*
G02*
X24144870Y-27643646I0J-218750D01*
G01*
X24144870Y-28156146D01*
G75*
G02*
X23926120Y-28374896I-218750J0D01*
G01*
X23488620Y-28374896D01*
G75*
G02*
X23269870Y-28156146I0J218750D01*
G01*
G37*
%TD*%
%TO.C,C18*%
G36*
G01*
X24844870Y-16156145D02*
X24844870Y-15643645D01*
G75*
G02*
X25063620Y-15424895I218750J0D01*
G01*
X25501120Y-15424895D01*
G75*
G02*
X25719870Y-15643645I0J-218750D01*
G01*
X25719870Y-16156145D01*
G75*
G02*
X25501120Y-16374895I-218750J0D01*
G01*
X25063620Y-16374895D01*
G75*
G02*
X24844870Y-16156145I0J218750D01*
G01*
G37*
G36*
G01*
X23269870Y-16156145D02*
X23269870Y-15643645D01*
G75*
G02*
X23488620Y-15424895I218750J0D01*
G01*
X23926120Y-15424895D01*
G75*
G02*
X24144870Y-15643645I0J-218750D01*
G01*
X24144870Y-16156145D01*
G75*
G02*
X23926120Y-16374895I-218750J0D01*
G01*
X23488620Y-16374895D01*
G75*
G02*
X23269870Y-16156145I0J218750D01*
G01*
G37*
%TD*%
%TO.C,C10*%
G36*
G01*
X43844870Y-28156146D02*
X43844870Y-27643646D01*
G75*
G02*
X44063620Y-27424896I218750J0D01*
G01*
X44501120Y-27424896D01*
G75*
G02*
X44719870Y-27643646I0J-218750D01*
G01*
X44719870Y-28156146D01*
G75*
G02*
X44501120Y-28374896I-218750J0D01*
G01*
X44063620Y-28374896D01*
G75*
G02*
X43844870Y-28156146I0J218750D01*
G01*
G37*
G36*
G01*
X42269870Y-28156146D02*
X42269870Y-27643646D01*
G75*
G02*
X42488620Y-27424896I218750J0D01*
G01*
X42926120Y-27424896D01*
G75*
G02*
X43144870Y-27643646I0J-218750D01*
G01*
X43144870Y-28156146D01*
G75*
G02*
X42926120Y-28374896I-218750J0D01*
G01*
X42488620Y-28374896D01*
G75*
G02*
X42269870Y-28156146I0J218750D01*
G01*
G37*
%TD*%
%TO.C,C9*%
G36*
G01*
X40900000Y22543750D02*
X40900000Y23056250D01*
G75*
G02*
X41118750Y23275000I218750J0D01*
G01*
X41556250Y23275000D01*
G75*
G02*
X41775000Y23056250I0J-218750D01*
G01*
X41775000Y22543750D01*
G75*
G02*
X41556250Y22325000I-218750J0D01*
G01*
X41118750Y22325000D01*
G75*
G02*
X40900000Y22543750I0J218750D01*
G01*
G37*
G36*
G01*
X39325000Y22543750D02*
X39325000Y23056250D01*
G75*
G02*
X39543750Y23275000I218750J0D01*
G01*
X39981250Y23275000D01*
G75*
G02*
X40200000Y23056250I0J-218750D01*
G01*
X40200000Y22543750D01*
G75*
G02*
X39981250Y22325000I-218750J0D01*
G01*
X39543750Y22325000D01*
G75*
G02*
X39325000Y22543750I0J218750D01*
G01*
G37*
%TD*%
%TO.C,C8*%
G36*
G01*
X40900105Y21398880D02*
X40900105Y21911380D01*
G75*
G02*
X41118855Y22130130I218750J0D01*
G01*
X41556355Y22130130D01*
G75*
G02*
X41775105Y21911380I0J-218750D01*
G01*
X41775105Y21398880D01*
G75*
G02*
X41556355Y21180130I-218750J0D01*
G01*
X41118855Y21180130D01*
G75*
G02*
X40900105Y21398880I0J218750D01*
G01*
G37*
G36*
G01*
X39325105Y21398880D02*
X39325105Y21911380D01*
G75*
G02*
X39543855Y22130130I218750J0D01*
G01*
X39981355Y22130130D01*
G75*
G02*
X40200105Y21911380I0J-218750D01*
G01*
X40200105Y21398880D01*
G75*
G02*
X39981355Y21180130I-218750J0D01*
G01*
X39543855Y21180130D01*
G75*
G02*
X39325105Y21398880I0J218750D01*
G01*
G37*
%TD*%
%TO.C,C7*%
G36*
G01*
X43844870Y-16156145D02*
X43844870Y-15643645D01*
G75*
G02*
X44063620Y-15424895I218750J0D01*
G01*
X44501120Y-15424895D01*
G75*
G02*
X44719870Y-15643645I0J-218750D01*
G01*
X44719870Y-16156145D01*
G75*
G02*
X44501120Y-16374895I-218750J0D01*
G01*
X44063620Y-16374895D01*
G75*
G02*
X43844870Y-16156145I0J218750D01*
G01*
G37*
G36*
G01*
X42269870Y-16156145D02*
X42269870Y-15643645D01*
G75*
G02*
X42488620Y-15424895I218750J0D01*
G01*
X42926120Y-15424895D01*
G75*
G02*
X43144870Y-15643645I0J-218750D01*
G01*
X43144870Y-16156145D01*
G75*
G02*
X42926120Y-16374895I-218750J0D01*
G01*
X42488620Y-16374895D01*
G75*
G02*
X42269870Y-16156145I0J218750D01*
G01*
G37*
%TD*%
%TO.C,C6*%
G36*
G01*
X29600000Y34743750D02*
X29600000Y35256250D01*
G75*
G02*
X29818750Y35475000I218750J0D01*
G01*
X30256250Y35475000D01*
G75*
G02*
X30475000Y35256250I0J-218750D01*
G01*
X30475000Y34743750D01*
G75*
G02*
X30256250Y34525000I-218750J0D01*
G01*
X29818750Y34525000D01*
G75*
G02*
X29600000Y34743750I0J218750D01*
G01*
G37*
G36*
G01*
X28025000Y34743750D02*
X28025000Y35256250D01*
G75*
G02*
X28243750Y35475000I218750J0D01*
G01*
X28681250Y35475000D01*
G75*
G02*
X28900000Y35256250I0J-218750D01*
G01*
X28900000Y34743750D01*
G75*
G02*
X28681250Y34525000I-218750J0D01*
G01*
X28243750Y34525000D01*
G75*
G02*
X28025000Y34743750I0J218750D01*
G01*
G37*
%TD*%
%TO.C,C4*%
G36*
G01*
X14801120Y-23049896D02*
X14288620Y-23049896D01*
G75*
G02*
X14069870Y-22831146I0J218750D01*
G01*
X14069870Y-22393646D01*
G75*
G02*
X14288620Y-22174896I218750J0D01*
G01*
X14801120Y-22174896D01*
G75*
G02*
X15019870Y-22393646I0J-218750D01*
G01*
X15019870Y-22831146D01*
G75*
G02*
X14801120Y-23049896I-218750J0D01*
G01*
G37*
G36*
G01*
X14801120Y-24624896D02*
X14288620Y-24624896D01*
G75*
G02*
X14069870Y-24406146I0J218750D01*
G01*
X14069870Y-23968646D01*
G75*
G02*
X14288620Y-23749896I218750J0D01*
G01*
X14801120Y-23749896D01*
G75*
G02*
X15019870Y-23968646I0J-218750D01*
G01*
X15019870Y-24406146D01*
G75*
G02*
X14801120Y-24624896I-218750J0D01*
G01*
G37*
%TD*%
%TO.C,C3*%
G36*
G01*
X14288620Y-20749895D02*
X14801120Y-20749895D01*
G75*
G02*
X15019870Y-20968645I0J-218750D01*
G01*
X15019870Y-21406145D01*
G75*
G02*
X14801120Y-21624895I-218750J0D01*
G01*
X14288620Y-21624895D01*
G75*
G02*
X14069870Y-21406145I0J218750D01*
G01*
X14069870Y-20968645D01*
G75*
G02*
X14288620Y-20749895I218750J0D01*
G01*
G37*
G36*
G01*
X14288620Y-19174895D02*
X14801120Y-19174895D01*
G75*
G02*
X15019870Y-19393645I0J-218750D01*
G01*
X15019870Y-19831145D01*
G75*
G02*
X14801120Y-20049895I-218750J0D01*
G01*
X14288620Y-20049895D01*
G75*
G02*
X14069870Y-19831145I0J218750D01*
G01*
X14069870Y-19393645D01*
G75*
G02*
X14288620Y-19174895I218750J0D01*
G01*
G37*
%TD*%
%TO.C,C2*%
G36*
G01*
X40900000Y23893750D02*
X40900000Y24406250D01*
G75*
G02*
X41118750Y24625000I218750J0D01*
G01*
X41556250Y24625000D01*
G75*
G02*
X41775000Y24406250I0J-218750D01*
G01*
X41775000Y23893750D01*
G75*
G02*
X41556250Y23675000I-218750J0D01*
G01*
X41118750Y23675000D01*
G75*
G02*
X40900000Y23893750I0J218750D01*
G01*
G37*
G36*
G01*
X39325000Y23893750D02*
X39325000Y24406250D01*
G75*
G02*
X39543750Y24625000I218750J0D01*
G01*
X39981250Y24625000D01*
G75*
G02*
X40200000Y24406250I0J-218750D01*
G01*
X40200000Y23893750D01*
G75*
G02*
X39981250Y23675000I-218750J0D01*
G01*
X39543750Y23675000D01*
G75*
G02*
X39325000Y23893750I0J218750D01*
G01*
G37*
%TD*%
M02*
